%!PS-Adobe-2.0 EPSF-1.2
%%Creator: MATLAB, The MathWorks, Inc. Version 7.14.0.739 (R2012a). Operating System: Linux 3.13.0-53-generic #88-Ubuntu SMP Wed May 13 18:10:29 UTC 2015 x86_64.
%%Title: ./8__PSD_003100193.pow.eps
%%CreationDate: 05/23/2015  14:03:26
%%DocumentNeededFonts: Helvetica
%%DocumentProcessColors: Cyan Magenta Yellow Black
%%Extensions: CMYK
%%Pages: 1
%%BoundingBox:    40   281   577   546
%%EndComments

%%BeginProlog
% MathWorks dictionary
/MathWorks 160 dict begin
% definition operators
/bdef {bind def} bind def
/ldef {load def} bind def
/xdef {exch def} bdef
/xstore {exch store} bdef
% operator abbreviations
/c  /clip ldef
/cc /concat ldef
/cp /closepath ldef
/gr /grestore ldef
/gs /gsave ldef
/mt /moveto ldef
/np /newpath ldef
/cm /currentmatrix ldef
/sm /setmatrix ldef
/rm /rmoveto ldef
/rl /rlineto ldef
/s {show newpath} bdef
/sc {setcmykcolor} bdef
/sr /setrgbcolor ldef
/sg /setgray ldef
/w /setlinewidth ldef
/j /setlinejoin ldef
/cap /setlinecap ldef
/rc {rectclip} bdef
/rf {rectfill} bdef
% page state control
/pgsv () def
/bpage {/pgsv save def} bdef
/epage {pgsv restore} bdef
/bplot /gsave ldef
/eplot {stroke grestore} bdef
% orientation switch
/portraitMode 0 def /landscapeMode 1 def /rotateMode 2 def
% coordinate system mappings
/dpi2point 0 def
% font control
/FontSize 0 def
/FMS {/FontSize xstore findfont [FontSize 0 0 FontSize neg 0 0]
  makefont setfont} bdef
/reencode {exch dup where {pop load} {pop StandardEncoding} ifelse
  exch dup 3 1 roll findfont dup length dict begin
  { 1 index /FID ne {def}{pop pop} ifelse } forall
  /Encoding exch def currentdict end definefont pop} bdef
/isroman {findfont /CharStrings get /Agrave known} bdef
/FMSR {3 1 roll 1 index dup isroman {reencode} {pop pop} ifelse
  exch FMS} bdef
/csm {1 dpi2point div -1 dpi2point div scale neg translate
 dup landscapeMode eq {pop -90 rotate}
  {rotateMode eq {90 rotate} if} ifelse} bdef
% line types: solid, dotted, dashed, dotdash
/SO { [] 0 setdash } bdef
/DO { [.5 dpi2point mul 4 dpi2point mul] 0 setdash } bdef
/DA { [6 dpi2point mul] 0 setdash } bdef
/DD { [.5 dpi2point mul 4 dpi2point mul 6 dpi2point mul 4
  dpi2point mul] 0 setdash } bdef
% macros for lines and objects
/L {lineto stroke} bdef
/MP {3 1 roll moveto 1 sub {rlineto} repeat} bdef
/AP {{rlineto} repeat} bdef
/PDlw -1 def
/W {/PDlw currentlinewidth def setlinewidth} def
/PP {closepath eofill} bdef
/DP {closepath stroke} bdef
/MR {4 -2 roll moveto dup  0 exch rlineto exch 0 rlineto
  neg 0 exch rlineto closepath} bdef
/FR {MR stroke} bdef
/PR {MR fill} bdef
/L1i {{currentfile picstr readhexstring pop} image} bdef
/tMatrix matrix def
/MakeOval {newpath tMatrix currentmatrix pop translate scale
0 0 1 0 360 arc tMatrix setmatrix} bdef
/FO {MakeOval stroke} bdef
/PO {MakeOval fill} bdef
/PD {currentlinewidth 2 div 0 360 arc fill
   PDlw -1 eq not {PDlw w /PDlw -1 def} if} def
/FA {newpath tMatrix currentmatrix pop translate scale
  0 0 1 5 -2 roll arc tMatrix setmatrix stroke} bdef
/PA {newpath tMatrix currentmatrix pop	translate 0 0 moveto scale
  0 0 1 5 -2 roll arc closepath tMatrix setmatrix fill} bdef
/FAn {newpath tMatrix currentmatrix pop translate scale
  0 0 1 5 -2 roll arcn tMatrix setmatrix stroke} bdef
/PAn {newpath tMatrix currentmatrix pop translate 0 0 moveto scale
  0 0 1 5 -2 roll arcn closepath tMatrix setmatrix fill} bdef
/vradius 0 def /hradius 0 def /lry 0 def
/lrx 0 def /uly 0 def /ulx 0 def /rad 0 def
/MRR {/vradius xdef /hradius xdef /lry xdef /lrx xdef /uly xdef
  /ulx xdef newpath tMatrix currentmatrix pop ulx hradius add uly
  vradius add translate hradius vradius scale 0 0 1 180 270 arc 
  tMatrix setmatrix lrx hradius sub uly vradius add translate
  hradius vradius scale 0 0 1 270 360 arc tMatrix setmatrix
  lrx hradius sub lry vradius sub translate hradius vradius scale
  0 0 1 0 90 arc tMatrix setmatrix ulx hradius add lry vradius sub
  translate hradius vradius scale 0 0 1 90 180 arc tMatrix setmatrix
  closepath} bdef
/FRR {MRR stroke } bdef
/PRR {MRR fill } bdef
/MlrRR {/lry xdef /lrx xdef /uly xdef /ulx xdef /rad lry uly sub 2 div def
  newpath tMatrix currentmatrix pop ulx rad add uly rad add translate
  rad rad scale 0 0 1 90 270 arc tMatrix setmatrix lrx rad sub lry rad
  sub translate rad rad scale 0 0 1 270 90 arc tMatrix setmatrix
  closepath} bdef
/FlrRR {MlrRR stroke } bdef
/PlrRR {MlrRR fill } bdef
/MtbRR {/lry xdef /lrx xdef /uly xdef /ulx xdef /rad lrx ulx sub 2 div def
  newpath tMatrix currentmatrix pop ulx rad add uly rad add translate
  rad rad scale 0 0 1 180 360 arc tMatrix setmatrix lrx rad sub lry rad
  sub translate rad rad scale 0 0 1 0 180 arc tMatrix setmatrix
  closepath} bdef
/FtbRR {MtbRR stroke } bdef
/PtbRR {MtbRR fill } bdef
/stri 6 array def /dtri 6 array def
/smat 6 array def /dmat 6 array def
/tmat1 6 array def /tmat2 6 array def /dif 3 array def
/asub {/ind2 exch def /ind1 exch def dup dup
  ind1 get exch ind2 get sub exch } bdef
/tri_to_matrix {
  2 0 asub 3 1 asub 4 0 asub 5 1 asub
  dup 0 get exch 1 get 7 -1 roll astore } bdef
/compute_transform {
  dmat dtri tri_to_matrix tmat1 invertmatrix 
  smat stri tri_to_matrix tmat2 concatmatrix } bdef
/ds {stri astore pop} bdef
/dt {dtri astore pop} bdef
/db {2 copy /cols xdef /rows xdef mul dup 3 mul string
  currentfile exch readhexstring pop
  dup 0 3 index getinterval /rbmap xdef
  dup 2 index dup getinterval /gbmap xdef
  1 index dup 2 mul exch getinterval /bbmap xdef pop pop}bdef
/it {gs np dtri aload pop moveto lineto lineto cp c
  cols rows 8 compute_transform 
  rbmap gbmap bbmap true 3 colorimage gr}bdef
/il {newpath moveto lineto stroke}bdef
currentdict end def
%%EndProlog

%%BeginSetup
MathWorks begin

0 cap

end
%%EndSetup

%%Page: 1 1
%%BeginPageSetup
%%PageBoundingBox:    40   281   577   546
MathWorks begin
bpage
%%EndPageSetup

%%BeginObject: obj1
bplot

/dpi2point 12 def
portraitMode 0216 7344 csm

  272   787  6443  3183 MR c np
26 dict begin %Colortable dictionary
/c0 { 0.000000 0.000000 0.000000 sr} bdef
/c1 { 1.000000 1.000000 1.000000 sr} bdef
/c2 { 0.900000 0.000000 0.000000 sr} bdef
/c3 { 0.000000 0.820000 0.000000 sr} bdef
/c4 { 0.000000 0.000000 0.800000 sr} bdef
/c5 { 0.910000 0.820000 0.320000 sr} bdef
/c6 { 1.000000 0.260000 0.820000 sr} bdef
/c7 { 0.000000 0.820000 0.820000 sr} bdef
c0
1 j
1 sg
   0    0 6913 5186 PR
6 w
0 2593 5875 0 0 -2593 691 3630 4 MP
PP
-5875 0 0 2593 5875 0 0 -2593 691 3630 5 MP stroke
gs 691 1037 5876 2594 MR c np
/c8 { 1.000000 0.000000 0.000000 sr} bdef
c8
-1 0 2 3 1 -1 1 -2 1 -1 1 1 1 0 1 -1 
0 3 1 -2 1 0 1 -1 1 0 1 0 1 0 1 2 
0 1 1 -3 1 0 1 0 1 1 1 -1 1 0 1 0 
1 4 1 -4 1 2 0 -2 1 1 1 -1 1 2 1 -2 
0 1 1 -1 1 0 1 0 -1 0 2 0 1 1 1 -1 
1 1 1 -1 1 1 1 1 0 -1 1 -1 1 0 1 0 
1 0 1 0 1 0 1 1 1 0 1 1 1 -2 1 2 
1 -2 1 1 1 -1 1 0 1 1 1 -1 0 1 1 -1 
1 3 1 -2 1 -1 1 0 1 0 1 0 1 0 1 0 
1 0 1 1 1 3 1 -4 1 0 1 1 1 2 1 -1 
0 -2 1 0 1 0 1 1 1 -1 1 1 1 -1 1 1 
0 -1 1 2 1 -2 1 0 -1 0 2 0 1 0 1 1 
1 -1 1 0 1 0 6478 3629 100 MP stroke
1 0 1 0 1 0 1 2 1 -1 1 -1 1 0 1 0 
1 0 1 0 1 3 0 -3 1 0 1 0 1 2 0 -2 
1 0 1 0 1 0 1 1 0 -1 1 1 1 -1 1 0 
1 0 1 0 1 0 1 0 -1 0 2 0 1 0 1 0 
1 1 1 0 1 1 0 -2 1 2 1 -2 1 0 1 0 
0 5 1 -5 1 0 1 2 0 -2 1 1 1 1 1 2 
1 -4 1 1 1 2 1 -3 1 0 1 0 1 0 1 1 
1 -1 1 0 1 2 0 -1 1 1 1 -2 1 7 0 -7 
1 0 1 2 1 -1 1 -1 0 3 1 -3 1 0 1 0 
1 0 1 0 1 1 1 -1 1 0 1 1 1 -1 0 1 
1 1 1 0 1 -2 1 0 1 0 1 1 1 0 -1 0 
2 0 1 1 1 -2 0 1 1 1 1 -2 1 0 1 1 
1 -1 1 1 1 -1 6392 3629 100 MP stroke
0 4 1 -4 1 0 1 1 0 -1 1 2 1 -1 1 0 
1 -1 1 1 1 -1 1 0 1 0 1 1 1 -1 1 0 
1 1 1 0 1 0 1 -1 1 0 1 0 0 3 1 -3 
1 1 1 2 1 -3 1 2 1 -2 1 0 1 0 1 0 
1 0 1 1 1 -1 1 3 1 -3 1 2 1 -2 1 0 
-1 0 2 2 1 -2 1 2 1 -1 1 0 1 -1 1 1 
0 -1 1 2 1 -2 1 0 1 0 -1 0 2 2 1 -1 
1 -1 0 5 1 -4 1 -1 1 1 1 -1 1 0 1 1 
1 1 0 -2 1 0 1 0 1 2 1 -1 1 -1 1 0 
1 0 -1 0 2 0 1 0 1 0 1 0 1 0 1 0 
1 1 1 -1 1 0 1 0 1 1 1 -1 1 0 -1 0 
2 0 1 0 1 0 1 0 1 0 1 1 1 -1 1 1 
1 1 1 -2 0 1 6304 3628 100 MP stroke
1 -1 1 1 1 -1 1 0 1 1 1 -1 1 1 1 -1 
1 1 1 -1 1 0 -1 0 2 0 1 0 1 0 1 1 
1 -1 1 0 -1 0 2 3 1 -2 1 -1 1 0 -1 0 
2 4 1 -4 1 0 -1 0 2 0 1 0 1 3 1 -1 
0 3 1 -5 1 0 1 0 1 1 1 -1 1 0 -1 0 
2 0 1 0 1 2 1 -2 0 1 1 -1 1 1 1 2 
0 -2 1 -1 1 3 1 -3 1 0 1 1 1 0 1 -1 
0 1 1 -1 1 1 1 -1 1 0 1 0 1 0 1 0 
1 0 1 0 1 3 0 -3 1 1 1 -1 1 1 1 1 
1 0 1 -2 1 0 1 5 1 -4 1 0 1 -1 1 2 
1 -1 1 0 1 -1 1 1 1 2 0 -2 1 -1 1 0 
1 2 1 -1 1 -1 1 0 1 1 1 -1 1 2 1 2 
1 -4 0 4 1 -4 6217 3629 100 MP stroke
1 0 1 1 1 3 1 -2 1 -2 0 1 1 2 1 -3 
1 0 1 0 0 4 1 -2 1 -1 1 -1 1 0 1 1 
1 -1 1 0 1 1 1 -1 1 0 1 2 1 -2 1 1 
1 -1 1 0 1 1 1 -1 1 0 1 0 1 0 1 1 
1 -1 1 0 1 0 1 0 1 1 1 -1 0 2 1 -2 
1 1 1 0 -1 0 2 2 1 -3 1 0 1 3 0 -2 
1 -1 1 0 1 1 1 -1 1 2 1 -2 1 0 1 0 
1 1 1 -1 1 1 1 3 1 -2 0 -2 1 2 1 -2 
1 1 1 1 1 -2 1 2 1 -1 0 2 1 -2 1 -1 
1 0 1 3 0 -3 1 1 1 1 1 -1 1 -1 1 0 
1 0 1 3 1 0 1 -3 1 0 1 1 1 -1 1 1 
1 -1 1 1 1 -1 1 2 0 -2 1 0 1 1 1 -1 
0 4 1 -3 1 0 6128 3628 100 MP stroke
1 -1 1 0 1 0 1 2 1 -2 0 1 1 1 1 -1 
1 0 -1 0 2 0 1 -1 1 2 1 0 1 -2 1 2 
1 -2 1 2 1 0 1 -2 1 1 1 -1 1 2 1 0 
0 -2 1 2 1 -1 1 -1 0 1 1 -1 1 0 1 0 
1 1 1 -1 1 0 1 0 1 1 1 -1 1 2 1 -1 
1 0 1 -1 1 0 1 0 1 0 1 3 0 -3 1 1 
1 -1 1 0 1 1 1 -1 1 0 1 0 0 2 1 -2 
1 2 1 -2 1 0 0 3 1 -3 1 1 1 1 0 -2 
1 0 1 0 1 1 1 -1 1 1 1 1 1 -1 1 -1 
1 1 1 -1 1 0 1 0 1 2 1 -2 0 1 1 -1 
1 0 1 0 1 1 1 -1 1 1 0 -1 1 2 1 -2 
1 0 1 0 1 0 1 4 1 -2 0 -2 1 1 1 2 
1 -2 1 -1 1 0 6040 3629 100 MP stroke
1 1 1 0 1 0 1 1 1 -1 1 1 1 0 1 -2 
1 2 0 -2 1 1 1 1 1 -1 0 -1 1 1 1 1 
1 0 1 -2 0 2 1 1 1 -3 1 2 0 -2 1 0 
1 2 1 -2 1 0 1 0 1 0 1 0 1 1 1 1 
1 -2 1 1 1 -1 1 1 1 -1 1 0 1 0 1 0 
-1 0 2 0 1 0 1 1 0 2 1 -3 1 0 1 0 
1 0 1 0 1 1 1 1 0 1 1 -3 1 5 1 -5 
1 0 1 1 1 -1 1 0 -1 0 2 0 1 0 1 0 
-1 0 2 0 1 0 1 1 1 0 1 -1 1 0 1 0 
1 0 1 2 1 0 1 -2 0 5 1 -2 1 -3 1 2 
1 -1 1 -1 1 1 1 -1 1 1 1 2 1 0 0 -3 
1 2 1 -2 1 0 0 5 1 -5 1 1 1 1 1 -2 
0 1 1 -1 1 2 5954 3627 100 MP stroke
1 -2 0 1 1 2 1 -3 1 0 1 1 1 0 1 -1 
1 0 1 1 1 1 1 -2 0 3 1 -2 1 -1 1 0 
1 0 -1 0 2 2 1 -2 1 0 0 4 1 -4 1 0 
1 0 1 1 1 2 1 -3 1 0 0 4 1 -4 1 0 
1 0 1 0 1 0 1 0 1 0 1 1 1 -1 1 0 
-1 0 2 2 1 -2 1 2 1 6 0 -7 1 -1 1 0 
1 0 0 4 1 -4 1 1 1 1 0 -2 1 3 1 -3 
1 1 1 0 1 1 1 0 1 -1 1 -1 1 0 1 1 
1 -1 1 0 1 0 1 1 1 0 1 0 1 0 0 2 
1 -2 1 -1 1 2 1 -1 0 1 1 -2 1 0 1 1 
1 -1 1 3 1 -3 1 1 0 1 1 -2 1 0 1 0 
-1 0 2 0 1 1 1 0 1 -1 1 1 1 0 1 -1 
1 1 1 -1 1 0 5868 3629 100 MP stroke
1 1 1 -1 1 0 1 0 1 0 1 0 1 2 0 -2 
1 0 1 1 1 0 1 -1 1 0 1 0 1 1 1 -1 
1 0 1 0 1 0 1 0 1 1 1 -1 1 4 1 -4 
1 2 0 -2 1 0 1 1 1 -1 0 1 1 1 1 -2 
1 0 1 1 1 -1 1 0 1 0 1 2 1 -1 1 0 
1 0 1 -1 1 3 1 -3 1 1 1 -1 1 0 0 4 
1 -4 1 3 1 -3 1 0 1 1 1 8 1 -8 1 -1 
1 0 1 6 1 -6 1 0 1 0 1 0 1 0 1 3 
1 -2 0 1 1 1 1 -1 1 -2 1 1 0 3 1 -2 
1 0 1 0 0 -2 1 3 1 -3 1 0 1 0 1 2 
1 -1 1 0 1 0 1 -1 1 0 1 1 1 -1 1 3 
1 -3 0 2 1 -2 1 4 1 -4 0 1 1 1 1 -1 
1 0 1 -1 0 1 5779 3628 100 MP stroke
1 2 1 -1 1 2 0 -2 1 -2 1 2 1 -2 1 0 
1 0 1 0 1 1 1 0 1 0 1 -1 0 1 1 -1 
1 1 1 1 1 -1 0 1 1 -2 1 0 1 0 -1 0 
2 0 1 0 1 0 1 0 1 0 1 0 1 0 -1 0 
2 0 1 0 1 0 1 0 1 0 1 0 1 5 0 -5 
1 2 1 3 1 -5 1 0 1 0 1 1 1 -1 1 1 
1 0 1 -1 1 1 1 -1 1 0 1 9 1 -9 1 1 
1 -1 0 1 1 -1 1 1 1 0 1 -1 1 3 1 -3 
1 1 0 2 1 -3 1 2 1 -1 0 -1 1 3 1 -1 
1 1 0 -3 1 0 1 0 1 0 1 1 1 -1 1 0 
1 3 0 -3 1 1 1 1 1 0 1 1 0 -2 1 -1 
1 2 1 0 1 -1 1 0 1 -1 0 1 1 2 1 -1 
1 -2 1 0 -1 0 5695 3629 100 MP stroke
2 0 1 0 1 0 0 2 1 -1 1 -1 1 0 1 3 
0 -1 1 -2 1 5 1 -5 0 1 1 -1 1 1 1 -1 
1 0 1 2 1 1 1 -3 1 0 1 0 1 1 0 3 
1 -4 1 0 1 0 1 0 1 1 1 -1 1 0 1 3 
1 -2 1 -1 0 1 1 1 1 0 1 -1 1 -1 0 2 
1 -2 1 0 1 1 0 -1 1 1 1 2 1 -3 1 2 
0 -2 1 0 1 0 1 1 1 -1 1 0 1 1 1 -1 
1 0 1 0 1 0 1 0 1 2 1 0 -1 0 2 -2 
1 0 1 0 1 0 1 0 1 2 1 -1 0 1 1 -2 
1 4 1 -2 1 -1 1 0 1 1 1 -2 1 1 1 -1 
1 0 1 0 1 0 1 0 1 0 -1 0 2 0 1 0 
1 4 0 -3 1 -1 1 0 1 1 0 1 1 -1 1 1 
1 -2 1 1 0 -1 5609 3629 100 MP stroke
1 2 1 1 1 -3 1 0 1 1 1 -1 1 1 1 0 
1 0 1 -1 0 1 1 1 1 -2 1 0 -1 0 2 0 
1 3 1 -2 1 -1 0 1 1 -1 1 0 1 0 -1 0 
2 0 1 0 1 0 1 4 0 2 1 -6 1 2 1 -2 
1 0 1 1 1 -1 1 1 1 -1 1 5 1 -5 1 1 
1 -1 1 0 -1 0 2 0 1 2 1 0 1 -2 1 0 
1 0 1 4 0 -2 1 0 1 1 1 -2 1 0 1 1 
1 -2 1 9 0 -8 1 1 1 -2 1 1 0 2 1 -3 
1 0 1 2 1 -1 0 1 1 1 1 -2 1 0 1 -1 
1 0 1 0 1 0 1 0 1 1 1 0 0 4 1 -5 
1 0 1 0 -1 0 2 2 1 6 1 -7 1 3 0 -3 
1 -1 1 4 1 -2 0 -1 1 1 1 -2 1 0 1 0 
1 1 1 2 1 -3 5524 3629 100 MP stroke
1 1 1 -1 1 1 0 -1 1 1 1 0 1 0 1 0 
1 -1 1 0 1 0 -1 0 2 2 1 -2 1 0 1 0 
1 0 1 0 1 3 0 -2 1 1 1 -2 1 0 -1 0 
2 0 1 0 1 1 1 1 1 -2 1 0 1 2 0 -1 
1 3 1 -3 1 2 1 0 0 -3 1 0 1 5 1 -5 
0 1 1 -1 1 0 1 6 0 -2 1 -4 1 2 1 -2 
1 3 0 -3 1 0 1 3 1 0 0 -3 1 0 1 0 
1 0 1 1 0 2 1 0 1 -3 1 4 0 -3 1 1 
1 4 1 -6 0 1 1 -1 1 3 1 -3 1 0 1 0 
1 1 1 -1 0 4 1 -4 1 0 1 1 1 1 0 -2 
1 2 1 -2 1 3 0 -1 1 -2 1 4 1 -2 0 -2 
1 0 1 1 1 -1 1 0 1 1 1 -1 1 3 0 -3 
1 3 1 -1 1 -1 5443 3628 100 MP stroke
1 -1 0 3 1 0 1 -3 1 0 -1 0 2 0 1 3 
1 -1 0 -2 1 0 1 0 1 4 1 -4 1 0 1 2 
1 1 0 -3 1 2 1 -1 1 -1 1 0 -1 0 2 0 
1 4 1 -3 1 -1 1 0 1 1 1 1 0 -2 1 5 
1 -4 1 -1 0 2 1 -2 1 0 1 1 1 -1 1 0 
1 1 1 1 0 -2 1 1 1 -1 1 1 0 -1 1 1 
1 0 1 -1 1 0 1 0 1 0 1 7 0 -6 1 0 
1 0 1 -1 1 0 1 0 1 2 1 1 0 -2 1 -1 
1 0 1 0 -1 0 2 0 1 0 1 0 1 0 1 4 
1 -2 1 -2 1 0 1 1 1 -1 0 3 1 -3 1 1 
1 -1 1 1 1 -1 1 5 1 -3 0 -2 1 0 1 0 
1 1 1 -1 0 1 1 -1 1 1 1 0 -1 0 2 0 
1 2 1 0 -1 0 5362 3626 100 MP stroke
2 -1 1 1 1 -3 1 1 1 1 1 -1 1 -1 1 1 
1 0 1 -1 1 0 0 3 1 -3 1 3 1 -3 0 2 
1 -2 1 2 1 -2 1 1 1 -1 1 0 1 1 1 -1 
1 2 1 -2 0 3 1 -3 1 3 1 -2 1 0 0 3 
1 -4 1 2 1 -2 1 2 1 -2 1 0 1 0 1 1 
1 0 1 0 1 -1 1 0 1 2 0 -2 1 8 1 4 
1 -12 1 5 0 -5 1 0 1 1 1 2 0 -2 1 -1 
1 2 1 -1 1 -1 1 1 1 -1 1 1 1 -1 1 2 
1 -2 1 1 1 1 1 -2 1 0 1 1 1 0 1 1 
0 1 1 -2 1 0 1 -1 1 2 1 -2 1 0 1 0 
1 0 1 0 1 0 1 1 1 -1 1 1 1 -1 0 1 
1 -1 1 0 1 0 1 3 1 -2 1 5 0 -6 1 1 
1 -1 1 1 1 -1 5272 3629 100 MP stroke
1 0 1 0 1 0 1 0 1 0 1 0 1 0 0 5 
1 -3 1 0 1 -2 0 2 1 -2 1 1 1 1 1 -2 
0 7 1 -7 1 2 1 1 0 -3 1 0 1 1 1 2 
1 1 1 -1 1 -3 1 5 0 -4 1 -1 1 0 1 0 
1 1 1 1 1 -2 1 0 -1 0 2 0 1 3 1 6 
0 -9 1 0 1 1 1 -1 0 4 1 -4 1 1 1 -1 
1 0 1 1 1 -1 1 1 1 0 1 -1 1 0 1 0 
1 1 1 3 1 -1 0 -3 1 3 1 -3 1 0 1 1 
1 2 1 -3 1 0 0 3 1 -2 1 1 1 -2 0 4 
1 -4 1 0 1 0 1 4 0 -3 1 2 1 -3 1 0 
0 3 1 -3 1 0 1 0 1 0 1 0 1 1 1 -1 
0 4 1 -2 1 0 1 -1 1 0 1 0 1 -1 1 0 
0 3 1 -1 1 -1 5188 3628 100 MP stroke
1 0 -1 0 2 1 1 2 1 -4 0 2 1 3 1 -4 
1 1 1 -2 1 1 1 -1 1 3 0 -3 1 0 1 4 
1 0 1 -4 1 0 1 1 1 -1 1 0 1 3 1 -3 
1 1 1 0 1 3 1 -3 0 -1 1 7 1 -6 1 0 
-1 0 2 3 1 3 1 -7 1 0 0 2 1 -2 1 0 
1 0 0 4 1 -1 1 -2 1 2 0 -2 1 -1 1 1 
1 3 1 -1 0 -3 1 1 1 -1 1 2 1 1 1 -3 
1 0 1 0 0 4 1 -3 1 0 1 -1 0 2 1 -1 
1 3 1 -3 1 2 1 -2 1 -1 1 1 0 2 1 -2 
1 0 1 -1 1 0 1 0 1 0 1 2 0 2 1 -4 
1 0 1 0 0 2 1 -1 1 -1 1 0 1 1 1 1 
1 -2 1 1 1 -1 1 1 1 0 -1 0 2 0 1 1 
1 -2 1 0 1 1 5104 3628 100 MP stroke
1 -1 1 0 0 4 1 0 1 1 1 -4 0 3 1 -2 
1 0 1 0 1 1 0 -1 1 -2 1 2 1 -2 0 1 
1 2 1 -3 1 0 1 0 1 0 1 1 1 -1 1 0 
1 2 1 0 1 -2 0 1 1 6 1 -6 1 -1 0 3 
1 -3 1 4 1 -2 0 5 1 -6 1 0 1 0 1 3 
0 -3 1 -1 1 5 1 -4 1 -1 1 0 1 0 1 4 
0 -4 1 4 1 -4 1 5 0 -3 1 -2 1 1 1 6 
0 -7 1 0 1 0 1 0 1 2 0 -2 1 0 1 5 
1 -5 0 1 1 -1 1 0 1 2 1 -2 1 0 1 2 
1 -2 0 2 1 -1 1 0 1 0 -1 0 2 0 1 -1 
1 1 1 0 -1 0 2 4 1 -5 1 3 0 -1 1 -1 
1 3 1 -3 1 0 -1 0 2 0 1 -1 1 1 1 0 
1 0 1 11 0 -12 5024 3629 100 MP stroke
1 0 1 3 1 -2 1 1 0 -2 1 0 1 4 1 -4 
1 1 1 -1 1 0 1 0 -1 0 2 0 1 0 1 1 
0 -1 1 7 1 -7 1 3 0 -2 1 0 1 3 1 -3 
1 1 0 6 1 -6 1 -1 1 -1 0 3 1 -1 1 0 
1 -1 1 -1 0 1 1 -1 1 0 1 2 0 -1 1 -1 
1 0 1 5 0 -5 1 0 1 0 1 0 1 2 0 -2 
1 0 1 4 1 -3 0 -1 1 3 1 -2 1 2 1 0 
0 -2 1 -1 1 3 1 4 0 -5 1 1 1 1 1 -3 
1 -1 1 0 1 0 1 0 0 5 1 -2 1 -3 1 0 
1 1 1 3 1 -4 1 0 1 0 1 0 1 0 0 4 
1 -3 1 -1 1 0 1 0 1 0 1 1 1 2 0 -2 
1 2 1 -1 1 -1 1 -1 1 0 1 0 1 3 0 -3 
1 1 1 -1 1 4 4942 3625 100 MP stroke
0 -4 1 1 1 -1 1 3 0 1 1 -3 1 0 1 1 
1 -1 1 0 1 0 1 2 0 -2 1 -1 1 3 1 -3 
1 6 0 -5 1 0 1 -1 1 0 0 5 1 -4 1 0 
1 0 1 0 1 1 1 -1 1 -1 0 1 1 3 1 -1 
1 -3 0 5 1 -5 1 1 1 1 1 -1 0 2 1 5 
1 -5 1 4 0 3 1 -8 1 2 1 -4 1 0 1 3 
1 -1 1 -2 0 2 1 2 1 -3 1 2 0 -1 1 2 
1 -3 1 2 1 -2 1 -1 1 1 1 2 0 -1 1 -2 
1 0 1 0 1 0 0 3 1 0 1 -1 1 0 0 -2 
1 3 1 -3 1 0 0 4 1 -1 1 -1 1 2 1 -4 
0 2 1 0 1 -1 1 0 1 3 1 -4 1 2 1 -1 
0 -1 1 2 1 0 1 -2 1 4 1 -3 1 0 0 3 
1 -3 1 -1 1 0 4861 3629 100 MP stroke
1 11 0 -9 1 -1 1 2 1 -3 1 3 1 -1 1 2 
1 -1 0 -2 1 1 1 0 1 -1 1 -1 1 2 1 -2 
1 3 1 -3 1 3 1 -2 0 -1 1 2 1 -2 1 0 
-1 0 2 0 1 4 1 0 1 -4 1 0 1 2 1 -2 
0 3 1 -3 1 3 1 -3 1 1 1 -1 1 0 1 1 
0 -1 1 6 1 3 1 -9 1 1 1 1 1 1 1 -3 
0 1 1 -1 1 0 1 1 0 -1 1 6 1 -6 1 4 
0 -4 1 1 1 1 1 3 1 -3 0 -2 1 1 1 -1 
1 0 -1 0 2 0 1 8 1 -7 1 -1 0 2 1 -1 
1 2 1 -3 0 5 1 -1 1 3 1 -5 0 1 1 -3 
1 4 1 -4 1 0 0 4 1 -4 1 2 1 -2 0 1 
1 -1 1 1 1 2 1 -3 1 2 1 0 1 -2 0 4 
1 -3 1 2 1 -2 4779 3628 100 MP stroke
0 1 1 -2 1 1 1 2 1 -2 1 0 1 -1 1 2 
0 4 1 -6 1 1 1 5 1 -6 0 3 1 -3 1 0 
1 0 1 1 1 0 1 1 0 -2 1 1 1 11 1 -4 
1 -7 0 -1 1 2 1 0 1 3 0 1 1 -5 1 0 
1 -1 1 0 0 2 1 -2 1 0 1 0 0 4 1 -4 
1 1 1 -1 1 0 1 1 1 -1 1 2 0 -1 1 3 
1 -2 1 11 0 -11 1 0 1 3 1 -4 1 1 0 1 
1 6 1 -6 1 -3 1 3 1 -2 1 -1 1 0 1 6 
1 -3 1 -2 0 2 1 -3 1 1 1 2 0 -2 1 -1 
1 0 1 2 1 -2 1 0 1 0 1 1 1 -1 1 2 
1 -1 1 -1 0 1 1 1 1 -1 1 0 0 3 1 -4 
1 2 1 -1 1 1 1 -1 1 -1 1 1 1 -1 1 0 
1 1 1 -1 1 3 4695 3626 100 MP stroke
1 -3 1 0 1 1 1 1 1 -1 1 0 1 -1 1 1 
1 0 1 0 1 -1 1 0 0 3 1 3 1 -6 1 3 
0 -1 1 -2 1 6 1 -3 1 -2 0 3 1 -4 1 1 
1 0 0 2 1 0 1 -3 1 0 1 1 1 -1 1 1 
1 -1 0 5 1 -3 1 -1 1 -1 0 8 1 -6 1 -2 
1 0 1 0 -1 0 2 6 1 -6 1 2 0 1 1 1 
1 -3 1 13 0 -12 1 -1 1 2 1 0 1 -2 1 -1 
1 0 1 0 1 4 1 3 1 -7 1 0 1 0 1 2 
1 -2 0 1 1 -1 1 0 1 1 0 3 1 -4 1 0 
1 0 1 0 1 0 1 2 1 -2 0 2 1 0 1 0 
1 4 1 -6 1 2 1 -2 1 6 0 -6 1 2 1 -2 
1 0 1 2 1 9 1 -9 1 -1 1 -1 1 1 1 0 
1 0 1 0 1 0 4609 3628 100 MP stroke
1 0 -1 0 2 5 1 -4 1 2 0 -4 1 0 1 7 
1 -2 0 -4 1 0 1 1 1 -2 1 0 1 5 1 -5 
1 1 0 -1 1 2 1 -2 1 0 1 0 -1 0 2 8 
1 -8 1 0 -1 0 2 2 1 -2 1 1 1 0 0 17 
1 -16 1 -2 1 7 0 -6 1 -1 1 0 1 4 0 -2 
1 1 1 3 1 -5 1 0 -1 0 2 1 1 -2 1 1 
0 2 1 -1 1 1 1 -2 1 4 0 -4 1 -1 1 0 
1 4 0 -1 1 -1 1 1 1 -3 1 1 1 -1 1 0 
1 3 0 -3 1 2 1 -2 1 5 0 -3 1 -2 1 0 
1 1 1 1 0 9 1 -11 1 3 1 2 1 5 1 -9 
1 -1 0 2 1 -2 1 3 1 -2 1 1 0 1 1 -3 
1 2 1 -1 0 1 1 1 1 8 1 -11 1 2 1 -2 
1 1 1 0 -1 0 4531 3628 100 MP stroke
2 0 1 1 1 1 0 -3 1 3 1 -3 1 0 1 3 
0 -3 1 3 1 0 1 -3 0 1 1 3 1 -3 1 0 
1 0 0 6 1 -7 1 3 1 0 0 -3 1 1 1 2 
1 6 0 -5 1 -3 1 -1 1 2 1 2 1 -3 1 -1 
1 0 1 1 1 -1 1 3 1 -2 1 -1 1 2 1 -1 
0 -1 1 1 1 -1 1 4 0 -3 1 2 1 3 1 -3 
1 1 0 -2 1 -1 1 4 1 -5 0 2 1 -2 1 1 
1 0 1 -1 0 1 1 3 1 -2 1 0 1 -1 1 7 
1 -7 0 4 1 -1 1 -2 1 0 1 3 0 -4 1 -1 
1 2 1 0 0 -2 1 0 1 2 1 -1 1 1 1 -2 
1 4 1 1 0 -5 1 2 1 -1 1 0 -1 0 2 2 
1 -3 1 5 1 -3 0 -1 1 3 1 -2 1 -1 0 1 
1 2 1 -2 1 1 4449 3626 100 MP stroke
1 -2 1 -1 1 4 1 -4 0 1 1 -1 1 1 1 1 
0 3 1 -5 1 3 1 -2 1 4 0 -5 1 3 1 -3 
1 3 0 -3 1 2 1 -2 1 2 1 0 1 4 1 -3 
1 0 0 7 1 -7 1 -2 1 5 1 -1 0 -5 1 1 
1 1 1 1 0 -3 1 0 1 6 1 -5 0 -1 1 1 
1 0 1 -1 1 0 0 2 1 -1 1 0 1 -1 0 1 
1 4 1 -5 1 0 1 9 0 -8 1 14 1 -13 1 -1 
1 -1 1 3 1 -3 0 2 1 0 1 -1 1 -1 1 0 
-1 0 2 0 1 5 1 -3 0 -2 1 0 1 3 1 0 
1 -2 1 -1 1 0 1 0 1 1 1 4 1 -3 0 1 
1 -2 1 -1 1 9 1 -7 0 1 1 2 1 -2 1 -3 
0 7 1 -3 1 -4 1 0 1 3 0 -1 1 -2 1 3 
1 -1 0 -1 1 5 4369 3623 100 MP stroke
1 0 1 -6 1 3 1 -2 1 -1 1 2 1 0 1 -1 
1 1 1 0 1 0 1 1 1 -3 1 1 1 -1 1 1 
0 1 1 -2 1 0 1 1 0 1 1 -2 1 2 1 0 
1 0 0 -2 1 2 1 -2 1 3 0 -1 1 -1 1 -1 
1 2 1 -2 0 1 1 2 1 -3 1 1 0 8 1 -7 
1 0 1 -2 0 2 1 -2 1 6 1 1 1 -6 0 2 
1 0 1 -2 1 1 0 3 1 1 1 -6 1 1 1 6 
0 -6 1 1 1 1 1 -2 0 1 1 -2 1 3 1 1 
0 2 1 -3 1 -2 1 -1 1 1 1 -1 1 0 1 0 
1 4 1 -4 1 6 1 -4 1 3 1 -5 1 0 0 7 
1 -6 1 2 1 -3 0 1 1 10 1 -11 1 2 1 0 
1 4 1 0 1 -1 0 -4 1 4 1 3 1 -7 1 -1 
0 10 1 -10 1 2 4286 3627 100 MP stroke
1 5 0 -4 1 9 1 -12 1 0 -1 0 2 2 1 -2 
1 0 1 2 0 -2 1 4 1 4 1 -7 0 4 1 -5 
1 1 1 -1 1 1 0 -1 1 5 1 -5 1 1 1 -1 
1 1 1 1 0 5 1 -7 1 5 1 -4 1 -1 0 1 
1 15 1 -15 1 -1 1 0 1 14 1 -11 1 -1 0 -1 
1 4 1 1 1 -6 0 2 1 -2 1 1 1 1 1 4 
0 -6 1 0 1 2 1 1 0 -2 1 8 1 -9 1 4 
0 2 1 -3 1 -3 1 9 1 -8 0 -1 1 3 1 -1 
1 0 1 -1 1 1 1 4 1 0 0 -6 1 5 1 -5 
1 0 0 2 1 -1 1 4 1 -4 0 -1 1 1 1 1 
1 1 1 -2 0 2 1 -3 1 0 1 3 0 -2 1 8 
1 1 1 -5 1 10 0 -10 1 -2 1 -2 1 -1 0 1 
1 5 1 -6 1 0 4207 3629 100 MP stroke
-1 0 2 5 1 -2 1 1 1 -4 0 2 1 1 1 -2 
1 3 0 -1 1 -2 1 1 1 -1 1 0 1 0 1 6 
1 -6 0 -1 1 9 1 -8 1 -1 0 1 1 12 1 -10 
1 0 1 -2 0 -1 1 1 1 -1 1 5 0 -4 1 3 
1 -4 1 1 1 -1 1 4 1 0 1 0 -1 0 2 -4 
1 0 1 1 0 -1 1 6 1 -5 1 1 1 -2 0 1 
1 -1 1 0 1 6 0 -5 1 -1 1 0 1 7 1 -3 
0 2 1 -4 1 -1 1 -1 0 3 1 0 1 0 1 -3 
0 2 1 -2 1 3 1 -3 1 0 -1 0 2 2 1 -2 
1 0 0 6 1 -3 1 -1 1 5 1 -6 0 1 1 1 
1 -3 1 0 0 10 1 -8 1 -2 1 0 0 2 1 -2 
1 0 1 4 1 4 0 -6 1 0 1 -2 1 3 1 1 
1 -3 1 10 1 -2 4128 3620 100 MP stroke
0 -5 1 -4 1 8 1 4 0 -11 1 5 1 -6 1 0 
1 1 1 9 1 -6 1 -2 0 2 1 -4 1 5 1 -3 
0 -2 1 0 1 1 1 12 1 -13 0 6 1 -5 1 0 
1 -1 0 5 1 -5 1 3 1 -3 0 3 1 -2 1 0 
1 0 1 1 1 -2 1 1 1 -1 1 7 1 -6 1 2 
1 5 0 -8 1 3 1 -3 1 0 -1 0 2 0 1 10 
1 -9 1 -1 0 18 1 -16 1 12 1 -12 0 3 1 -5 
1 3 1 20 0 -14 1 -7 1 1 1 3 1 -2 0 1 
1 -2 1 -2 1 3 0 9 1 -9 1 -4 1 0 1 5 
0 -4 1 1 1 2 1 -4 0 2 1 -2 1 1 1 0 
0 3 1 0 1 -4 1 4 1 -4 1 3 1 -1 1 1 
0 -3 1 0 1 1 1 4 1 -3 1 -1 1 0 1 -1 
0 12 1 -7 1 -2 4048 3626 100 MP stroke
1 -3 0 2 1 -2 1 1 1 1 1 3 0 -2 1 0 
1 -3 1 3 0 -2 1 0 1 -1 1 5 1 -5 0 1 
1 -1 1 2 1 -1 1 0 1 2 1 -2 1 -1 1 1 
1 -1 1 1 1 -1 1 0 1 9 0 -9 1 0 1 6 
1 -5 1 1 0 -1 1 -1 1 8 1 -7 0 6 1 -4 
1 6 1 -4 0 3 1 -5 1 0 1 1 1 -3 0 -1 
1 1 1 -1 1 1 0 11 1 0 1 -8 1 -4 1 1 
0 -1 1 4 1 -4 1 1 0 -1 1 5 1 0 1 -4 
0 3 1 -2 1 -2 1 3 1 -2 1 1 1 -1 1 4 
0 1 1 -2 1 -4 1 4 1 3 0 -1 1 -5 1 2 
1 0 0 -2 1 2 1 -1 1 0 1 -1 1 -1 1 3 
1 7 0 -10 1 1 1 7 1 -3 0 -5 1 11 1 -11 
1 0 1 1 0 2 3968 3626 100 MP stroke
1 -3 1 5 1 -4 1 -1 1 2 1 0 -1 0 2 -2 
1 1 1 0 1 1 0 12 1 -12 1 5 1 -5 0 7 
1 -8 1 5 1 -4 1 11 0 -12 1 6 1 -3 1 -3 
1 -1 1 0 1 9 0 -9 1 3 1 11 1 -14 1 3 
0 2 1 3 1 -2 1 -1 0 -2 1 -3 1 1 1 1 
1 1 0 -2 1 -1 1 2 1 6 0 -5 1 1 1 -4 
1 3 1 4 0 -5 1 -2 1 0 1 24 0 -19 1 -1 
1 4 1 -6 0 -2 1 7 1 -6 1 5 1 -6 0 1 
1 -1 1 1 1 4 0 -2 1 2 1 -2 1 -2 1 12 
0 -9 1 -3 1 4 1 -3 0 -2 1 0 1 4 1 -4 
0 4 1 0 1 -4 1 0 1 3 0 -3 1 8 1 2 
1 -9 1 0 1 4 1 -2 1 1 1 -4 1 1 1 0 
0 3 1 5 1 -8 3888 3628 100 MP stroke
1 5 0 -5 1 17 1 -17 1 4 1 -4 0 8 1 -8 
1 -1 1 5 0 -2 1 9 1 -6 1 0 1 -5 0 4 
1 0 1 -5 1 0 -1 0 2 0 1 0 1 0 0 4 
1 -2 1 0 1 0 1 4 0 -5 1 3 1 6 1 -10 
1 8 1 -8 1 4 1 18 0 -21 1 0 1 3 1 -2 
0 -1 1 5 1 3 1 -8 0 -1 1 3 1 -3 1 0 
1 2 1 1 1 0 1 8 0 -10 1 0 1 4 1 -5 
1 6 0 2 1 4 1 -10 1 1 0 8 1 -10 1 -1 
1 7 0 -4 1 -3 1 0 1 2 1 -2 0 3 1 1 
1 -2 1 3 0 -4 1 -1 1 3 1 9 1 -12 0 4 
1 -3 1 0 1 5 0 -6 1 0 1 2 1 -2 1 2 
1 -1 1 7 1 2 0 -7 1 2 1 -5 1 9 0 -9 
1 2 1 -1 1 -1 3809 3629 100 MP stroke
1 7 0 5 1 -9 1 -2 1 -1 0 2 1 5 1 -5 
1 4 0 -6 1 7 1 -2 1 10 1 -9 0 -3 1 0 
1 -3 1 8 0 -5 1 0 1 1 1 -1 1 2 0 6 
1 -7 1 0 1 -2 1 9 1 -6 1 6 0 -3 1 -4 
1 -3 1 4 1 3 0 -1 1 -7 1 19 1 -18 1 1 
1 -2 1 0 1 3 0 -2 1 0 1 -1 1 0 0 8 
1 -1 1 -2 1 -2 0 1 1 -4 1 20 1 -19 1 0 
-1 0 2 2 1 0 1 1 0 9 1 -12 1 5 1 -4 
1 0 0 -2 1 0 1 19 1 -19 0 1 1 2 1 15 
1 -15 1 1 0 1 1 3 1 -3 1 -3 0 4 1 -3 
1 -1 1 0 0 3 1 1 1 -5 1 2 1 0 0 -3 
1 2 1 1 1 -2 1 0 1 6 1 -7 1 0 0 7 
1 -2 1 -2 1 -2 3730 3628 100 MP stroke
0 13 1 -10 1 13 1 -16 1 1 1 -1 1 5 1 -6 
0 6 1 -2 1 -1 1 0 1 -3 1 0 1 4 1 -1 
0 -2 1 0 1 3 1 2 0 -1 1 -3 1 -1 1 12 
0 -3 1 -10 1 0 1 2 1 -2 1 4 1 -4 1 1 
0 6 1 -7 1 0 1 0 1 0 0 2 1 2 1 2 
1 -5 0 1 1 6 1 8 1 -16 0 1 1 1 1 5 
1 -6 1 -1 0 9 1 -3 1 -4 1 0 -1 0 2 -2 
1 5 1 -4 1 0 1 3 1 -4 1 0 1 2 1 5 
1 -3 0 -4 1 7 1 -5 1 -2 1 3 1 1 1 -1 
1 0 1 -1 1 0 1 8 1 -8 0 2 1 4 1 11 
1 -19 0 4 1 -4 1 0 1 2 1 -1 1 3 1 30 
1 -33 0 2 1 8 1 -7 1 -1 1 4 1 5 1 -5 
1 28 0 -22 1 -12 3647 3628 100 MP stroke
1 0 1 5 0 -5 1 11 1 -11 1 4 0 -4 1 5 
1 -4 1 -2 1 12 0 -3 1 -2 1 -6 1 1 0 2 
1 5 1 -9 1 2 1 -1 0 16 1 3 1 -16 1 -2 
0 1 1 -3 1 9 1 -6 0 6 1 -6 1 -2 1 -1 
1 1 0 -1 1 23 1 -21 1 -2 0 1 1 -1 1 3 
1 -3 1 6 0 -4 1 1 1 2 1 10 0 -12 1 5 
1 0 1 -6 0 -2 1 6 1 1 1 -6 1 -1 0 11 
1 -10 1 0 1 8 0 -9 1 2 1 21 1 -7 1 -5 
0 -2 1 -6 1 -2 1 1 1 2 1 -1 1 -2 1 29 
0 -29 1 -1 1 8 1 -8 0 4 1 -3 1 2 1 -3 
0 1 1 8 1 -5 1 0 1 -3 0 1 1 7 1 -9 
1 1 0 6 1 12 1 -12 1 -6 1 1 0 -1 1 1 
1 1 1 0 0 5 3570 3621 100 MP stroke
1 -3 1 -5 1 0 1 1 1 0 1 4 1 -5 0 3 
1 -2 1 3 1 -3 0 7 1 -7 1 -1 1 1 1 6 
0 -6 1 8 1 -9 1 26 0 -25 1 4 1 -5 1 3 
0 -3 1 4 1 8 1 -11 1 1 0 9 1 -7 1 17 
1 -13 0 -5 1 3 1 -5 1 0 1 0 0 4 1 -5 
1 4 1 1 0 -2 1 5 1 -5 1 40 0 -41 1 -2 
1 4 1 -2 1 -2 1 11 1 1 1 -8 0 5 1 -5 
1 -3 1 0 1 0 -1 0 2 0 1 9 1 -9 0 2 
1 3 1 -3 1 0 0 -2 1 4 1 1 1 -4 1 17 
0 -18 1 10 1 -3 1 -7 0 2 1 -2 1 8 1 -8 
1 -1 1 0 1 9 1 -1 0 1 1 1 1 -1 1 -2 
0 -4 1 11 1 -5 1 -7 1 -2 0 2 1 1 1 -2 
1 6 0 -6 1 8 3491 3620 100 MP stroke
1 -8 1 6 1 0 0 -6 1 1 1 2 1 8 0 -2 
1 -8 1 0 1 -1 1 0 1 -1 1 8 1 -8 0 7 
1 -5 1 -2 1 1 1 2 1 7 1 -7 1 6 0 -8 
1 1 1 -1 1 1 0 7 1 -1 1 -5 1 5 1 -8 
1 0 1 12 1 5 0 -15 1 -2 1 5 1 -1 0 -4 
1 5 1 3 1 7 1 -12 0 23 1 -25 1 -1 1 2 
0 16 1 -15 1 -1 1 5 0 -7 1 2 1 21 1 -1 
1 -18 0 -1 1 -3 1 4 1 1 1 10 1 -10 1 -4 
1 -1 0 2 1 9 1 -11 1 14 0 -4 1 -8 1 14 
1 -6 0 -5 1 1 1 -3 1 16 1 -9 0 -9 1 4 
1 -4 1 -1 0 5 1 1 1 1 1 -4 1 -2 0 2 
1 -3 1 12 1 -12 1 9 1 -9 1 0 1 5 0 -3 
1 -2 1 2 1 -2 3410 3629 100 MP stroke
0 1 1 7 1 7 1 -8 0 7 1 -14 1 3 1 2 
1 3 0 -6 1 1 1 1 1 -2 1 -1 1 -1 1 3 
1 0 0 -2 1 6 1 -4 1 -1 0 -2 1 35 1 -30 
1 6 1 -6 1 17 1 -21 1 20 0 -9 1 -12 1 11 
1 -10 1 8 1 1 1 -10 1 16 0 -13 1 14 1 -16 
1 0 0 19 1 -17 1 -3 1 1 1 10 1 -2 1 -8 
1 4 0 -1 1 -3 1 3 1 1 0 -3 1 24 1 -22 
1 -2 1 15 0 -13 1 -2 1 -2 1 3 0 13 1 -9 
1 -6 1 3 0 13 1 -16 1 7 1 2 1 -5 0 -5 
1 9 1 -9 1 7 0 3 1 -10 1 3 1 -3 1 2 
0 7 1 -9 1 4 1 -1 0 6 1 10 1 -17 1 6 
0 -6 1 2 1 -4 1 0 1 8 0 -5 1 0 1 0 
1 -3 0 7 1 -7 3331 3629 100 MP stroke
1 1 1 0 1 10 0 -11 1 10 1 -10 1 2 1 3 
1 -3 1 30 0 -32 1 1 1 2 1 4 1 -1 1 3 
1 -3 1 -2 0 -3 1 16 1 -11 1 6 1 -6 0 5 
1 -10 1 7 1 -8 0 10 1 -9 1 -1 1 8 0 -1 
1 7 1 -13 1 0 1 4 0 14 1 -16 1 -3 1 4 
0 -2 1 10 1 -7 1 10 1 -15 1 7 1 -1 1 3 
0 -8 1 0 1 1 1 4 0 6 1 4 1 -16 1 3 
1 -2 0 1 1 1 1 1 1 -4 0 10 1 4 1 -14 
1 13 1 -12 0 -1 1 1 1 2 1 2 0 -1 1 6 
1 -10 1 9 0 -5 1 2 1 2 1 -4 1 -1 0 15 
1 -14 1 -4 1 4 0 1 1 -5 1 4 1 -4 1 3 
1 -1 1 -2 1 3 0 3 1 -5 1 3 1 2 1 -6 
0 2 1 14 1 -4 3251 3617 100 MP stroke
1 -7 0 -3 1 2 1 -1 1 13 0 -12 1 1 1 18 
1 -20 1 4 0 13 1 -15 1 -3 1 0 0 -2 1 5 
1 -5 1 11 1 -11 0 9 1 -4 1 0 1 5 0 -6 
1 -2 1 0 1 -1 0 19 1 -14 1 -1 1 14 1 -18 
0 2 1 -1 1 6 1 -4 0 6 1 -7 1 -3 1 10 
1 -7 0 1 1 10 1 -4 1 -9 0 1 1 2 1 4 
1 0 0 5 1 -12 1 9 1 -5 1 -1 0 -3 1 4 
1 -5 1 2 0 7 1 -4 1 4 1 -6 1 0 0 17 
1 -12 1 -7 1 0 0 28 1 -27 1 2 1 3 0 -1 
1 -3 1 5 1 -6 1 -1 0 -1 1 1 1 1 1 7 
0 -4 1 11 1 -11 1 -4 1 7 0 1 1 -9 1 3 
1 1 0 -2 1 -1 1 0 1 1 0 -2 1 7 1 4 
1 2 1 -8 1 7 3174 3617 100 MP stroke
1 -9 1 -2 0 6 1 4 1 -10 1 1 1 -1 0 -1 
1 1 1 -1 1 0 0 12 1 -11 1 -1 1 9 0 -2 
1 -1 1 -3 1 22 1 -1 0 -22 1 -2 1 0 1 27 
0 -20 1 -5 1 3 1 -5 1 3 1 7 1 -1 1 3 
0 -9 1 -3 1 3 1 -2 0 4 1 -4 1 2 1 -1 
1 -2 0 26 1 -2 1 -14 1 -9 1 0 1 8 1 -9 
1 3 0 5 1 -5 1 -1 1 1 0 -3 1 0 1 6 
1 -6 0 1 1 1 1 2 1 1 1 9 0 -6 1 -7 
1 2 1 20 0 -12 1 -9 1 -1 1 1 1 -1 0 33 
1 -34 1 1 1 1 0 2 1 -3 1 8 1 -1 0 -8 
1 17 1 -11 1 -2 1 -4 0 5 1 -4 1 1 1 0 
0 25 1 -24 1 10 1 -4 1 -5 0 10 1 -3 1 -11 
1 4 0 -2 1 -2 3096 3629 100 MP stroke
1 1 1 -1 1 1 0 5 1 -1 1 -3 1 -1 0 6 
1 2 1 -5 1 -4 0 4 1 -3 1 -1 1 26 1 -26 
1 5 1 5 1 -5 0 -5 1 9 1 -4 1 0 1 -4 
0 5 1 3 1 6 1 -13 0 8 1 -4 1 19 1 6 
0 -30 1 -1 1 10 1 -3 1 4 0 -9 1 11 1 -12 
1 11 0 -5 1 22 1 -27 1 1 1 13 0 -15 1 12 
1 -6 1 27 0 -31 1 2 1 10 1 -14 0 6 1 -7 
1 4 1 14 1 -18 1 1 1 21 1 -3 0 -7 1 -10 
1 -1 1 12 1 -12 0 3 1 10 1 -12 1 0 0 27 
1 -18 1 -3 1 -3 0 -5 1 8 1 -8 1 1 1 5 
0 13 1 -18 1 7 1 6 0 -9 1 2 1 -7 1 3 
1 -3 0 3 1 -3 1 4 1 9 0 -9 1 9 1 3 
1 -12 0 -4 1 6 3018 3623 100 MP stroke
1 27 1 -26 1 0 0 -2 1 12 1 -14 1 1 0 1 
1 1 1 4 1 -10 1 27 0 -11 1 -14 1 7 1 -3 
0 -6 1 6 1 3 1 -7 0 36 1 -23 1 -15 1 3 
1 -3 0 11 1 -4 1 11 1 -16 0 -2 1 7 1 -5 
1 10 1 -11 0 6 1 7 1 -12 1 8 0 -8 1 -1 
1 12 1 -8 1 10 1 -14 1 0 1 1 0 -2 1 15 
1 7 1 -21 0 1 1 -1 1 3 1 5 1 -6 0 13 
1 -11 1 -2 1 4 0 3 1 -7 1 -1 1 6 0 -1 
1 24 1 -25 1 -1 1 3 0 -7 1 18 1 -13 1 -1 
0 12 1 -12 1 10 1 -1 1 -4 0 17 1 -17 1 -5 
1 0 0 6 1 18 1 -27 1 4 0 1 1 -5 1 5 
1 -2 1 2 0 17 1 -20 1 19 1 -21 0 5 1 0 
1 -3 1 -2 1 -2 2940 3629 100 MP stroke
0 22 1 -22 1 13 1 -4 0 3 1 -7 1 7 1 -12 
0 8 1 -3 1 -2 1 -3 1 12 0 -4 1 -7 1 4 
1 -4 0 -1 1 17 1 -8 1 1 1 1 0 -10 1 -1 
1 2 1 12 1 -7 1 1 1 0 1 -7 1 22 1 -13 
1 18 0 -9 1 -5 1 -5 1 -5 0 -3 1 24 1 -9 
1 -15 1 2 0 7 1 6 1 -5 1 2 0 -12 1 4 
1 3 1 3 1 -11 0 4 1 18 1 -5 1 -16 0 13 
1 -14 1 1 1 -1 0 20 1 -10 1 -10 1 10 1 -10 
0 7 1 -3 1 6 1 -3 0 -4 1 0 1 9 1 -8 
1 1 0 9 1 -7 1 21 1 -3 0 -24 1 6 1 -3 
1 14 0 -7 1 9 1 -14 1 -6 1 14 0 -6 1 -1 
1 -4 1 2 0 -4 1 12 1 -12 1 7 1 -8 0 11 
1 -3 1 -6 1 5 2862 3622 100 MP stroke
1 -5 1 0 1 7 0 28 1 -20 1 -6 1 -4 1 14 
0 -17 1 0 1 0 1 13 0 8 1 -14 1 33 1 -27 
1 22 0 -35 1 1 1 4 1 7 0 5 1 -16 1 6 
1 32 0 -40 1 -1 1 1 1 0 1 13 0 -12 1 33 
1 -31 1 -1 0 -1 1 8 1 16 1 -27 1 19 0 -19 
1 1 1 2 1 -2 0 5 1 6 1 -13 1 0 0 33 
1 -29 1 3 1 2 1 14 0 -20 1 9 1 -12 1 2 
0 10 1 7 1 -13 1 13 1 -16 0 1 1 -1 1 20 
1 -23 0 2 1 3 1 -1 1 8 0 -12 1 22 1 5 
1 -6 1 -12 0 -8 1 14 1 -15 1 41 0 -40 1 25 
1 -26 1 12 1 -2 0 -4 1 -6 1 1 1 3 0 6 
1 -4 1 5 1 -3 0 4 1 -9 1 56 1 -51 1 -8 
0 19 1 -9 1 5 2785 3614 100 MP stroke
1 -15 0 22 1 8 1 -26 1 9 1 -1 0 -2 1 -9 
1 0 1 8 0 -5 1 0 1 11 1 -10 0 1 1 12 
1 -6 1 3 1 24 0 -28 1 3 1 -10 1 29 0 -22 
1 -10 1 0 1 -1 1 23 0 -21 1 3 1 -1 1 -4 
0 2 1 21 1 -1 1 -21 1 21 0 -16 1 14 1 35 
1 -44 0 31 1 -28 1 -14 1 0 0 5 1 12 1 -13 
1 1 1 16 0 -19 1 9 1 28 1 -19 0 52 1 -59 
1 -2 1 -11 1 3 0 40 1 -28 1 0 1 -11 0 28 
1 8 1 -39 1 34 0 -28 1 -5 1 7 1 2 1 7 
0 7 1 -24 1 11 1 -10 0 -2 1 6 1 -4 1 24 
1 -16 0 -1 1 -9 1 4 1 3 0 27 1 -29 1 4 
1 72 0 -67 1 -13 1 42 1 -34 1 -2 0 -6 1 3 
1 1 1 66 0 -48 2709 3606 100 MP stroke
1 6 1 -15 1 -10 1 32 0 -22 1 -8 1 21 1 -23 
1 2 1 3 1 -5 0 41 1 -37 1 53 1 -45 1 1 
0 9 1 -17 1 3 1 3 0 1 1 -13 1 21 1 -24 
1 6 0 5 1 -1 1 0 1 -9 0 39 1 -19 1 -20 
1 1 0 21 1 10 1 -29 1 5 1 40 0 -48 1 7 
1 -8 1 6 0 -6 1 2 1 21 1 -21 1 7 0 2 
1 25 1 -11 1 -19 0 -6 1 15 1 -11 1 1 0 35 
1 -17 1 4 1 9 1 -34 1 49 1 -43 1 13 0 16 
1 -33 1 2 1 33 1 -35 0 65 1 -67 1 63 1 -18 
0 4 1 -2 1 -41 1 -8 0 30 1 -11 1 -16 1 -3 
1 3 0 1 1 24 1 -7 1 -4 0 -12 1 24 1 -14 
1 15 1 -29 0 1 1 5 1 7 1 17 0 4 1 51 
1 -71 1 -4 0 23 2631 3595 100 MP stroke
1 -15 1 40 1 -37 1 -22 0 13 1 31 1 -38 1 13 
0 4 1 7 1 21 1 -48 1 12 0 -15 1 7 1 1 
1 -5 0 -3 1 11 1 -11 1 5 0 1 1 -3 1 10 
1 -2 1 -10 0 27 1 -8 1 28 1 -43 0 22 1 0 
1 -26 1 14 1 -1 0 -4 1 -9 1 -1 1 33 0 -12 
1 6 1 -17 1 -1 1 3 0 -12 1 0 1 2 1 -1 
0 32 1 -31 1 8 1 -9 1 8 1 5 1 -5 1 0 
0 19 1 -26 1 16 1 30 0 -31 1 -11 1 4 1 12 
1 -21 0 7 1 6 1 8 1 -19 0 24 1 -23 1 -4 
1 9 0 -4 1 7 1 -10 1 12 1 25 0 -3 1 -18 
1 -16 1 2 0 65 1 -59 1 0 1 -2 1 13 0 -16 
1 21 1 -9 1 -2 0 -6 1 -6 1 -3 1 10 0 -4 
1 18 1 -23 1 2 2553 3626 100 MP stroke
1 2 0 24 1 -5 1 -6 1 -12 0 7 1 19 1 -26 
1 49 1 -28 0 41 1 -46 1 4 1 -3 0 -13 1 54 
1 -63 1 177 0 -147 1 -14 1 -15 1 36 1 -26 0 24 
1 -19 1 9 1 31 0 -24 1 -17 1 11 1 34 1 -54 
0 40 1 -34 1 28 1 -32 0 94 1 -54 1 -42 1 96 
0 -20 1 -3 1 -71 1 28 1 -28 0 18 1 -12 1 78 
1 -63 0 11 1 7 1 2 1 -33 1 25 0 -22 1 -2 
1 115 1 -116 0 -15 1 51 1 -46 1 -7 0 55 1 -23 
1 -27 1 8 1 -5 0 44 1 -21 1 -9 1 21 0 -36 
1 -6 1 44 1 -29 1 8 0 -7 1 10 1 -15 1 22 
0 -32 1 16 1 19 1 -23 0 4 1 -11 1 10 1 4 
1 -14 0 16 1 -22 1 46 1 -19 0 -15 1 31 1 -26 
1 -17 1 5 0 2 2477 3621 100 MP stroke
1 -4 1 -1 1 0 0 17 1 -20 1 3 1 3 0 44 
1 -48 1 11 1 -11 1 3 0 -4 1 35 1 14 1 -48 
0 19 1 22 1 -43 1 15 1 -3 0 43 1 -44 1 -6 
1 0 0 23 1 96 1 71 1 -22 0 -144 1 44 1 -68 
1 14 1 54 0 -53 1 -15 1 127 1 -113 0 -5 1 27 
1 -24 1 -6 1 68 0 -26 1 -24 1 12 1 23 0 -48 
1 -12 1 64 1 -53 0 198 1 -177 1 -15 1 65 1 -53 
0 -22 1 84 1 -31 1 68 0 -102 1 -16 1 -9 1 94 
1 -91 0 27 1 -30 1 89 1 -90 0 -3 1 77 1 -76 
1 20 1 -7 0 -3 1 5 1 -14 1 14 0 4 1 27 
1 -29 1 63 0 -70 1 22 1 14 1 -17 1 -27 0 23 
1 -23 1 9 1 26 0 7 1 -38 1 8 1 -2 1 -5 
0 -3 1 -3 1 65 2400 3561 100 MP stroke
1 -61 0 -6 1 2 1 -1 1 7 0 5 1 -8 1 24 
1 -30 1 3 0 8 1 4 1 -11 1 21 0 31 1 -22 
1 -12 1 -21 1 34 0 -30 1 27 1 -2 1 -28 0 73 
1 -34 1 -22 1 -14 0 10 1 20 1 5 1 -38 1 13 
0 5 1 19 1 -29 1 53 0 -6 1 -38 1 -10 1 27 
1 8 0 9 1 -10 1 -33 1 6 0 -9 1 6 1 -5 
1 -8 1 4 1 17 1 1 1 -11 0 42 1 -28 1 -14 
1 30 0 29 1 8 1 -69 1 27 1 -33 0 34 1 -12 
1 -18 1 3 0 12 1 -9 1 64 1 -67 0 6 1 -15 
1 34 1 -22 1 59 0 -64 1 0 1 54 1 -55 0 1 
1 41 1 353 1 -389 1 198 0 -103 1 -62 1 209 1 -99 
0 -96 1 157 1 -154 1 117 0 -42 1 -78 1 -37 1 23 
1 79 0 -80 1 28 2323 3556 100 MP stroke
1 -59 1 127 0 -85 1 -27 1 -3 1 -19 1 64 0 -65 
1 88 1 -48 1 -42 0 -4 1 14 1 46 1 -56 0 91 
1 -94 1 111 1 -43 1 123 0 -161 1 -8 1 52 1 116 
0 -135 1 126 1 -126 1 8 1 172 0 -192 1 78 1 5 
1 -30 0 50 1 -107 1 13 1 -21 0 14 1 36 1 -46 
1 35 1 -61 0 -2 1 22 1 -9 1 3 0 -11 1 26 
1 -16 1 -8 1 -12 0 29 1 -30 1 -1 1 3 0 64 
1 -47 1 23 1 -29 0 46 1 -37 1 -5 1 3 1 -10 
0 -4 1 31 1 -22 1 11 0 -18 1 62 1 -53 1 5 
1 -8 0 -8 1 -2 1 6 1 3 0 -6 1 50 1 -37 
1 -8 1 6 0 -19 1 58 1 -32 1 27 0 18 1 -41 
1 -30 1 16 0 10 1 -16 1 -1 1 22 1 -23 0 147 
1 -151 1 18 1 66 2246 3540 100 MP stroke
0 -27 1 -26 1 5 1 -6 1 45 0 -8 1 -20 1 -48 
1 231 0 -228 1 6 1 42 1 6 0 286 1 -87 1 -87 
1 78 1 -74 0 443 1 -244 1 -339 1 121 0 -150 1 326 
1 -227 1 169 1 -241 0 36 1 -64 1 224 1 -55 0 -102 
1 244 1 -168 1 -27 0 -105 1 -2 1 119 1 -36 1 -81 
0 56 1 -41 1 -28 1 17 0 116 1 -130 1 83 1 -78 
1 -2 0 -11 1 102 1 -64 1 -5 0 28 1 -38 1 -4 
1 15 0 -33 1 52 1 -51 1 101 1 -102 0 7 1 24 
1 4 1 -19 0 -10 1 -5 1 60 1 -47 1 -10 0 -5 
1 15 1 7 1 43 0 3 1 -63 1 12 1 8 0 -15 
1 -10 1 52 1 -43 1 4 0 -13 1 9 1 30 1 -34 
1 12 1 20 1 -35 1 -2 0 4 1 4 1 58 1 -65 
0 31 1 27 1 -27 2169 3597 100 MP stroke
1 -24 0 37 1 7 1 -12 1 -26 1 29 0 -34 1 -8 
1 28 1 -4 0 114 1 12 1 -145 1 7 1 6 0 -3 
1 12 1 -6 1 7 0 -22 1 -1 1 26 1 -30 0 35 
1 -30 1 61 1 -38 1 -8 0 3 1 27 1 -35 1 -15 
0 66 1 -53 1 24 1 -11 1 115 0 -78 1 -61 1 23 
1 1 0 18 1 2 1 12 1 -58 0 6 1 68 1 -74 
1 6 1 45 0 -31 1 8 1 -7 1 45 0 -3 1 140 
1 -184 1 4 1 405 0 -40 1 -213 1 154 1 -215 0 442 
1 357 1 -661 1 -204 0 302 1 -118 1 175 1 -395 1 87 
0 -21 1 530 1 -475 1 -33 0 -70 1 105 1 -44 1 -69 
1 18 0 -17 1 44 1 -45 1 -22 0 4 1 -6 1 50 
1 270 0 -313 1 135 1 45 1 -135 1 277 0 151 1 -387 
1 16 1 947 0 -633 2093 3206 100 MP stroke
1 -387 1 -5 1 24 1 787 0 -835 1 177 1 6 1 37 
0 -102 1 -96 1 75 1 -1 1 66 0 -113 1 -52 1 8 
1 -2 0 35 1 61 1 -53 1 -27 0 58 1 -42 1 -20 
1 -15 1 64 0 -49 1 68 1 -8 1 -76 0 8 1 42 
1 -49 1 48 1 22 0 -58 1 -12 1 53 1 -42 0 -13 
1 72 1 -56 1 -16 0 10 1 45 1 35 1 -92 1 5 
0 32 1 -14 1 -10 1 -9 0 22 1 -29 1 2 1 8 
1 -8 0 52 1 -19 1 -29 1 0 0 40 1 -14 1 -31 
1 2 0 117 1 -91 1 -10 1 40 1 -41 0 39 1 19 
1 196 1 -17 0 -123 1 -78 1 13 1 211 1 -151 0 488 
1 -430 1 885 1 -943 0 -83 1 207 1 85 1 278 0 660 
1 -1117 1 426 1 -105 1 -322 0 -136 1 287 1 310 1 -583 
0 52 1 -67 1 372 2016 3238 100 MP stroke
1 -289 1 274 0 -361 1 118 1 -49 1 14 0 -14 1 -35 
1 20 1 18 0 143 1 -192 1 -16 1 100 1 -119 0 52 
1 -35 1 -5 1 38 0 -47 1 156 1 -26 1 -26 1 -79 
0 -28 1 44 1 -19 1 24 0 -25 1 -7 1 44 1 -61 
0 28 1 -11 1 13 1 48 1 -30 0 -29 1 -14 1 13 
1 -9 0 -5 1 6 1 -3 1 38 1 22 0 16 1 -68 
1 89 1 -99 0 22 1 -23 1 3 1 -2 0 5 1 -9 
1 47 1 -16 1 -9 0 -22 1 27 1 -21 1 106 0 -63 
1 -34 1 -18 1 30 1 -17 0 86 1 -41 1 -54 1 65 
0 -65 1 185 1 -48 1 -89 0 105 1 -137 1 -21 1 109 
1 142 0 -87 1 23 1 -160 1 33 0 -49 1 32 1 11 
1 -16 1 -1 0 -16 1 71 1 -82 1 20 0 -21 1 11 
1 54 1 -36 0 -12 1940 3603 100 MP stroke
1 -24 1 1 1 -1 1 57 0 -15 1 -21 1 -17 1 77 
0 -64 1 11 1 -28 1 8 1 50 0 7 1 101 1 38 
1 -186 0 -4 1 12 1 33 1 -35 1 206 0 265 1 498 
1 -900 1 615 0 263 1 991 1 -1654 1 -254 0 2078 1 -2085 
1 368 1 -339 1 32 0 -72 1 104 1 -127 1 20 0 -26 
1 95 1 -6 1 25 1 -123 0 41 1 20 1 96 1 -129 
0 -14 1 132 1 -92 1 166 0 -40 1 -177 1 22 1 124 
1 303 0 62 1 -382 1 812 1 989 0 -1226 1 858 1 -1411 
1 1298 1 -1389 0 72 1 400 1 -353 1 -42 0 -85 1 2 
1 197 1 -254 0 27 1 0 1 41 1 46 1 -89 0 -4 
1 61 1 -59 1 56 0 -78 1 195 1 -188 1 50 1 -5 
0 12 1 -42 1 50 1 143 0 -212 1 20 1 -22 1 56 
0 -56 1 -2 1 0 1863 3629 100 MP stroke
1 5 1 12 0 3 1 -12 1 43 1 58 0 -72 1 64 
1 -82 1 5 1 4 0 41 1 -62 1 13 1 35 0 -47 
1 59 1 -55 1 -10 0 10 1 54 1 6 1 -41 1 -30 
1 134 1 -76 1 6 0 -4 1 -61 1 36 1 77 1 -75 
0 185 1 -186 1 43 1 5 0 16 1 -97 1 117 1 -36 
0 -11 1 -45 1 -1 1 84 1 132 0 -90 1 77 1 -209 
1 267 0 1278 1 -1528 1 343 1 -324 1 1049 0 -991 1 32 
1 225 1 -6 0 -279 1 791 1 -787 1 -31 0 -36 1 19 
1 -4 1 162 1 -134 0 -16 1 1 1 -16 1 41 0 -45 
1 -32 1 142 1 -131 1 40 0 14 1 -51 1 49 1 -50 
0 -10 1 -3 1 8 1 119 0 -125 1 29 1 1 1 77 
1 -96 0 -6 1 28 1 -6 1 72 0 -79 1 -21 1 -1 
1 7 1 34 0 11 1786 3576 100 MP stroke
1 -53 1 161 1 -104 0 -15 1 32 1 67 1 -86 0 -53 
1 26 1 17 1 -40 1 19 0 17 1 21 1 -49 1 7 
0 -16 1 36 1 -31 1 23 1 31 0 -26 1 -20 1 40 
1 104 0 32 1 -162 1 -31 1 16 1 -9 0 66 1 -17 
1 -48 1 0 0 21 1 43 1 -31 1 -37 0 32 1 -11 
1 39 1 -15 1 -8 1 8 1 -10 1 -30 0 93 1 -63 
1 -10 1 93 1 -69 0 -31 1 58 1 -55 1 35 0 -55 
1 109 1 -109 1 27 0 -1 1 27 1 -53 1 156 1 -133 
0 -8 1 75 1 -74 1 -14 0 3 1 17 1 38 1 7 
1 -70 0 38 1 -12 1 -13 1 90 0 -37 1 -29 1 27 
1 -35 0 -24 1 32 1 -11 1 -5 1 262 0 -267 1 20 
1 203 1 41 0 1346 1 -854 1 -465 1 56 1 1716 0 -1626 
1 -170 1 -104 1 -82 1708 3530 100 MP stroke
0 16 1 159 1 20 1 -284 0 97 1 -93 1 67 1 67 
1 1 0 -88 1 24 1 -19 1 26 0 32 1 -67 1 59 
1 2 1 -105 0 44 1 -39 1 45 1 161 0 -186 1 -36 
1 107 1 -61 0 110 1 268 1 -278 1 351 1 -1 0 563 
1 -890 1 -70 1 112 0 25 1 -214 1 48 1 -56 1 241 
0 -190 1 301 1 -159 1 -119 0 -78 1 12 1 -10 1 22 
0 18 1 233 1 -234 1 -51 1 28 0 4 1 -16 1 86 
1 10 0 -64 1 1 1 -36 1 128 1 -122 1 6 1 64 
1 -87 0 79 1 -32 1 -46 1 67 0 70 1 -119 1 67 
1 -51 1 41 0 -39 1 161 1 -196 1 1 0 74 1 66 
1 -144 1 48 1 -25 0 50 1 -17 1 -19 1 -36 0 98 
1 -43 1 -45 1 43 0 -43 1 376 1 -382 1 157 1 -147 
0 -16 1 22 1 -3 1631 3608 100 MP stroke
1 115 0 -30 1 32 1 58 1 0 1 -176 0 25 1 -1 
1 534 1 -567 0 1284 1 -684 1 -21 1 378 0 1192 1 -1849 
1 -222 1 90 1 100 0 -244 1 24 1 245 1 -166 0 75 
1 -14 1 14 1 -178 1 -33 0 74 1 -36 1 23 1 -60 
0 45 1 -24 1 181 1 -103 0 -87 1 34 1 85 1 1 
1 -88 0 -28 1 -13 1 -6 1 14 0 43 1 -46 1 -5 
1 16 1 -21 0 9 1 94 1 -11 1 -70 0 82 1 -69 
1 1 1 7 1 -29 0 4 1 45 1 -37 1 10 0 54 
1 -85 1 7 1 41 0 -22 1 -24 1 65 1 -56 1 24 
0 -13 1 104 1 -80 1 -6 0 29 1 -60 1 70 1 -82 
1 -2 0 13 1 20 1 175 1 -163 0 131 1 -171 1 30 
1 52 0 -3 1 -71 1 -13 1 9 1 18 0 7 1 104 
1 -104 1 0 0 25 1555 3569 100 MP stroke
1 51 1 -95 1 0 1 81 0 -97 1 432 1 -415 1 211 
0 -195 1 68 1 -95 1 59 0 -42 1 0 1 -16 1 35 
1 -31 0 34 1 88 1 -133 1 361 0 -313 1 -14 1 -33 
1 10 1 19 0 35 1 -23 1 -38 1 32 0 -17 1 14 
1 105 1 -121 0 10 1 407 1 -321 1 68 1 156 0 -231 
1 -59 1 983 1 -813 0 -21 1 -170 1 488 1 -231 1 64 
0 -279 1 -43 1 146 1 20 0 -181 1 99 1 -79 1 110 
0 -52 1 -32 1 -18 1 -30 1 17 0 193 1 -214 1 79 
1 -54 0 43 1 -64 1 51 1 -6 1 121 0 -167 1 60 
1 266 1 -314 0 12 1 57 1 244 1 -306 0 3 1 38 
1 -11 1 147 1 287 0 -398 1 -59 1 157 1 -189 0 7 
1 44 1 215 1 -245 1 24 0 -5 1 143 1 -134 1 -30 
0 47 1 -35 1 -24 1478 3621 100 MP stroke
1 1 0 36 1 -31 1 3 1 26 1 13 0 -44 1 3 
1 14 1 0 0 -24 1 13 1 19 1 57 1 -31 0 11 
1 -71 1 41 1 11 0 -44 1 7 1 59 1 -76 0 29 
1 -15 1 12 1 -19 1 51 0 -50 1 -7 1 29 1 175 
0 -162 1 -44 1 61 1 133 1 -91 0 46 1 -52 1 -55 
1 114 0 -124 1 146 1 -93 1 -60 0 95 1 -40 1 -74 
1 166 1 -47 0 -83 1 21 1 -33 1 565 0 -420 1 67 
1 -103 1 -109 1 60 0 56 1 -80 1 12 1 161 0 -46 
1 -178 1 -9 1 138 1 -142 0 65 1 -63 1 95 1 -95 
0 96 1 -76 1 162 1 -89 0 250 1 -197 1 -143 1 124 
1 59 0 -154 1 -36 1 69 1 159 0 -154 1 302 1 -348 
1 114 1 -46 0 -66 1 133 1 -158 1 160 0 -156 1 29 
1 112 1 -138 0 24 1402 3593 100 MP stroke
1 66 1 -37 1 -34 1 155 0 -122 1 -2 1 -39 1 16 
0 -38 1 13 1 -8 1 34 1 151 0 -168 1 -12 1 39 
1 -40 0 71 1 -18 1 -50 1 120 0 -112 1 18 1 79 
1 -48 1 38 0 -106 1 8 1 39 1 -35 0 95 1 -26 
1 -78 1 8 1 98 0 100 1 31 1 56 1 -243 0 -32 
1 -3 1 138 1 -107 0 24 1 -44 1 7 1 85 1 28 
0 -133 1 -5 1 33 1 -8 0 8 1 -3 1 -8 1 -24 
1 119 0 -86 1 6 1 10 1 -10 0 109 1 -55 1 -61 
1 99 0 6 1 -92 1 226 1 -256 1 -14 0 54 1 125 
1 -177 1 20 0 -31 1 61 1 -35 1 131 1 -79 0 -79 
1 56 1 -2 1 11 0 -48 1 31 1 -26 1 -13 0 103 
1 -70 1 -14 1 68 1 -4 0 -85 1 40 1 71 1 -103 
0 201 1 -63 1 -64 1325 3538 100 MP stroke
1 150 1 58 0 -257 1 -15 1 14 1 11 0 31 1 -37 
1 50 1 -36 0 113 1 -173 1 14 1 6 1 -5 0 15 
1 -7 1 -5 1 -15 0 50 1 -10 1 6 1 -25 1 -8 
0 45 1 -59 1 112 1 -13 0 220 1 -312 1 20 1 -11 
0 21 1 167 1 -166 1 -40 1 4 0 357 1 -312 1 -13 
1 97 0 8 1 103 1 -229 1 35 1 27 0 -34 1 72 
1 -51 1 12 0 64 1 -116 1 8 1 118 0 -138 1 27 
1 -4 1 -22 1 96 0 -92 1 55 1 -67 1 6 0 -4 
1 1 1 12 1 -3 1 -10 0 56 1 -6 1 -43 1 76 
0 219 1 -292 1 8 1 99 1 39 0 -106 1 47 1 431 
1 -461 0 -60 1 371 1 -285 1 -91 0 226 1 -197 1 -5 
1 39 1 -42 0 76 1 -38 1 -48 1 16 0 10 1 7 
1 37 1 -24 1 -47 1248 3610 100 MP stroke
0 11 1 5 1 -26 1 85 0 -93 1 37 1 18 1 2 
0 -32 1 18 1 -34 1 178 1 -39 0 299 1 -296 1 24 
1 62 0 -212 1 68 1 -38 1 -31 1 52 0 -42 1 52 
1 -84 1 134 0 103 1 -158 1 -50 1 -3 0 113 1 -130 
1 103 1 -23 1 -85 0 -7 1 47 1 -46 1 99 0 -98 
1 311 1 -271 1 -3 1 -27 0 -5 1 18 1 63 1 -22 
0 -17 1 16 1 -32 1 87 0 -42 1 -63 1 1 1 33 
1 113 0 -134 1 -17 1 -10 1 4 0 102 1 -76 1 63 
1 -91 1 56 0 -30 1 -24 1 9 1 74 0 -63 1 148 
1 -115 1 -56 0 9 1 -9 1 81 1 -82 1 243 0 -167 
1 126 1 -194 1 22 0 63 1 -77 1 -5 1 -11 1 2 
0 111 1 32 1 -129 1 88 0 -92 1 43 1 148 1 -103 
0 -25 1 58 1 -134 1172 3629 100 MP stroke
1 105 1 -4 0 -32 1 -10 1 -59 1 147 0 -45 1 -101 
1 14 1 91 1 -98 0 52 1 -55 1 79 1 -34 0 -44 
1 58 1 7 1 -54 0 82 1 -77 1 34 1 94 1 -25 
0 85 1 -192 1 58 1 -68 0 50 1 -28 1 22 1 398 
1 -448 0 32 1 136 1 -42 1 -125 0 200 1 -192 1 54 
1 -43 0 -18 1 2 1 179 1 -115 1 -9 0 106 1 -36 
1 -89 1 109 0 23 1 -29 1 35 1 -156 1 8 0 -10 
1 -5 1 24 1 -5 0 46 1 6 1 -8 1 146 0 -200 
1 13 1 -38 1 47 1 37 0 -27 1 -39 1 20 1 129 
0 -144 1 105 1 -98 1 85 1 -6 0 -16 1 -45 1 55 
1 -19 0 62 1 -102 1 53 1 -94 0 39 1 5 1 163 
1 14 1 -151 0 149 1 -218 1 80 1 -79 0 29 1 47 
1 -69 1 58 1 143 1095 3415 100 MP stroke
0 -145 1 47 1 -67 1 80 0 -98 1 -22 1 153 1 -160 
1 258 0 -155 1 -65 1 -15 1 8 0 19 1 -36 1 87 
1 -1 0 -37 1 -50 1 44 1 74 1 -124 0 311 1 -243 
1 -65 1 144 0 -124 1 29 1 -29 1 -28 1 17 0 173 
1 -185 1 22 1 -25 0 184 1 -156 1 -25 1 27 0 -23 
1 150 1 -157 1 350 1 -323 0 -21 1 7 1 326 1 -300 
0 -22 1 -19 1 71 1 -36 1 -14 0 69 1 104 1 -191 
1 18 0 -21 1 23 1 9 1 -3 0 29 1 -40 1 59 
1 72 1 -113 0 32 1 -18 1 30 1 153 0 4 1 -212 
1 2 1 76 1 -91 0 -15 1 76 1 -11 1 9 0 -73 
1 83 1 175 1 -42 0 -159 1 31 1 -88 1 1 1 85 
0 -66 1 97 1 -53 1 -37 0 -26 1 54 1 24 1 -47 
1 27 0 258 1 -318 1019 3628 100 MP stroke
1 221 1 -220 0 84 1 -85 1 17 1 132 0 -144 1 140 
1 -57 1 -79 1 111 0 -67 1 -28 1 -22 1 140 0 -87 
1 51 1 -82 1 -11 1 -6 0 276 1 -263 1 19 1 48 
0 -41 1 132 1 -53 1 -21 0 -32 1 -17 1 183 1 -176 
1 3 0 -56 1 56 1 20 1 -56 0 126 1 -153 1 59 
1 -62 1 7 0 13 1 2 1 134 1 -32 0 58 1 179 
1 -325 1 -8 0 25 1 -43 1 263 1 -265 1 3 0 306 
1 -249 1 -40 1 159 0 -180 1 47 1 -40 1 -8 1 21 
0 -24 1 10 1 282 1 -172 0 -85 1 309 1 -262 1 -76 
0 15 1 29 1 238 1 -290 1 326 0 -247 1 -57 1 186 
1 -133 0 -15 1 280 1 -251 1 -37 1 110 0 81 1 -227 
1 114 1 2 0 -17 1 -116 1 24 1 -14 0 31 1 70 
1 73 1 -116 1 25 942 3535 100 MP stroke
0 -17 1 -19 1 147 1 -170 0 71 1 -97 1 214 1 -211 
1 118 0 -114 1 109 1 11 1 -100 0 -29 1 149 1 201 
1 -229 1 37 0 -59 1 25 1 -38 1 -69 0 82 1 122 
1 60 1 -240 0 -1 1 14 1 249 1 -264 1 227 0 -259 
1 96 1 -87 1 101 0 -101 1 28 1 -25 1 74 1 139 
0 -82 1 -143 1 126 1 -5 0 -34 1 145 1 -169 1 536 
0 -564 1 -17 1 4 1 132 1 -82 0 -21 1 -31 1 61 
1 -20 0 3 1 -68 1 101 1 44 1 -146 0 51 1 37 
1 -92 1 6 0 -3 1 80 1 -37 1 -35 0 53 1 -44 
1 408 1 -422 1 19 0 111 1 -50 1 -87 1 80 0 -17 
1 368 1 -392 1 156 1 -151 0 -3 1 -2 1 70 1 -29 
0 163 1 -20 1 -180 1 -3 0 55 1 27 1 144 1 -194 
1 -65 0 177 1 -74 866 3515 100 MP stroke
1 71 1 -122 0 -55 1 5 1 2 1 365 1 -371 0 3 
1 45 1 199 1 -123 0 -99 1 44 1 72 1 -23 0 59 
1 -72 1 -110 1 97 1 49 0 -131 1 -12 1 23 1 -15 
0 46 1 -56 1 110 1 -93 1 105 0 36 1 0 1 -139 
1 206 0 -89 1 -80 1 8 1 -58 0 -8 1 221 1 97 
1 -191 1 -77 0 33 1 4 1 66 1 -60 0 -8 1 -12 
1 29 1 -3 1 22 0 -114 1 216 1 -140 1 132 0 -125 
1 -79 1 136 1 34 0 -32 1 -147 1 97 1 138 1 -235 
0 5 1 116 1 -7 1 -93 0 16 1 -31 1 42 1 331 
1 -345 0 181 1 -45 1 -44 1 -123 0 200 1 235 1 -108 
1 -284 0 521 1 -515 1 -14 1 295 1 49 0 -302 1 -72 
1 225 1 16 0 -74 1 -70 1 123 1 -227 1 209 0 -209 
1 71 1 -28 1 492 789 3088 100 MP stroke
0 -397 1 -11 1 -44 1 -70 0 90 1 -15 1 15 1 644 
1 -745 0 234 1 -113 1 64 1 -134 0 138 1 -72 1 -43 
1 -11 1 -3 0 -57 1 44 1 -36 1 32 0 75 1 219 
1 -237 1 6 0 -109 1 39 1 88 1 5 1 1 0 18 
1 -43 1 67 1 -63 0 -92 1 -1 1 126 1 57 1 -182 
0 -1 1 75 1 153 1 -86 0 127 1 -227 1 168 1 -213 
1 58 0 -41 1 179 1 545 1 -710 0 -48 1 57 1 190 
1 -58 0 -83 1 -108 1 110 1 -84 1 44 0 -30 1 12 
1 34 1 -44 0 33 1 -72 1 607 1 -466 1 88 0 -148 
1 -83 1 28 1 -9 0 -6 1 51 1 62 1 -97 0 153 
1 -177 1 220 1 51 1 95 0 -314 1 502 1 -333 1 -162 
0 28 1 855 1 -850 1 1056 1 -1082 0 -68 1 430 1 73 
1 -459 0 218 1 -150 713 3511 100 MP stroke
1 194 1 -85 0 -79 1 58 1 119 1 -289 1 188 0 -153 
1 4 1 188 1 -225 0 203 1 11 1 -91 1 529 1 -662 
0 235 1 -112 1 320 1 -315 0 127 1 -258 1 33 1 -3 
0 64 1 -57 1 -17 1 152 0 -32 691 3464 30 MP stroke
gr

c8
0 sg
%%IncludeResource: font Helvetica
/Helvetica /ISOLatin1Encoding 120 FMSR

5391 1511 mt 
(KIC 3100193) s
2981 3918 mt 
(Frequency \(micro Hertz\)) s
 408 2789 mt  -90 rotate
(Oscillation power) s
90 rotate
4 w
DO
SO
6 w
 691 3630 mt 6566 3630 L
 691 1037 mt 6566 1037 L
 691 3630 mt  691 1037 L
6566 3630 mt 6566 1037 L
 691 3630 mt 6566 3630 L
 691 3630 mt  691 1037 L
 691 3630 mt  691 3571 L
 691 1037 mt  691 1095 L
 625 3775 mt 
(10) s
1278 3630 mt 1278 3571 L
1278 1037 mt 1278 1095 L
1212 3775 mt 
(20) s
1866 3630 mt 1866 3571 L
1866 1037 mt 1866 1095 L
1800 3775 mt 
(30) s
2453 3630 mt 2453 3571 L
2453 1037 mt 2453 1095 L
2387 3775 mt 
(40) s
3041 3630 mt 3041 3571 L
3041 1037 mt 3041 1095 L
2975 3775 mt 
(50) s
3628 3630 mt 3628 3571 L
3628 1037 mt 3628 1095 L
3562 3775 mt 
(60) s
4216 3630 mt 4216 3571 L
4216 1037 mt 4216 1095 L
4150 3775 mt 
(70) s
4803 3630 mt 4803 3571 L
4803 1037 mt 4803 1095 L
4737 3775 mt 
(80) s
5391 3630 mt 5391 3571 L
5391 1037 mt 5391 1095 L
5325 3775 mt 
(90) s
5978 3630 mt 5978 3571 L
5978 1037 mt 5978 1095 L
5878 3775 mt 
(100) s
6566 3630 mt 6566 3571 L
6566 1037 mt 6566 1095 L
6466 3775 mt 
(110) s
 691 3630 mt  749 3630 L
6566 3630 mt 6507 3630 L
 590 3674 mt 
(0) s
 691 3152 mt  749 3152 L
6566 3152 mt 6507 3152 L
 490 3196 mt 
(0.5) s
 691 2674 mt  749 2674 L
6566 2674 mt 6507 2674 L
 590 2718 mt 
(1) s
 691 2196 mt  749 2196 L
6566 2196 mt 6507 2196 L
 490 2240 mt 
(1.5) s
 691 1718 mt  749 1718 L
6566 1718 mt 6507 1718 L
 590 1762 mt 
(2) s
 691 1240 mt  749 1240 L
6566 1240 mt 6507 1240 L
 490 1284 mt 
(2.5) s
 691  983 mt 
(x 10) s
%%IncludeResource: font Helvetica
/Helvetica /ISOLatin1Encoding 80 FMSR

 917  909 mt 
(5) s
 691 3630 mt 6566 3630 L
 691 1037 mt 6566 1037 L
 691 3630 mt  691 1037 L
6566 3630 mt 6566 1037 L

end %%Color Dict

eplot
%%EndObject

epage
end

showpage

%%Trailer
%%EOF
