EPIC,GALAH,APOGEE,LAMOST,Gaia-ESO,SAGA,RAVE
205892108,0,0,0,0,0,1
205892677,0,0,0,0,0,0
205893214,0,0,0,0,0,0
205896721,0,0,0,0,0,0
205897043,0,0,0,0,0,0
205898099,0,0,0,0,0,0
205898439,0,0,0,0,0,1
205899663,0,0,0,0,0,0
205901226,0,0,0,0,0,0
205901354,0,0,0,0,0,1
205901713,0,0,0,0,0,0
205902352,0,0,0,0,0,0
205903217,0,0,0,0,0,0
205903300,0,0,0,0,0,0
205903692,0,0,0,0,0,0
205903713,0,0,0,0,0,0
205905024,0,0,0,0,0,0
205905204,0,0,0,0,0,0
205905673,0,0,0,0,0,1
205905919,0,0,0,0,0,0
205906794,0,0,0,0,0,1
205907443,0,0,0,0,0,0
205908169,0,0,0,0,0,1
205908296,0,0,0,0,0,0
205908544,0,0,0,0,0,0
205908750,0,0,0,0,0,1
205908754,0,0,0,0,0,1
205909085,0,0,0,0,0,0
205909135,0,0,0,0,0,0
205909307,0,0,0,0,0,0
205909377,0,0,0,0,0,1
205909389,0,0,0,0,0,0
205909417,0,0,0,0,0,1
205910035,0,0,0,0,0,1
205910447,0,0,0,0,0,0
205910644,0,0,0,0,0,0
205910729,0,0,0,0,0,0
205910757,0,0,0,0,0,1
205910823,0,0,0,0,0,1
205910844,0,0,0,0,0,0
205910862,0,0,0,0,0,0
205910991,0,0,0,0,0,0
205911030,0,0,0,0,0,1
205911443,0,0,0,0,0,1
205911796,0,0,0,0,0,0
205911872,0,0,0,0,0,0
205912176,0,0,0,0,0,1
205912229,0,0,0,0,0,0
205912245,0,0,0,0,0,0
205912408,0,0,0,0,0,1
205912715,0,0,0,0,0,0
205912859,0,0,0,0,0,0
205912898,0,0,0,0,0,0
205913009,0,0,0,0,0,0
205913099,0,0,0,0,0,0
205913308,0,0,0,0,0,1
205913731,0,0,0,0,0,0
205913863,0,0,0,0,0,1
205913955,0,0,0,0,0,0
205914001,0,0,0,0,0,0
205914038,0,0,0,0,0,0
205914052,0,0,0,0,0,0
205914213,0,0,0,0,0,0
205914433,0,0,0,0,0,0
205914589,0,0,0,0,0,0
205914715,0,0,0,0,0,0
205914769,0,0,0,0,0,1
205915051,0,0,0,0,0,0
205915088,0,0,0,0,0,0
205915365,0,0,0,0,0,0
205915490,0,0,0,0,0,0
205915902,0,0,0,0,0,0
205916071,0,0,0,0,0,0
205916737,0,0,0,0,0,0
205916760,0,0,0,0,0,0
205916793,0,0,0,0,0,1
205916875,0,0,0,0,0,0
205916941,0,0,0,0,0,1
205917162,0,0,0,0,0,1
205917319,0,0,0,0,0,0
205917338,0,0,0,0,0,0
205917435,0,0,0,0,0,0
205917469,0,0,0,0,0,0
205917475,0,0,0,0,0,1
205917847,0,0,0,0,0,1
205917849,0,0,0,0,0,0
205917896,0,0,0,0,0,1
205917986,0,0,0,0,0,0
205918377,0,0,0,0,0,0
205918432,0,0,0,0,0,0
205918843,0,0,0,0,0,0
205918928,0,0,0,0,0,0
205919074,0,0,0,0,0,1
205919177,0,0,0,0,0,0
205919283,0,0,0,0,0,0
205919444,0,0,0,0,0,0
205919478,0,0,0,0,0,1
205919971,0,0,0,0,0,0
205919993,0,0,0,0,0,0
205919994,0,0,0,0,0,0
205920347,0,0,0,0,0,1
205920350,0,0,0,0,0,0
205920431,0,0,0,0,0,1
205920640,0,0,0,0,0,1
205920793,0,0,0,0,0,1
205921032,0,0,0,0,0,0
205921511,0,0,0,0,0,1
205922684,0,0,0,0,0,0
205922972,0,0,0,0,0,0
205923156,0,0,0,0,0,0
205923351,0,0,0,0,0,0
205923645,0,0,0,0,0,0
205923813,0,0,0,0,0,0
205923900,0,0,0,0,0,0
205924154,0,0,0,0,0,0
205924249,0,0,0,0,0,1
205924422,0,0,0,0,0,0
205924501,0,0,0,0,0,0
205924604,0,0,0,0,0,0
205924614,0,0,0,0,0,1
205925017,0,0,0,0,0,0
205925130,0,0,0,0,0,1
205925176,0,0,0,0,0,0
205925194,0,0,0,0,0,0
205925404,0,0,0,0,0,1
205925504,0,0,0,0,0,1
205925602,0,0,0,0,0,1
205926585,0,0,0,0,0,0
205926618,0,0,0,0,0,1
205926738,0,0,0,0,0,0
205926823,0,0,0,0,0,0
205927117,0,0,0,0,0,1
205927132,0,0,0,0,0,0
205927366,0,0,0,0,0,0
205927407,0,0,0,0,0,0
205927592,0,0,0,0,0,1
205927655,0,0,0,0,0,0
205927674,0,0,0,0,0,0
205927714,0,0,0,0,0,1
205927877,0,0,0,0,0,1
205928036,0,0,0,0,0,0
205928073,0,0,0,0,0,1
205928240,0,0,0,0,0,0
205928337,0,0,0,0,0,0
205928610,0,0,0,0,0,1
205928834,0,0,0,0,0,0
205928894,0,0,0,0,0,0
205929020,0,0,0,0,0,0
205929054,0,0,0,0,0,1
205929224,0,0,0,0,0,0
205929266,0,0,0,0,0,0
205929359,0,0,0,0,0,0
205929445,0,0,0,0,0,0
205929551,0,0,0,0,0,1
205929562,0,0,0,0,0,0
205929572,0,0,0,0,0,0
205929676,0,0,0,0,0,0
205929709,0,0,0,0,0,0
205929927,0,0,0,0,0,0
205929936,0,0,0,0,0,0
205929982,0,0,0,0,0,1
205930168,0,0,0,0,0,0
205930438,0,0,0,0,0,1
205930631,0,0,0,0,0,0
205930685,0,0,0,0,0,0
205930855,0,0,0,0,0,0
205931007,0,0,0,0,0,0
205931348,0,0,0,0,0,0
205931354,0,0,0,0,0,0
205931660,0,0,0,0,0,1
205931714,0,0,0,0,0,0
205931799,0,0,0,0,0,0
205931805,0,0,0,0,0,0
205931849,0,0,0,0,0,1
205931975,0,0,0,0,0,0
205932033,0,0,0,0,0,1
205932097,0,0,0,0,0,1
205932188,0,0,0,0,0,0
205932812,0,0,0,0,0,0
205933177,0,0,0,0,0,0
205933179,0,0,0,0,0,1
205933248,0,0,0,0,0,0
205933284,0,0,0,0,0,1
205933549,0,0,0,0,0,1
205933593,0,0,0,0,0,0
205933949,0,0,0,0,0,0
205934139,0,0,0,0,0,0
205934148,0,0,0,0,0,1
205934169,0,0,0,0,0,1
205934270,0,0,0,0,0,0
205934375,0,0,0,0,0,0
205934686,0,0,0,0,0,1
205934960,0,0,0,0,0,1
205935022,0,0,0,0,0,1
205935085,0,0,0,0,0,1
205935353,0,0,0,0,0,0
205935462,0,0,0,0,0,1
205935513,0,0,0,0,0,0
205935544,0,0,0,0,0,1
205935619,0,0,0,0,0,1
205935708,0,0,0,0,0,0
205935712,0,0,0,0,0,0
205935953,0,0,0,0,0,1
205935967,0,0,0,0,0,0
205936012,0,0,0,0,0,0
205936182,0,0,0,0,0,0
205936318,0,0,0,0,0,0
205936352,0,0,0,0,0,0
205936383,0,0,0,0,0,0
205936398,0,0,0,0,0,0
205936544,0,0,0,0,0,0
205936686,0,0,0,0,0,0
205936867,0,0,0,0,0,0
205936921,0,0,0,0,0,0
205937021,0,0,0,0,0,1
205937098,0,0,0,0,0,0
205937442,0,0,0,0,0,0
205937656,0,0,0,0,0,0
205937797,0,0,0,0,0,1
205937851,0,0,0,0,0,0
205938119,0,0,0,0,0,0
205938404,0,0,0,0,0,0
205938474,0,0,0,0,0,0
205938504,0,0,0,0,0,0
205938631,0,0,0,0,0,1
205938753,0,0,0,0,0,0
205938866,0,0,0,0,0,0
205938940,0,0,0,0,0,0
205938997,0,0,0,0,0,0
205939625,0,0,0,0,0,0
205939706,0,0,0,0,0,1
205940072,0,0,0,0,0,0
205940187,0,0,0,0,0,0
205940323,0,0,0,0,0,1
205941056,0,0,0,0,0,0
205941250,0,0,0,0,0,0
205941372,0,0,0,0,0,0
205941410,0,0,0,0,0,0
205941422,0,0,0,0,0,1
205941432,0,0,0,0,0,0
205941554,0,0,0,0,0,0
205941596,0,0,0,0,0,0
205941631,0,0,0,0,0,0
205941799,0,0,0,0,0,0
205941804,0,0,0,0,0,0
205941840,0,0,0,0,0,1
205941857,0,0,0,0,0,0
205942268,0,0,0,0,0,0
205942408,0,0,0,0,0,0
205942440,0,0,0,0,0,1
205942552,0,0,0,0,0,0
205942564,0,0,0,0,0,0
205942682,0,0,0,0,0,1
205942958,0,0,0,0,0,1
205942989,0,0,0,0,0,0
205943030,0,0,0,0,0,0
205943222,0,0,0,0,0,1
205943233,0,0,0,0,0,1
205943239,0,0,0,0,0,0
205943345,0,0,0,0,0,0
205943696,0,0,0,0,0,1
205944272,0,0,0,0,0,0
205944495,0,0,0,0,0,0
205944548,0,0,0,0,0,0
205944559,0,0,0,0,0,0
205944666,0,0,0,0,0,1
205945076,0,0,0,0,0,0
205945130,0,0,0,0,0,1
205945162,0,0,0,0,0,0
205945331,0,0,0,0,0,1
205945376,0,0,0,0,0,0
205945695,0,0,0,0,0,0
205945797,0,0,0,0,0,0
205945870,0,0,0,0,0,1
205945933,0,0,0,0,0,1
205946087,0,0,0,0,0,0
205946116,0,0,0,0,0,1
205946304,0,0,0,0,0,0
205946356,0,0,0,0,0,0
205946456,0,0,0,0,0,1
205946529,0,0,0,0,0,0
205946758,0,0,0,0,0,0
205946785,0,0,0,0,0,0
205947067,0,0,0,0,0,0
205947539,0,0,0,0,0,0
205947743,0,0,0,0,0,1
205947948,0,0,0,0,0,0
205948121,0,0,0,0,0,1
205948343,0,0,0,0,0,1
205948574,0,0,0,0,0,0
205948912,0,0,0,0,0,0
205949028,0,0,0,0,0,0
205949211,0,0,0,0,0,1
205949304,0,0,0,0,0,0
205949613,0,0,0,0,0,0
205949643,0,0,0,0,0,0
205950221,0,0,0,0,0,0
205950374,0,0,0,0,0,0
205950384,0,0,0,0,0,0
205951029,0,0,0,0,0,1
205951113,0,0,0,0,0,0
205951125,0,0,0,0,0,0
205951306,0,0,0,0,0,0
205951485,0,0,0,0,0,0
205951778,0,0,0,0,0,0
205952023,0,0,0,0,0,0
205952128,0,0,0,0,0,0
205952135,0,0,0,0,0,0
205952295,0,0,0,0,0,1
205952497,0,0,0,0,0,1
205952590,0,0,0,0,0,0
205952605,0,0,0,0,0,0
205952655,0,0,0,0,0,0
205952749,0,0,0,0,0,1
205952809,0,0,0,0,0,1
205952817,0,0,0,0,0,0
205952956,0,0,0,0,0,1
205952992,0,0,0,0,0,0
205953049,0,0,0,0,0,1
205953136,0,0,0,0,0,1
205953222,0,0,0,0,0,0
205953253,0,0,0,0,0,0
205953373,0,0,0,0,0,0
205953480,0,0,0,0,0,0
205953481,0,0,0,0,0,0
205953578,0,0,0,0,0,0
205953598,0,0,0,0,0,0
205953684,0,0,0,0,0,1
205953789,0,0,0,0,0,0
205954042,0,0,0,0,0,1
205954223,0,0,0,0,0,0
205954359,0,0,0,0,0,0
205954593,0,0,0,0,0,1
205954972,0,0,0,0,0,1
205955030,0,0,0,0,0,0
205955092,0,0,0,0,0,0
205955339,0,0,0,0,0,0
205955425,0,0,0,0,0,1
205955510,0,0,0,0,0,0
205955544,0,0,0,0,0,1
205955585,0,0,0,0,0,1
205955601,0,0,0,0,0,0
205955699,0,0,0,0,0,0
205955748,0,0,0,0,0,0
205955888,0,0,0,0,0,1
205956034,0,0,0,0,0,0
205956130,0,0,0,0,0,1
205956257,0,0,0,0,0,0
205956919,0,0,0,0,0,0
205957328,0,0,0,0,0,0
205957591,0,0,0,0,0,0
205957680,0,0,0,0,0,0
205957840,0,0,0,0,0,0
205958072,0,0,0,0,0,1
205958230,0,0,0,0,0,1
205958262,0,0,0,0,0,0
205958354,0,0,0,0,0,1
205958385,0,0,0,0,0,0
205958529,0,0,0,0,0,0
205959203,0,0,0,0,0,0
205959295,0,0,0,0,0,1
205959339,0,0,0,0,0,0
205959340,0,0,0,0,0,0
205959371,0,0,0,0,0,0
205959383,0,0,0,0,0,0
205959632,0,0,0,0,0,1
205959757,0,0,0,0,0,0
205960052,0,0,0,0,0,1
205960134,0,0,0,0,0,1
205960219,0,0,0,0,0,0
205960229,0,0,0,0,0,0
205960774,0,0,0,0,0,1
205960995,0,0,0,0,0,1
205961165,0,0,0,0,0,0
205961549,0,0,0,0,0,1
205961647,0,0,0,0,0,0
205961664,0,0,0,0,0,0
205961675,0,0,0,0,0,1
205961697,0,0,0,0,0,1
205961736,0,0,0,0,0,0
205961895,0,0,0,0,0,0
205961974,0,0,0,0,0,0
205962080,0,0,0,0,0,1
205962117,0,0,0,0,0,0
205962202,0,0,0,0,0,0
205962447,0,0,0,0,0,0
205962467,0,0,0,0,0,1
205962543,0,0,0,0,0,0
205962621,0,0,0,0,0,1
205962652,0,0,0,0,0,1
205962979,0,0,0,0,0,0
205963088,0,0,0,0,0,0
205963211,0,0,0,0,0,0
205963226,0,0,0,0,0,0
205963269,0,0,0,0,0,1
205963341,0,0,0,0,0,0
205963539,0,0,0,0,0,0
205963547,0,0,0,0,0,1
205963548,0,0,0,0,0,0
205963609,0,0,0,0,0,0
205963667,0,0,0,0,0,1
205964079,0,0,0,0,0,1
205964329,0,0,0,0,0,1
205964443,0,0,0,0,0,0
205964468,0,0,0,0,0,1
205964484,0,0,0,0,0,0
205964871,0,0,0,0,0,0
205965232,0,0,0,0,0,0
205965289,0,0,0,0,0,0
205965538,0,0,0,0,0,0
205965569,0,0,0,0,0,0
205965608,0,0,0,0,0,0
205965619,0,0,0,0,0,1
205965684,0,0,0,0,0,0
205965738,0,0,0,0,0,0
205965742,0,0,0,0,0,1
205965748,0,0,0,0,0,1
205966080,0,0,0,0,0,0
205966244,0,0,0,0,0,0
205966258,0,0,0,0,0,0
205966694,0,0,0,0,0,0
205966848,0,0,0,0,0,0
205966866,0,0,0,0,0,1
205967086,0,0,0,0,0,0
205967211,0,0,0,0,0,0
205967271,0,0,0,0,0,0
205967509,0,0,0,0,0,1
205967828,0,0,0,0,0,0
205967925,0,0,0,0,0,1
205967938,0,0,0,0,0,1
205968010,0,0,0,0,0,0
205968049,0,0,0,0,0,0
205968148,0,0,0,0,0,0
205968365,0,0,0,0,0,1
205968398,0,0,0,0,0,0
205968404,0,0,0,0,0,0
205968722,0,0,0,0,0,0
205969013,0,0,0,0,0,0
205969062,0,0,0,0,0,1
205969069,0,0,0,0,0,0
205969111,0,0,0,0,0,1
205969165,0,0,0,0,0,0
205969268,0,0,0,0,0,0
205969592,0,0,0,0,0,0
205969680,0,0,0,0,0,0
205969774,0,0,0,0,0,0
205969844,0,0,0,0,0,0
205969877,0,0,0,0,0,0
205969884,0,0,0,0,0,0
205969893,0,0,0,0,0,0
205970092,0,0,0,0,0,0
205970161,0,0,0,0,0,1
205970472,0,0,0,0,0,1
205970666,0,0,0,0,0,0
205970667,0,0,0,0,0,0
205970767,0,0,0,0,0,1
205970867,0,0,0,0,0,1
205970868,0,0,0,0,0,0
205970951,0,0,0,0,0,0
205971106,0,0,0,0,0,0
205971224,0,0,0,0,0,0
205971389,0,0,0,0,0,1
205971438,0,0,0,0,0,0
205971617,0,0,0,0,0,0
205971954,0,0,0,0,0,1
205972004,0,0,0,0,0,0
205972148,0,0,0,0,0,0
205972309,0,0,0,0,0,0
205972354,0,0,0,0,0,0
205972358,0,0,0,0,0,0
205972576,0,0,0,0,0,1
205972684,0,0,0,0,0,0
205972762,0,0,0,0,0,0
205972881,0,0,0,0,0,0
205973307,0,0,0,0,0,1
205973449,0,0,0,0,0,0
205973521,0,0,0,0,0,0
205973605,0,0,0,0,0,1
205973648,0,0,0,0,0,0
205973739,0,0,0,0,0,0
205973872,0,0,0,0,0,0
205974080,0,0,0,0,0,0
205974407,0,0,0,0,0,0
205974440,0,0,0,0,0,0
205974551,0,0,0,0,0,1
205974896,0,0,0,0,0,1
205974954,0,0,0,0,0,0
205975117,0,0,0,0,0,0
205975140,0,0,0,0,0,1
205975223,0,0,0,0,0,0
205975760,0,0,0,0,0,0
205975916,0,0,0,0,0,1
205975970,0,0,0,0,0,0
205976140,0,0,0,0,0,0
205976156,0,0,0,0,0,0
205976299,0,0,0,0,0,0
205976382,0,0,0,0,0,1
205976629,0,0,0,0,0,0
205976689,0,0,0,0,0,1
205976768,0,0,0,0,0,0
205976870,0,0,0,0,0,0
205976983,0,0,0,0,0,0
205977024,0,0,0,0,0,1
205977213,0,0,0,0,0,1
205977328,0,0,0,0,0,0
205977363,0,0,0,0,0,0
205977390,0,0,0,0,0,1
205977567,0,0,0,0,0,0
205977670,0,0,0,0,0,1
205977740,0,0,0,0,0,0
205977886,0,0,0,0,0,0
205977906,0,0,0,0,0,0
205978013,0,0,0,0,0,0
205978069,0,0,0,0,0,0
205978103,0,0,0,0,0,0
205978144,0,0,0,0,0,0
205978232,0,0,0,0,0,0
205978510,0,0,0,0,0,0
205978578,0,0,0,0,0,0
205978631,0,0,0,0,0,0
205978736,0,0,0,0,0,0
205978867,0,0,0,0,0,0
205979007,0,0,0,0,0,0
205979090,0,0,0,0,0,1
205979159,0,0,0,0,0,0
205979216,0,0,0,0,0,0
205979410,0,0,0,0,0,1
205979516,0,0,0,0,0,0
205979712,0,0,0,0,0,0
205979766,0,0,0,0,0,0
205979901,0,0,0,0,0,0
205979975,0,0,0,0,0,0
205980246,0,0,0,0,0,1
205980457,0,0,0,0,0,0
205980492,0,0,0,0,0,1
205980741,0,0,0,0,0,1
205981036,0,0,0,0,0,1
205981067,0,0,0,0,0,1
205981262,0,0,0,0,0,0
205981459,0,0,0,0,0,0
205981484,0,0,0,0,0,1
205981537,0,0,0,0,0,0
205981567,0,0,0,0,0,0
205981680,0,0,0,0,0,0
205982119,0,0,0,0,0,0
205982135,0,0,0,0,0,1
205982177,0,0,0,0,0,0
205982204,0,0,0,0,0,1
205982255,0,0,0,0,0,1
205982267,0,0,0,0,0,0
205982279,0,0,0,0,0,0
205982347,0,0,0,0,0,0
205982472,0,0,0,0,0,1
205982653,0,0,0,0,0,0
205982763,0,0,0,0,0,0
205982792,0,0,0,0,0,1
205983182,0,0,0,0,0,0
205983620,0,0,0,0,0,0
205983689,0,0,0,0,0,0
205983714,0,0,0,0,0,0
205983882,0,0,0,0,0,1
205983916,0,0,0,0,0,0
205984114,0,0,0,0,0,0
205984153,0,0,0,0,0,1
205984356,0,0,0,0,0,0
205984426,0,0,0,0,0,0
205984467,0,0,0,0,0,1
205984597,0,0,0,0,0,0
205984809,0,0,0,0,0,1
205984885,0,0,0,0,0,1
205985250,0,0,0,0,0,0
205985311,0,0,0,0,0,1
205985357,0,0,0,0,0,0
205985428,0,0,0,0,0,0
205985476,0,0,0,0,0,0
205985479,0,0,0,0,0,1
205985612,0,0,0,0,0,1
205985923,0,0,0,0,0,0
205985980,0,0,0,0,0,1
205986028,0,0,0,0,0,0
205986097,0,0,0,0,0,1
205986142,0,0,0,0,0,0
205986251,0,0,0,0,0,0
205986305,0,0,0,0,0,1
205986323,0,0,0,0,0,1
205986792,0,0,0,0,0,1
205986797,0,0,0,0,0,1
205986891,0,0,0,0,0,0
205986913,0,0,0,0,0,0
205987002,0,0,0,0,0,0
205987938,0,0,0,0,0,0
205987980,0,0,0,0,0,1
205987990,0,0,0,0,0,1
205988017,0,0,0,0,0,0
205988054,0,0,0,0,0,1
205988234,0,0,0,0,0,1
205988274,0,0,0,0,0,0
205988410,0,0,0,0,0,0
205988508,0,0,0,0,0,0
205988671,0,0,0,0,0,1
205988857,0,0,0,0,0,0
205989275,0,0,0,0,0,0
205989438,0,0,0,0,0,1
205989470,0,0,0,0,0,0
205989797,0,0,0,0,0,0
205989874,0,0,0,0,0,0
205989915,0,0,0,0,0,0
205990177,0,0,0,0,0,0
205990821,0,0,0,0,0,0
205990834,0,0,0,0,0,1
205990966,0,0,0,0,0,0
205990968,0,0,0,0,0,1
205991080,0,0,0,0,0,0
205991117,0,0,0,0,0,0
205991391,0,0,0,0,0,1
205991396,0,0,0,0,0,0
205991454,0,0,0,0,0,0
205991527,0,0,0,0,0,0
205991648,0,0,0,0,0,0
205991921,0,0,0,0,0,0
205992336,0,0,0,0,0,1
205992377,0,0,0,0,0,0
205992378,0,0,0,0,0,0
205992512,0,0,0,0,0,0
205992539,0,0,0,0,0,1
205992558,0,0,0,0,0,0
205992575,0,0,0,0,0,0
205992585,0,0,0,0,0,0
205992615,0,0,0,0,0,1
205992705,0,0,0,0,0,0
205992817,0,0,0,0,0,1
205992881,0,0,0,0,0,1
205993101,0,0,0,0,0,0
205993114,0,0,0,0,0,0
205993129,0,0,0,0,0,1
205993206,0,0,0,0,0,1
205993244,0,0,0,0,0,1
205993356,0,0,0,0,0,0
205993454,0,0,0,0,0,1
205993475,0,0,0,0,0,1
205993741,0,0,0,0,0,0
205993809,0,0,0,0,0,0
205993924,0,0,0,0,0,0
205993973,0,0,0,0,0,0
205994225,0,0,0,0,0,0
205994283,0,0,0,0,0,1
205994284,0,0,0,0,0,0
205994421,0,0,0,0,0,0
205994539,0,0,0,0,0,0
205994549,0,0,0,0,0,0
205994578,0,0,0,0,0,0
205994591,0,0,0,0,0,1
205994827,0,0,0,0,0,1
205994896,0,0,0,0,0,0
205994910,0,0,0,0,0,0
205994943,0,0,0,0,0,0
205995088,0,0,0,0,0,1
205995203,0,0,0,0,0,0
205995288,0,0,0,0,0,0
205995424,0,0,0,0,0,0
205995425,0,0,0,0,0,0
205995516,0,0,0,0,0,0
205995590,0,0,0,0,0,0
205995743,0,0,0,0,0,0
205995863,0,0,0,0,0,1
205995865,0,0,0,0,0,1
205996255,0,0,0,0,0,1
205996423,0,0,0,0,0,0
205996733,0,0,0,0,0,0
205996967,0,0,0,0,0,1
205996991,0,0,0,0,0,0
205997047,0,0,0,0,0,0
205997118,0,0,0,0,0,1
205997149,0,0,0,0,0,0
205997151,0,0,0,0,0,0
205997217,0,0,0,0,0,1
205997248,0,0,0,0,0,0
205997673,0,0,0,0,0,1
205997718,0,0,0,0,0,1
205997746,0,0,0,0,0,1
205997773,0,0,0,0,0,0
205997904,0,0,0,0,0,0
205997943,0,0,0,0,0,0
205998053,0,0,0,0,0,0
205998214,0,0,0,0,0,0
205998452,0,0,0,0,0,0
205998473,0,0,0,0,0,0
205998515,0,0,0,0,0,0
205998575,0,0,0,0,0,1
205998588,0,0,0,0,0,0
205998593,0,0,0,0,0,0
205998957,0,0,0,0,0,0
205999029,0,0,0,0,0,0
205999122,0,0,0,0,0,0
205999242,0,0,0,0,0,0
205999344,0,0,0,0,0,0
205999468,0,0,0,0,0,0
205999925,0,0,0,0,0,1
206000020,0,0,0,0,0,1
206000109,0,0,0,0,0,1
206000140,0,0,0,0,0,1
206000312,0,0,0,0,0,1
206000610,0,0,0,0,0,0
206000772,0,0,0,0,0,1
206000829,0,0,0,0,0,0
206000848,0,0,0,0,0,0
206000925,0,0,0,0,0,0
206000933,0,0,0,0,0,0
206001293,0,0,0,0,0,0
206001302,0,0,0,0,0,1
206001385,0,0,0,0,0,0
206001422,0,0,0,0,0,1
206001481,0,0,0,0,0,0
206001606,0,0,0,0,0,0
206001651,0,0,0,0,0,1
206001660,0,0,0,0,0,1
206001721,0,0,0,0,0,0
206001789,0,0,0,0,0,0
206001796,0,0,0,0,0,0
206001934,0,0,0,0,0,0
206001964,0,0,0,0,0,0
206002041,0,0,0,0,0,0
206002151,0,0,0,0,0,0
206002338,0,0,0,0,0,0
206002350,0,0,0,0,0,0
206002411,0,0,0,0,0,1
206002435,0,0,0,0,0,0
206002507,0,0,0,0,0,1
206002508,0,0,0,0,0,0
206002578,0,0,0,0,0,0
206002621,0,0,0,0,0,0
206002717,0,0,0,0,0,1
206002780,0,0,0,0,0,0
206002917,0,0,0,0,0,0
206002950,0,0,0,0,0,0
206003051,0,0,0,0,0,0
206003123,0,0,0,0,0,0
206003138,0,0,0,0,0,1
206003165,0,0,0,0,0,0
206003184,0,0,0,0,0,0
206003202,0,0,0,0,0,1
206003437,0,0,0,0,0,0
206003535,0,0,0,0,0,1
206003678,0,0,0,0,0,0
206003702,0,0,0,0,0,0
206003753,0,0,0,0,0,0
206003851,0,0,0,0,0,0
206004117,0,0,0,0,0,0
206004397,0,0,0,0,0,0
206004605,0,0,0,0,0,0
206004636,0,0,0,0,0,0
206004669,0,0,0,0,0,1
206004717,0,0,0,0,0,0
206004801,0,0,0,0,0,0
206004813,0,0,0,0,0,0
206004843,0,0,0,0,0,0
206004885,0,0,0,0,0,0
206004910,0,0,0,0,0,0
206005083,0,0,0,0,0,0
206005182,0,0,0,0,0,0
206005223,0,0,0,0,0,1
206005309,0,0,0,0,0,0
206005342,0,0,0,0,0,0
206005411,0,0,0,0,0,0
206005471,0,0,0,0,0,0
206005708,0,0,0,0,0,0
206005808,0,0,0,0,0,0
206005881,0,0,0,0,0,1
206006036,0,0,0,0,0,0
206006113,0,0,0,0,0,0
206006246,0,0,0,0,0,1
206006303,0,0,0,0,0,0
206006336,0,0,0,0,0,0
206006397,0,0,0,0,0,0
206006709,0,0,0,0,0,0
206007090,0,0,0,0,0,0
206007213,0,0,0,0,0,0
206007228,0,0,0,0,0,0
206007260,0,0,0,0,0,0
206007310,0,0,0,0,0,0
206007348,0,0,0,0,0,0
206007447,0,0,0,0,0,0
206007536,0,0,0,0,0,0
206007828,0,0,0,0,0,1
206007851,0,0,0,0,0,0
206008024,0,0,0,0,0,0
206008049,0,0,0,0,0,0
206008070,0,0,0,0,0,0
206008118,0,0,0,0,0,0
206008299,0,0,0,0,0,0
206008320,0,0,0,0,0,0
206008358,0,0,0,0,0,1
206008588,0,0,0,0,0,0
206008630,0,0,0,0,0,0
206008835,0,0,0,0,0,0
206009192,0,0,0,0,0,0
206009335,0,0,0,0,0,1
206009356,0,0,0,0,0,0
206009612,0,0,0,0,0,0
206010061,0,0,0,0,0,0
206010093,0,0,0,0,0,0
206010094,0,0,0,0,0,0
206010104,0,0,0,0,0,0
206010129,0,0,0,0,0,0
206010218,0,0,0,0,0,0
206010231,0,0,0,0,0,0
206010277,0,0,0,0,0,0
206010346,0,0,0,0,0,0
206010437,0,0,0,0,0,1
206010458,0,0,0,0,0,0
206010465,0,0,0,0,0,1
206010521,0,0,0,0,0,0
206010592,0,0,0,0,0,0
206010609,0,0,0,0,0,1
206010700,0,0,0,0,0,0
206010721,0,0,0,0,0,0
206010953,0,0,0,0,0,0
206011016,0,0,0,0,0,0
206011263,0,0,0,0,0,0
206011450,0,0,0,0,0,0
206011512,0,0,0,0,0,0
206011661,0,0,0,0,0,0
206011686,0,0,0,0,0,0
206011691,0,0,0,0,0,0
206011766,0,0,0,0,0,0
206011849,0,0,0,0,0,0
206011914,0,0,0,0,0,1
206012087,0,0,0,0,0,1
206012354,0,0,0,0,0,0
206012551,0,0,0,0,0,0
206012599,0,0,0,0,0,0
206012743,0,0,0,0,0,0
206012865,0,0,0,0,0,0
206012894,0,0,0,0,0,0
206013053,0,0,0,0,0,0
206013104,0,0,0,0,0,0
206013179,0,0,0,0,0,0
206013238,0,0,0,0,0,0
206013241,0,0,0,0,0,0
206013255,0,0,0,0,0,0
206013367,0,0,0,0,0,0
206013588,0,0,0,0,0,1
206013596,0,0,0,0,0,1
206013627,0,0,0,0,0,0
206013643,0,0,0,0,0,1
206013733,0,0,0,0,0,0
206013839,0,0,0,0,0,0
206013893,0,0,0,0,0,1
206014003,0,0,0,0,0,0
206014045,0,0,0,0,0,0
206014112,0,0,0,0,0,0
206014119,0,0,0,0,0,0
206014261,0,0,0,0,0,0
206014467,0,0,0,0,0,0
206014572,0,0,0,0,0,0
206014949,0,0,0,0,0,0
206014951,0,0,0,0,0,0
206015065,0,0,0,0,0,0
206015123,0,0,0,0,0,0
206015141,0,0,0,0,0,0
206015192,0,0,0,0,0,1
206015264,0,0,0,0,0,0
206015265,0,0,0,0,0,0
206015475,0,0,0,0,0,0
206015636,0,0,0,0,0,0
206015773,0,0,0,0,0,0
206015878,0,0,0,0,0,0
206016063,0,0,0,0,0,0
206016165,0,0,0,0,0,0
206016231,0,0,0,0,0,0
206016359,0,0,0,0,0,1
206016662,0,0,0,0,0,0
206017159,0,0,0,0,0,1
206017207,0,0,0,0,0,0
206017313,0,0,0,0,0,0
206017368,0,0,0,0,0,0
206017394,0,0,0,0,0,0
206017503,0,0,0,0,0,0
206017551,0,0,0,0,0,0
206017673,0,0,0,0,0,0
206017787,0,0,0,0,0,1
206018092,0,0,0,0,0,0
206018246,0,0,0,0,0,1
206018302,0,0,0,0,0,1
206018389,0,0,0,0,0,1
206018411,0,0,0,0,0,1
206018471,0,0,0,0,0,0
206018668,0,0,0,0,0,1
206018726,0,0,0,0,0,0
206018727,0,0,0,0,0,1
206018985,0,0,0,0,0,0
206019104,0,0,0,0,0,0
206019173,0,0,0,0,0,0
206019269,0,0,0,0,0,0
206019350,0,0,0,0,0,0
206019504,0,0,0,0,0,0
206019548,0,0,0,0,0,1
206019560,0,0,0,0,0,0
206019599,0,0,0,0,0,0
206019659,0,0,0,0,0,0
206019853,0,0,0,0,0,1
206019939,0,0,0,0,0,1
206020034,0,0,0,0,0,0
206020125,0,0,0,0,0,0
206020262,0,0,0,0,0,0
206020372,0,0,0,0,0,0
206020922,0,0,0,0,0,0
206020926,0,0,0,0,0,0
206021218,0,0,0,0,0,1
206021225,0,0,0,0,0,0
206021435,0,0,0,0,0,0
206021482,0,0,0,0,0,0
206021524,0,0,0,0,0,0
206021553,0,0,0,0,0,0
206021755,0,0,0,0,0,0
206022082,0,0,0,0,0,0
206022129,0,0,0,0,0,0
206022188,0,0,0,0,0,1
206022274,0,0,0,0,0,0
206022299,0,0,0,0,0,0
206022593,0,0,0,0,0,0
206022811,1,0,0,0,0,0
206022839,0,0,0,0,0,0
206023114,0,0,0,0,0,1
206023175,0,0,0,0,0,0
206023179,0,0,0,0,0,1
206023190,0,0,0,0,0,0
206023297,0,0,0,0,0,0
206023362,0,0,0,0,0,0
206023680,0,0,0,0,0,0
206023794,0,0,0,0,0,0
206023869,0,0,0,0,0,1
206024046,0,0,0,0,0,0
206024119,0,0,0,0,0,0
206024195,1,0,0,0,0,0
206024304,1,0,0,0,0,0
206024326,0,0,0,0,0,0
206024677,0,0,0,0,0,0
206024741,0,0,0,0,0,0
206024919,0,0,0,0,0,1
206025072,0,0,0,0,0,0
206025204,0,0,0,0,0,0
206025324,0,0,0,0,0,0
206025398,0,0,0,0,0,0
206025425,0,0,0,0,0,0
206025689,0,0,0,0,0,0
206025800,0,0,0,0,0,0
206025968,0,0,0,0,0,1
206026087,1,0,0,0,0,0
206026136,0,0,0,0,0,0
206026161,0,0,0,0,0,0
206026266,0,0,0,0,0,0
206026426,0,0,0,0,0,0
206026615,0,0,0,0,0,0
206026644,0,0,0,0,0,0
206026659,1,0,0,0,0,1
206026825,0,0,0,0,0,0
206026842,0,0,0,0,0,0
206026896,0,0,0,0,0,0
206026904,0,0,0,0,0,0
206027116,0,0,0,0,0,1
206027374,0,0,0,0,0,0
206027411,0,0,0,0,0,0
206027510,0,0,0,0,0,0
206027531,0,0,0,0,0,0
206027655,0,0,0,0,0,0
206027732,0,0,0,0,0,0
206027774,0,0,0,0,0,0
206027856,0,0,0,0,0,1
206027875,0,0,0,0,0,0
206027885,0,0,0,0,0,0
206027891,0,0,0,0,0,0
206027899,0,0,0,0,0,0
206028060,1,0,0,0,0,0
206028130,0,0,0,0,0,0
206028290,0,0,0,0,0,0
206028300,0,0,0,0,0,0
206028478,0,0,0,0,0,1
206028487,0,0,0,0,0,0
206028535,1,0,0,0,0,0
206028546,0,0,0,0,0,0
206028547,0,0,0,0,0,0
206028585,0,0,0,0,0,0
206028685,0,0,0,0,0,1
206028692,0,0,0,0,0,1
206028785,0,0,0,0,0,0
206028871,0,0,0,0,0,0
206028879,0,0,0,0,0,1
206028891,1,0,0,0,0,1
206028894,0,0,0,0,0,1
206029084,0,0,0,0,0,0
206029132,0,0,0,0,0,1
206029302,0,0,0,0,0,0
206029335,0,0,0,0,0,0
206029351,0,0,0,0,0,1
206029401,0,0,0,0,0,0
206029511,0,0,0,0,0,0
206029627,0,0,0,0,0,0
206029732,0,0,0,0,0,0
206029948,0,0,0,0,0,0
206030078,0,0,0,0,0,0
206030169,0,0,0,0,0,0
206030199,1,0,0,0,0,0
206030200,0,0,0,0,0,0
206030207,1,0,0,0,0,0
206030322,0,0,0,0,0,0
206030360,0,0,0,0,0,0
206030408,0,0,0,0,0,0
206030412,0,0,0,0,0,0
206030624,1,0,0,0,0,0
206030783,0,0,0,0,0,0
206030884,0,0,0,0,0,0
206031152,1,0,0,0,0,0
206031254,0,0,0,0,0,0
206031298,0,0,0,0,0,0
206031571,0,0,0,0,0,0
206031627,0,0,0,0,0,0
206031724,0,0,0,0,0,0
206031772,0,0,0,0,0,0
206031811,0,0,0,0,0,0
206031855,0,0,0,0,0,0
206031887,0,0,0,0,0,0
206031979,0,0,0,0,0,0
206032032,1,0,0,0,0,0
206032040,0,0,0,0,0,1
206032164,0,0,0,0,0,0
206032293,1,0,0,0,0,1
206032596,1,0,0,0,0,1
206032640,0,0,0,0,0,0
206032676,0,0,0,0,0,0
206032691,0,0,0,0,0,0
206032718,0,0,0,0,0,0
206032745,0,0,0,0,0,0
206032762,0,0,0,0,0,0
206032870,1,0,0,0,0,1
206033099,0,0,0,0,0,0
206033130,0,0,0,0,0,0
206033168,0,0,0,0,0,0
206033589,0,0,0,0,0,1
206033615,0,0,0,0,0,0
206033622,0,0,0,0,0,0
206033753,1,0,0,0,0,0
206033946,0,0,0,0,0,0
206034019,0,0,0,0,0,0
206034034,0,0,0,0,0,0
206034127,0,0,0,0,0,0
206034129,0,0,0,0,0,0
206034312,0,0,0,0,0,0
206034368,0,0,0,0,0,0
206034636,0,0,0,0,0,1
206034668,0,0,0,0,0,1
206034883,0,0,0,0,0,0
206034924,1,0,0,0,0,0
206035075,0,0,0,0,0,1
206035175,0,0,0,0,0,0
206035381,0,0,0,0,0,0
206035397,0,0,0,0,0,0
206035503,0,0,0,0,0,0
206035615,0,0,0,0,0,0
206035700,0,0,0,0,0,0
206035731,0,0,0,0,0,0
206035736,0,0,0,0,0,1
206036187,0,0,0,0,0,0
206036255,0,0,0,0,0,0
206036357,1,0,0,0,0,0
206036416,0,0,0,0,0,0
206036726,0,0,0,0,0,0
206036741,0,0,0,0,0,1
206037022,1,0,0,0,0,1
206037023,0,0,0,0,0,1
206037205,0,0,0,0,0,0
206037311,0,0,0,0,0,0
206037748,0,0,0,0,0,0
206037789,0,0,0,0,0,0
206037963,1,0,0,0,0,0
206038132,0,0,0,0,0,1
206038186,1,0,0,0,0,0
206038223,0,0,0,0,0,0
206038285,0,0,0,0,0,0
206038473,1,0,0,0,0,0
206038514,0,0,0,0,0,0
206038596,1,0,0,0,0,0
206038768,1,0,0,0,0,0
206038811,0,0,0,0,0,1
206038861,0,0,0,0,0,0
206038918,0,0,0,0,0,0
206039034,0,0,0,0,0,0
206039266,1,0,0,0,0,0
206039300,0,0,0,0,0,0
206039513,1,0,0,0,0,1
206039540,1,0,0,0,0,0
206039593,0,0,0,0,0,1
206039882,0,0,0,0,0,0
206039932,0,0,0,0,0,1
206039936,0,0,0,0,0,0
206040104,0,0,0,0,0,1
206040337,1,0,0,0,0,0
206040345,0,0,0,0,0,0
206040418,0,0,0,0,0,0
206040457,1,0,0,0,0,1
206040583,0,0,0,0,0,0
206040650,0,0,0,0,0,1
206040864,0,0,0,0,0,0
206040999,1,0,0,0,0,0
206041038,0,0,0,0,0,0
206041081,0,0,0,0,0,0
206041118,0,0,0,0,0,0
206041371,1,0,0,0,0,0
206041414,0,0,0,0,0,1
206041434,0,0,0,0,0,0
206041454,0,0,0,0,0,1
206041486,0,0,0,0,0,0
206041509,1,0,0,0,0,0
206041664,0,0,0,0,0,0
206041837,0,0,0,0,0,0
206041863,1,0,0,0,0,1
206042174,0,0,0,0,0,0
206042412,0,0,0,0,0,1
206042549,0,0,0,0,0,0
206042583,0,0,0,0,0,0
206042636,0,0,0,0,0,0
206042720,0,0,0,0,0,0
206042874,0,0,0,0,0,0
206042941,1,0,0,0,0,0
206043138,0,0,0,0,0,1
206043157,0,0,0,0,0,0
206043480,1,0,0,0,0,0
206043525,1,0,0,0,0,1
206043590,0,0,0,0,0,0
206043758,0,0,0,0,0,0
206043829,0,0,0,0,0,0
206043905,0,0,0,0,0,0
206043990,0,0,0,0,0,0
206044002,0,0,0,0,0,0
206044021,0,0,0,0,0,0
206044110,0,0,0,0,0,0
206044133,0,0,0,0,0,0
206044142,0,0,0,0,0,1
206044160,0,0,0,0,0,0
206044222,0,0,0,0,0,1
206044239,0,0,0,0,0,1
206044294,0,0,0,0,0,1
206044527,0,0,0,0,0,0
206044545,0,0,0,0,0,0
206044699,1,0,0,0,0,1
206044766,0,0,0,0,0,0
206044943,0,0,0,0,0,0
206045102,0,0,0,0,0,1
206045300,0,0,0,0,0,0
206045363,0,0,0,0,0,0
206045570,0,0,0,0,0,0
206045632,1,0,0,0,0,0
206045708,1,0,0,0,0,0
206045914,0,0,0,0,0,0
206045926,1,0,0,0,0,0
206046025,0,0,0,0,0,0
206046054,0,0,0,0,0,1
206046081,0,0,0,0,0,0
206046398,1,0,0,0,0,0
206046499,0,0,0,0,0,0
206046564,0,0,0,0,0,1
206046572,1,0,0,0,0,0
206046790,0,0,0,0,0,0
206046984,0,0,0,0,0,0
206047180,0,0,0,0,0,0
206047297,1,0,0,0,0,0
206047309,1,0,0,0,0,0
206047512,0,0,0,0,0,0
206047650,0,0,0,0,0,0
206047916,1,0,0,0,0,0
206048112,0,0,0,0,0,0
206048467,0,0,0,0,0,1
206048480,0,0,0,0,0,0
206048508,0,0,0,0,0,0
206048575,0,0,0,0,0,0
206048584,0,0,0,0,0,0
206048778,0,0,0,0,0,0
206048811,0,0,0,0,0,1
206048885,0,0,0,0,0,0
206048937,1,0,0,0,0,1
206049125,0,0,0,0,0,0
206049452,1,0,0,0,0,0
206049476,0,0,0,0,0,0
206049556,0,0,0,0,0,0
206049606,0,0,0,0,0,1
206049764,0,0,0,0,0,1
206049832,0,0,0,0,0,0
206050032,0,0,0,0,0,0
206050661,0,0,0,0,0,0
206050724,1,0,0,0,0,1
206050859,1,0,0,0,0,0
206050880,0,0,0,0,0,0
206050887,0,0,0,0,0,1
206050904,0,0,0,0,0,0
206051070,0,0,0,0,0,0
206051094,0,0,0,0,0,1
206051257,0,0,0,0,0,0
206051507,0,0,0,0,0,0
206051624,0,0,0,0,0,0
206051684,0,0,0,0,0,0
206051846,0,0,0,0,0,0
206051863,0,0,0,0,0,0
206051873,0,0,0,0,0,0
206052115,0,0,0,0,0,0
206052152,0,0,0,0,0,0
206052160,0,0,0,0,0,1
206052235,1,0,0,0,0,0
206052277,0,0,0,0,0,0
206052313,0,0,0,0,0,0
206052599,0,0,0,0,0,0
206052673,0,0,0,0,0,0
206052875,0,0,0,0,0,0
206052953,0,0,0,0,0,1
206052992,0,0,0,0,0,0
206053001,1,0,0,0,0,0
206053173,0,0,0,0,0,0
206053389,0,0,0,0,0,0
206053496,1,0,0,0,0,0
206053541,1,0,0,0,0,1
206053675,1,0,0,0,0,1
206053801,1,0,0,0,0,0
206053836,0,0,0,0,0,0
206053844,0,0,0,0,0,0
206053881,0,0,0,0,0,0
206053883,0,0,0,0,0,0
206053905,1,0,0,0,0,0
206054202,1,0,0,0,0,0
206054401,0,0,0,0,0,0
206054417,0,0,0,0,0,0
206054440,0,0,0,0,0,0
206054454,0,0,0,0,0,1
206054535,0,0,0,0,0,1
206054675,1,0,0,0,0,0
206054711,1,0,0,0,0,0
206054969,0,0,0,0,0,0
206055065,0,0,0,0,0,1
206055159,0,0,0,0,0,0
206055301,1,0,0,0,0,1
206055420,0,0,0,0,0,1
206055602,1,0,0,0,0,0
206055858,1,0,0,0,0,0
206055865,0,0,0,0,0,0
206055949,0,0,0,0,0,0
206055981,1,0,0,0,0,0
206055982,0,0,0,0,0,0
206056048,1,0,0,0,0,0
206056197,0,0,0,0,0,1
206056337,1,0,0,0,0,0
206056433,0,0,0,0,0,0
206056634,1,0,0,0,0,0
206056648,0,0,0,0,0,1
206056832,1,0,0,0,0,0
206056999,0,0,0,0,0,0
206057098,1,0,0,0,0,0
206057103,1,0,0,0,0,0
206057154,0,0,0,0,0,1
206057199,1,0,0,0,0,0
206057295,1,0,0,0,0,0
206057360,1,0,0,0,0,0
206057408,1,0,0,0,0,1
206057532,1,0,0,0,0,0
206057551,0,0,0,0,0,1
206057572,1,0,0,0,0,0
206057621,0,0,0,0,0,0
206057665,0,0,0,0,0,0
206057700,1,0,0,0,0,0
206057733,1,0,0,0,0,1
206057777,0,0,0,0,0,1
206057842,1,0,0,0,0,0
206058209,0,0,0,0,0,0
206058210,0,0,0,0,0,1
206058287,0,0,0,0,0,0
206058359,0,0,0,0,0,0
206058383,0,0,0,0,0,0
206058431,0,0,0,0,0,0
206058540,0,0,0,0,0,0
206058619,0,0,0,0,0,0
206058873,0,0,0,0,0,0
206058970,1,0,0,0,0,0
206058994,0,0,0,0,0,0
206059064,0,0,0,0,0,0
206059097,1,0,0,0,0,0
206059221,0,0,0,0,0,0
206059267,0,0,0,0,0,0
206059508,0,0,0,0,0,0
206059779,0,0,0,0,0,0
206059787,0,0,0,0,0,0
206059872,1,0,0,0,0,1
206059931,1,0,0,0,0,0
206060014,1,0,0,0,0,1
206060241,0,0,0,0,0,0
206060248,0,0,0,0,0,0
206060253,0,0,0,0,0,0
206060516,0,0,0,0,0,0
206060619,1,0,0,0,0,0
206060670,0,0,0,0,0,1
206060853,1,0,0,0,0,0
206060861,1,0,0,0,0,0
206060923,0,0,0,0,0,0
206060978,0,0,0,0,0,0
206060983,1,0,0,0,0,0
206060998,0,0,0,0,0,0
206061159,0,0,0,0,0,0
206061267,0,0,0,0,0,1
206061373,0,0,0,0,0,0
206061508,0,0,0,0,0,0
206061524,1,0,0,0,0,0
206061562,0,0,0,0,0,0
206061645,1,0,0,0,0,0
206061812,0,0,0,0,0,0
206061837,0,0,0,0,0,0
206062004,0,0,0,0,0,0
206062311,1,0,0,0,0,0
206062328,0,0,0,0,0,1
206062442,1,0,0,0,0,1
206062464,0,0,0,0,0,0
206062492,1,0,0,0,0,0
206062541,0,0,0,0,0,0
206062609,1,0,0,0,0,0
206062740,0,0,0,0,0,1
206062895,0,0,0,0,0,0
206062898,1,0,0,0,0,1
206062918,1,0,0,0,0,0
206063007,0,0,0,0,0,0
206063235,0,0,0,0,0,0
206063336,0,0,0,0,0,0
206063364,1,0,0,0,0,0
206063382,1,0,0,0,0,1
206063469,0,0,0,0,0,0
206063831,1,0,0,0,0,0
206063962,0,0,0,0,0,0
206064046,1,0,0,0,0,1
206064134,0,0,0,0,0,0
206064233,1,0,0,0,0,0
206064487,0,0,0,0,0,0
206064502,0,0,0,0,0,0
206064541,0,0,0,0,0,1
206064618,0,0,0,0,0,0
206064650,0,0,0,0,0,0
206064730,0,0,0,0,0,0
206064738,0,0,0,0,0,0
206064971,1,0,0,0,0,1
206065061,0,0,0,0,0,0
206065150,0,0,0,0,0,0
206065255,0,0,0,0,0,0
206065371,0,0,0,0,0,0
206065394,1,0,0,0,0,0
206065534,0,0,0,0,0,0
206065605,0,0,0,0,0,1
206065684,0,0,0,0,0,0
206065691,0,0,0,0,0,0
206065904,0,0,0,0,0,1
206065934,0,0,0,0,0,1
206066083,0,0,0,0,0,0
206066125,0,0,0,0,0,0
206066158,0,0,0,0,0,0
206066198,0,0,0,0,0,0
206066225,0,0,0,0,0,1
206066322,0,0,0,0,0,0
206066470,0,0,0,0,0,0
206066545,0,0,0,0,0,0
206066573,0,0,0,0,0,0
206066790,1,0,0,0,0,0
206066799,0,0,0,0,0,0
206066838,0,0,0,0,0,1
206066876,1,0,0,0,0,0
206066958,1,0,0,0,0,0
206066989,0,0,0,0,0,0
206066993,1,0,0,0,0,0
206066994,0,0,0,0,0,0
206067068,1,0,0,0,0,0
206067215,1,0,0,0,0,0
206067528,1,0,0,0,0,0
206067542,0,0,0,0,0,0
206067762,0,0,0,0,0,0
206067850,0,0,0,0,0,0
206067886,0,0,0,0,0,1
206067990,0,0,0,0,0,0
206068091,1,0,0,0,0,0
206068213,0,0,0,0,0,1
206068227,1,0,0,0,0,0
206068422,0,0,0,0,0,0
206068550,0,0,0,0,0,1
206068625,0,0,0,0,0,0
206068727,1,0,0,0,0,0
206068771,1,0,0,0,0,0
206068894,0,0,0,0,0,0
206068973,1,0,0,0,0,0
206069140,1,0,0,0,0,0
206069201,0,0,0,0,0,1
206069212,0,0,0,0,0,0
206069316,1,0,0,0,0,1
206069406,1,0,0,0,0,0
206069505,0,0,0,0,0,1
206069536,1,0,0,0,0,1
206069542,0,0,0,0,0,0
206069609,0,0,0,0,0,0
206069652,1,0,0,0,0,1
206069707,0,0,0,0,0,0
206069764,0,0,0,0,0,0
206069783,1,0,0,0,0,0
206069797,1,0,0,0,0,0
206069838,0,0,0,0,0,0
206070069,1,0,0,0,0,1
206070106,1,0,0,0,0,0
206070109,0,0,0,0,0,0
206070165,1,0,0,0,0,0
206070270,0,0,0,0,0,0
206070319,1,0,0,0,0,0
206070333,0,0,0,0,0,1
206070377,1,0,0,0,0,1
206070505,0,0,0,0,0,0
206070627,0,0,0,0,0,1
206070824,1,0,0,0,0,1
206070882,0,0,0,0,0,0
206070970,0,0,0,0,0,0
206071041,0,0,0,0,0,1
206071061,0,0,0,0,0,0
206071070,1,0,0,0,0,0
206071125,0,0,0,0,0,0
206071432,0,0,0,0,0,0
206071478,1,0,0,0,0,1
206071743,1,0,0,0,0,0
206071838,0,0,0,0,0,0
206071932,1,0,0,0,0,0
206071963,0,0,0,0,0,0
206072116,0,0,0,0,0,1
206072151,0,0,0,0,0,0
206072213,1,0,0,0,0,0
206072254,0,0,0,0,0,0
206072393,1,0,0,0,0,0
206072585,0,0,0,0,0,0
206072609,1,0,0,0,0,0
206072621,0,0,0,0,0,0
206072644,1,0,0,0,0,0
206072773,0,0,0,0,0,0
206072784,0,0,0,0,0,0
206072825,0,0,0,0,0,1
206073140,1,0,0,0,0,0
206073463,1,0,0,0,0,1
206073474,0,0,0,0,0,0
206073767,1,0,0,0,0,0
206073788,0,0,0,0,0,0
206073831,1,0,0,0,0,0
206073832,1,0,0,0,0,0
206073979,0,0,0,0,0,0
206074144,0,0,0,0,0,0
206074162,0,0,0,0,0,0
206074360,1,0,0,0,0,0
206074430,0,0,0,0,0,0
206074509,0,0,0,0,0,0
206074623,1,0,0,0,0,0
206074635,0,0,0,0,0,0
206074809,0,0,0,0,0,1
206075005,1,0,0,0,0,1
206075229,0,0,0,0,0,0
206075244,0,0,0,0,0,0
206075255,1,0,0,0,0,0
206075379,0,0,0,0,0,0
206075530,1,0,0,0,0,0
206075659,1,0,0,0,0,0
206075685,0,0,0,0,0,0
206075900,1,0,0,0,0,0
206076028,1,0,0,0,0,1
206076064,1,0,0,0,0,0
206076072,1,0,0,0,0,0
206076184,0,0,0,0,0,0
206076218,0,0,0,0,0,0
206076287,1,0,0,0,0,0
206076422,1,0,0,0,0,1
206076478,0,0,0,0,0,0
206076589,0,0,0,0,0,0
206076660,1,0,0,0,0,0
206076665,0,0,0,0,0,0
206076743,0,0,0,0,0,0
206076772,1,0,0,0,0,0
206076892,0,0,0,0,0,0
206076950,0,0,0,0,0,0
206076995,0,0,0,0,0,0
206077017,0,0,0,0,0,0
206077083,1,0,0,0,0,1
206077189,0,0,0,0,0,0
206077298,1,0,0,0,0,0
206077334,0,0,0,0,0,0
206077592,0,0,0,0,0,0
206077618,0,0,0,0,0,1
206077640,0,0,0,0,0,0
206077646,0,0,0,0,0,0
206077678,0,0,0,0,0,0
206077937,1,0,0,0,0,0
206078139,0,0,0,0,0,1
206078219,1,0,0,0,0,0
206078274,0,0,0,0,0,0
206078533,1,0,0,0,0,0
206078850,0,0,0,0,0,0
206078883,0,0,0,0,0,1
206079230,1,0,0,0,0,0
206079414,0,0,0,0,0,0
206079535,1,0,0,0,0,0
206079540,0,0,0,0,0,0
206079550,0,0,0,0,0,1
206079576,0,0,0,0,0,1
206079898,1,0,0,0,0,1
206079965,0,0,0,0,0,0
206079991,0,0,0,0,0,0
206080021,1,0,0,0,0,0
206080118,0,0,0,0,0,0
206080161,0,0,0,0,0,0
206080367,0,0,0,0,0,1
206080586,0,0,0,0,0,1
206080589,1,0,0,0,0,1
206080889,0,0,0,0,0,1
206081089,1,0,0,0,0,0
206081137,0,0,0,0,0,0
206081428,0,0,0,0,0,0
206081439,0,0,0,0,0,0
206081467,1,0,0,0,0,0
206081536,0,0,0,0,0,0
206081642,0,0,0,0,0,0
206081658,0,0,0,0,0,0
206081847,0,0,0,0,0,0
206082063,0,0,0,0,0,0
206082101,0,0,0,0,0,0
206082183,0,0,0,0,0,0
206082289,0,0,0,0,0,0
206082299,0,0,0,0,0,0
206082493,0,0,0,0,0,1
206082569,0,0,0,0,0,1
206082716,0,0,0,0,0,0
206082862,1,0,0,0,0,0
206083060,0,0,0,0,0,0
206083230,1,0,0,0,0,0
206083559,0,0,0,0,0,1
206083785,1,0,0,0,0,0
206084061,0,0,0,0,0,1
206084311,1,0,0,0,0,0
206084512,0,0,0,0,0,1
206084717,0,0,0,0,0,0
206084781,1,0,0,0,0,0
206084848,0,0,0,0,0,1
206084954,1,0,0,0,0,0
206084984,0,0,0,0,0,0
206085024,0,0,0,0,0,0
206085066,1,0,0,0,0,0
206085101,0,0,0,0,0,0
206085180,0,0,0,0,0,0
206085187,1,0,0,0,0,0
206085375,0,0,0,0,0,0
206085942,0,0,0,0,0,0
206086037,0,0,0,0,0,1
206086071,1,0,0,0,0,1
206086346,0,0,0,0,0,0
206086431,0,0,0,0,0,0
206086470,0,0,0,0,0,0
206086531,1,0,0,0,0,0
206086602,1,0,0,0,0,1
206086803,0,0,0,0,0,0
206086927,0,0,0,0,0,0
206087093,0,0,0,0,0,0
206087154,0,0,0,0,0,0
206087215,0,0,0,0,0,0
206087303,0,0,0,0,0,0
206087530,0,0,0,0,0,1
206087637,0,0,0,0,0,0
206087850,0,0,0,0,0,0
206087894,0,0,0,0,0,0
206088017,0,0,0,0,0,0
206088078,0,0,0,0,0,0
206088565,1,0,0,0,0,0
206088631,0,0,0,0,0,0
206088707,0,0,0,0,0,0
206088822,1,0,0,0,0,0
206088882,1,0,0,0,0,0
206088887,1,0,0,0,0,0
206089032,0,0,0,0,0,1
206089196,1,0,0,0,0,0
206089222,0,0,0,0,0,0
206089328,0,0,0,0,0,0
206089353,0,0,0,0,0,0
206089356,0,0,0,0,0,1
206089414,0,0,0,0,0,1
206089784,1,0,0,0,0,1
206089959,0,0,0,0,0,1
206090123,0,0,0,0,0,0
206090129,0,0,0,0,0,0
206090205,0,0,0,0,0,1
206090282,0,0,0,0,0,0
206090287,1,0,0,0,0,0
206090304,0,0,0,0,0,1
206090324,1,0,0,0,0,1
206090421,1,0,0,0,0,0
206090530,0,0,0,0,0,0
206090590,0,0,0,0,0,0
206090726,0,0,0,0,0,0
206090740,1,0,0,0,0,0
206090798,0,0,0,0,0,0
206090818,0,0,0,0,0,0
206090915,0,0,0,0,0,0
206090978,0,0,0,0,0,0
206091675,0,0,0,0,0,0
206091821,0,0,0,0,0,0
206091823,1,0,0,0,0,0
206091984,0,0,0,0,0,1
206092156,0,0,0,0,0,0
206092276,0,0,0,0,0,0
206092344,0,0,0,0,0,0
206092385,0,0,0,0,0,0
206092674,0,0,0,0,0,1
206092710,0,0,0,0,0,0
206092767,0,0,0,0,0,0
206092815,0,0,0,0,0,0
206093036,1,0,0,0,0,1
206093248,1,0,0,0,0,0
206093273,0,0,0,0,0,1
206093326,0,0,0,0,0,0
206093390,0,0,0,0,0,1
206093448,0,0,0,0,0,0
206093454,0,0,0,0,0,0
206093469,0,0,0,0,0,0
206093540,1,0,0,0,0,0
206093551,0,0,0,0,0,0
206093569,0,0,0,0,0,0
206093593,0,0,0,0,0,1
206093646,0,0,0,0,0,0
206093726,1,0,0,0,0,1
206093844,0,0,0,0,0,0
206093928,0,0,0,0,0,0
206093938,0,0,0,0,0,0
206093963,0,0,0,0,0,0
206094004,0,0,0,0,0,1
206094039,0,0,0,0,0,1
206094049,0,0,0,0,0,0
206094098,1,0,0,0,0,1
206094342,1,0,0,0,0,1
206094352,0,0,0,0,0,1
206094571,0,0,0,0,0,0
206094583,0,0,0,0,0,0
206095055,0,0,0,0,0,0
206095220,0,0,0,0,0,1
206095295,0,0,0,0,0,0
206095394,0,0,0,0,0,1
206095403,0,0,0,0,0,0
206095444,0,0,0,0,0,1
206095659,0,0,0,0,0,1
206095980,0,0,0,0,0,0
206096390,0,0,0,0,0,0
206096416,0,0,0,0,0,1
206096500,0,0,0,0,0,0
206096568,0,0,0,0,0,0
206096602,1,0,0,0,0,1
206096697,0,0,0,0,0,0
206097041,0,0,0,0,0,0
206097102,0,0,0,0,0,1
206097202,0,0,0,0,0,0
206097409,0,0,0,0,0,1
206097423,0,0,0,0,0,0
206097444,0,0,0,0,0,0
206097509,0,0,0,0,0,0
206097554,0,0,0,0,0,0
206097787,0,0,0,0,0,0
206097958,0,0,0,0,0,0
206098028,0,0,0,0,0,0
206098132,0,0,0,0,0,0
206098148,0,0,0,0,0,1
206098376,1,0,0,0,0,0
206098383,0,0,0,0,0,1
206098619,1,0,0,0,0,0
206098732,0,0,0,0,0,1
206098990,1,0,0,0,0,0
206099319,0,0,0,0,0,0
206099565,1,0,0,0,0,1
206099582,1,0,0,0,0,0
206099638,0,0,0,0,0,0
206099686,0,0,0,0,0,0
206099864,0,0,0,0,0,1
206099917,0,0,0,0,0,0
206100060,0,0,0,0,0,1
206100063,0,0,0,0,0,0
206100164,0,0,0,0,0,0
206100274,0,0,0,0,0,0
206100308,0,0,0,0,0,0
206100363,1,0,0,0,0,0
206100404,0,0,0,0,0,0
206100485,0,0,0,0,0,0
206100614,0,0,0,0,0,0
206100831,0,0,0,0,0,0
206100849,0,0,0,0,0,1
206100855,0,0,0,0,0,0
206100953,0,0,0,0,0,0
206101051,0,0,0,0,0,1
206101104,0,0,0,0,0,0
206101105,0,0,0,0,0,0
206101127,0,0,0,0,0,0
206101182,1,0,0,0,0,0
206101187,0,0,0,0,0,1
206101243,1,0,0,0,0,0
206101304,0,0,0,0,0,0
206101493,0,0,0,0,0,0
206101863,0,0,0,0,0,0
206101902,0,0,0,0,0,0
206102006,1,0,0,0,0,0
206102011,0,0,0,0,0,0
206102047,0,0,0,0,0,0
206102116,0,0,0,0,0,0
206102397,0,0,0,0,0,0
206102411,0,0,0,0,0,0
206102476,0,0,0,0,0,0
206102523,0,0,0,0,0,1
206102716,0,0,0,0,0,0
206102910,0,0,0,0,0,0
206103033,1,0,0,0,0,0
206103224,0,0,0,0,0,0
206103225,0,0,0,0,0,0
206103237,1,0,0,0,0,0
206103524,0,0,0,0,0,0
206103890,0,0,0,0,0,1
206103980,0,0,0,0,0,1
206104035,0,0,0,0,0,0
206104172,0,0,0,0,0,0
206104423,0,0,0,0,0,0
206104448,0,0,0,0,0,0
206104452,0,0,0,0,0,0
206104478,0,0,0,0,0,0
206104535,0,0,0,0,0,0
206104637,0,0,0,0,0,0
206104789,0,0,0,0,0,0
206104887,0,0,0,0,0,0
206105055,0,0,0,0,0,0
206105068,0,0,0,0,0,0
206105101,0,0,0,0,0,0
206105269,0,0,0,0,0,0
206105348,0,0,0,0,0,0
206105485,0,0,0,0,0,0
206105548,1,0,0,0,0,0
206105589,1,0,0,0,0,0
206105679,1,0,0,0,0,0
206105701,0,0,0,0,0,0
206105777,0,0,0,0,0,0
206105787,0,0,0,0,0,0
206105990,0,0,0,0,0,0
206106173,0,0,0,0,0,1
206106206,0,0,0,0,0,0
206106316,0,0,0,0,0,1
206107032,0,0,0,0,0,0
206107113,0,0,0,0,0,0
206107194,0,0,0,0,0,1
206107225,0,0,0,0,0,1
206107362,0,0,0,0,0,0
206107394,0,0,0,0,0,0
206107651,0,0,0,0,0,0
206107668,0,0,0,0,0,0
206107710,0,0,0,0,0,0
206107716,0,0,0,0,0,0
206108017,0,0,0,0,0,1
206108068,0,0,0,0,0,0
206108083,0,0,0,0,0,0
206108141,0,0,0,0,0,1
206108177,0,0,0,0,0,0
206108434,0,0,0,0,0,1
206108556,0,0,0,0,0,0
206108661,0,0,0,0,0,0
206108760,0,0,0,0,0,0
206108895,0,0,0,0,0,1
206109113,0,0,0,0,0,0
206109248,0,0,0,0,0,1
206109324,0,0,0,0,0,1
206109343,0,0,0,0,0,0
206109504,0,0,0,0,0,0
206109972,0,0,0,0,0,0
206110133,0,0,0,0,0,0
206110380,0,0,0,0,0,0
206110389,0,0,0,0,0,0
206110405,0,0,0,0,0,0
206110479,0,0,0,0,0,0
206110644,0,0,0,0,0,0
206110760,0,0,0,0,0,1
206110889,0,0,0,0,0,0
206111153,0,0,0,0,0,1
206111212,0,0,0,0,0,0
206111284,0,0,0,0,0,0
206111503,0,0,0,0,0,0
206111519,0,0,0,0,0,0
206111552,0,0,0,0,0,1
206111692,0,0,0,0,0,1
206112361,0,0,0,0,0,1
206112685,0,0,0,0,0,0
206112690,0,0,0,0,0,0
206112764,0,0,0,0,0,0
206113015,0,0,0,0,0,1
206113085,0,0,0,0,0,0
206113123,0,0,0,0,0,1
206113294,0,0,0,0,0,0
206113381,0,0,0,0,0,0
206113461,0,0,0,0,0,0
206113475,0,0,0,0,0,1
206113480,0,0,0,0,0,0
206113518,0,0,0,0,0,0
206113596,0,0,0,0,0,0
206113626,0,0,0,0,0,1
206113638,0,0,0,0,0,0
206113997,0,0,0,0,0,1
206114068,0,0,0,0,0,0
206114071,0,0,0,0,0,0
206114532,0,0,0,0,0,1
206114630,0,0,0,0,0,1
206114674,0,0,0,0,0,0
206114954,0,0,0,0,0,0
206114989,0,0,0,0,0,1
206115210,0,0,0,0,0,1
206115337,0,0,0,0,0,1
206115541,0,0,0,0,0,0
206115598,0,0,0,0,0,0
206115603,0,0,0,0,0,0
206115717,0,0,0,0,0,0
206115828,0,0,0,0,0,0
206115873,0,0,0,0,0,0
206115879,0,0,0,0,0,0
206115887,0,0,0,0,0,0
206115954,0,0,0,0,0,0
206116157,0,0,0,0,0,1
206116176,0,0,0,0,0,1
206116318,0,0,0,0,0,0
206116340,0,0,0,0,0,1
206116444,0,0,0,0,0,0
206116718,0,0,0,0,0,1
206116877,0,0,0,0,0,0
206117029,0,0,0,0,0,0
206117078,0,0,0,0,0,0
206117157,0,0,0,0,0,0
206117168,0,0,0,0,0,1
206117244,0,0,0,0,0,0
206117310,0,0,0,0,0,0
206117347,0,0,0,0,0,1
206117448,0,0,0,0,0,0
206117473,0,0,0,0,0,0
206117547,0,0,0,0,0,0
206117696,0,0,0,0,0,0
206118004,0,0,0,0,0,0
206118090,0,0,0,0,0,0
206118155,0,0,0,0,0,0
206118202,0,0,0,0,0,0
206118294,0,0,0,0,0,1
206118387,0,0,0,0,0,0
206118427,0,0,0,0,0,0
206118504,0,0,0,0,0,1
206118565,0,0,0,0,0,0
206118600,0,0,0,0,0,0
206118982,0,0,0,0,0,0
206119025,0,0,0,0,0,0
206119095,0,0,0,0,0,0
206119217,0,0,0,0,0,0
206119238,0,0,0,0,0,0
206119371,0,0,0,0,0,0
206119730,0,0,0,0,0,0
206119892,0,0,0,0,0,0
206119935,0,0,0,0,0,0
206119939,0,0,0,0,0,1
206120254,0,0,0,0,0,0
206120393,0,0,0,0,0,1
206120536,0,0,0,0,0,0
206120837,0,0,0,0,0,0
206120999,0,0,0,0,0,0
206121131,0,0,0,0,0,0
206121146,0,0,0,0,0,0
206121174,0,0,0,0,0,0
206121274,0,0,0,0,0,0
206121277,0,0,0,0,0,0
206121378,0,0,0,0,0,0
206121465,0,0,0,0,0,0
206121623,0,0,0,0,0,0
206122017,0,0,0,0,0,0
206122257,0,0,0,0,0,0
206122553,0,0,0,0,0,0
206122659,0,0,0,0,0,0
206122829,0,0,0,0,0,0
206122917,0,0,0,0,0,0
206123256,0,0,0,0,0,0
206123368,0,0,0,0,0,0
206123645,0,0,0,0,0,0
206123736,0,0,0,0,0,0
206123865,0,0,0,0,0,0
206123969,0,0,0,0,0,0
206124395,0,0,0,0,0,1
206124750,0,0,0,0,0,0
206124763,0,0,0,0,0,0
206124932,0,0,0,0,0,0
206125100,0,0,0,0,0,0
206125141,0,0,0,0,0,0
206125325,0,0,0,0,0,0
206125501,0,0,0,0,0,0
206125599,0,0,0,0,0,0
206125783,0,0,0,0,0,0
206125788,0,0,0,0,0,0
206125851,0,0,0,0,0,0
206126007,0,0,0,0,0,0
206126013,0,0,0,0,0,0
206126138,0,0,0,0,0,0
206126202,0,0,0,0,0,0
206126361,0,0,0,0,0,0
206126395,0,0,0,0,0,0
206126569,0,0,0,0,0,0
206126654,0,0,0,0,0,0
206126667,0,0,0,0,0,0
206126685,0,0,0,0,0,0
206126692,0,0,0,0,0,0
206127103,0,0,0,0,0,0
206127144,0,0,0,0,0,0
206127483,0,0,0,0,0,0
206127655,0,0,0,0,0,0
206127819,0,0,0,0,0,0
206127958,0,0,0,0,0,0
206128069,0,0,0,0,0,1
206128714,0,0,0,0,0,0
206128849,0,0,0,0,0,0
206129602,0,0,0,0,0,1
206129709,0,0,0,0,0,0
206129788,0,0,0,0,0,0
206130242,0,0,0,0,0,0
206130353,0,0,0,0,0,0
206130383,0,0,0,0,0,0
206130592,0,0,0,0,0,0
206131091,0,0,0,0,0,0
206131093,0,0,0,0,0,1
206131197,0,0,0,0,0,0
206131217,0,0,0,0,0,0
206131782,0,0,0,0,0,0
206131975,0,0,0,0,0,0
206131981,0,0,0,0,0,0
206132041,0,0,0,0,0,0
206132490,0,0,0,0,0,0
206132581,0,0,0,0,0,0
206132739,0,0,0,0,0,0
206132828,0,0,0,0,0,0
206133054,0,0,0,0,0,1
206133199,0,0,0,0,0,1
206133284,0,0,0,0,0,0
206133309,0,0,0,0,0,1
206133660,0,0,0,0,0,0
206133963,0,0,0,0,0,0
206134045,0,0,0,0,0,0
206134292,0,0,0,0,0,0
206134463,0,0,0,0,0,0
206134598,0,0,0,0,0,0
206134716,0,0,0,0,0,0
206134946,0,0,0,0,0,1
206135129,0,0,0,0,0,1
206135267,0,0,0,0,0,0
206135422,0,0,0,0,0,0
206135505,0,0,0,0,0,0
206135514,0,0,0,0,0,0
206135556,0,0,0,0,0,0
206135606,0,0,0,0,0,0
206135638,0,0,0,0,0,1
206135669,0,0,0,0,0,1
206135682,0,0,0,0,0,0
206135809,0,0,0,0,0,0
206135852,0,0,0,0,0,0
206135866,0,0,0,0,0,0
206136153,0,0,0,0,0,0
206136293,0,0,0,0,0,0
206136325,0,0,0,0,0,1
206136559,0,0,0,0,0,0
206136565,0,0,0,0,0,0
206136576,0,0,0,0,0,0
206136932,0,0,0,0,0,1
206137085,0,0,0,0,0,0
206137391,0,0,0,0,0,0
206137600,0,0,0,0,0,0
206137757,0,0,0,0,0,1
206137786,0,0,0,0,0,1
206137906,0,0,0,0,0,0
206137912,0,0,0,0,0,0
206138051,0,0,0,0,0,1
206138101,0,0,0,0,0,0
206138182,0,0,0,0,0,0
206138239,0,0,0,0,0,0
206138477,0,0,0,0,0,1
206138645,0,0,0,0,0,0
206138673,0,0,0,0,0,0
206139021,0,0,0,0,0,0
206139053,0,0,0,0,0,0
206139108,0,0,0,0,0,0
206139304,0,0,0,0,0,0
206139326,0,0,0,0,0,0
206139372,0,0,0,0,0,0
206139567,0,0,0,0,0,0
206139820,0,0,0,0,0,0
206140016,0,0,0,0,0,0
206140019,0,0,0,0,0,0
206140076,0,0,0,0,0,1
206140144,0,0,0,0,0,1
206140197,0,0,0,0,0,1
206140651,0,0,0,0,0,0
206140798,0,0,0,0,0,0
206140818,0,0,0,0,0,0
206140921,0,0,0,0,0,0
206140926,0,0,0,0,0,0
206140993,0,0,0,0,0,0
206141018,0,0,0,0,0,0
206141687,0,0,0,0,0,0
206141750,0,0,0,0,0,0
206141844,0,0,0,0,0,0
206141848,0,0,0,0,0,0
206141871,0,0,0,0,0,0
206141983,0,0,0,0,0,0
206142097,0,0,0,0,0,0
206142277,0,0,0,0,0,1
206142715,0,0,0,0,0,0
206142903,0,0,0,0,0,1
206143170,0,0,0,0,0,0
206143176,0,0,0,0,0,0
206143264,0,0,0,0,0,0
206143470,0,0,0,0,0,0
206143580,0,0,0,0,0,0
206143948,0,0,0,0,0,0
206144053,0,0,0,0,0,0
206144283,0,0,0,0,0,0
206144392,0,0,0,0,0,0
206144562,0,0,0,0,0,0
206144635,0,0,0,0,0,0
206144700,0,0,0,0,0,0
206144769,0,0,0,0,0,1
206144925,0,0,0,0,0,0
206144936,0,0,0,0,0,0
206144956,0,0,0,0,0,1
206145165,0,0,0,0,0,0
206145206,0,0,0,0,0,0
206145652,0,0,0,0,0,0
206145766,0,0,0,0,0,0
206145844,0,0,0,0,0,0
206145935,0,0,0,0,0,0
206146049,0,0,0,0,0,0
206146130,0,0,0,0,0,0
206146153,0,0,0,0,0,1
206146161,0,0,0,0,0,0
206146170,0,0,0,0,0,0
206146427,0,0,0,0,0,0
206146466,0,0,0,0,0,0
206146628,0,0,0,0,0,0
206146645,0,0,0,0,0,0
206146648,0,0,0,0,0,0
206146775,0,0,0,0,0,0
206147129,0,0,0,0,0,0
206147873,0,0,0,0,0,0
206147901,0,0,0,0,0,0
206147924,0,0,0,0,0,0
206148135,0,0,0,0,0,1
206148291,0,0,0,0,0,0
206148445,0,0,0,0,0,0
206148578,0,0,0,0,0,1
206148618,0,0,0,0,0,0
206149238,0,0,0,0,0,0
206149249,0,0,0,0,0,1
206149251,0,0,0,0,0,0
206149522,0,0,0,0,0,0
206149741,0,0,0,0,0,0
206149762,0,0,0,0,0,1
206149777,0,0,0,0,0,0
206149857,0,0,0,0,0,0
206150303,0,0,0,0,0,0
206150479,0,0,0,0,0,0
206150505,0,0,0,0,0,0
206150619,0,0,0,0,0,0
206150694,0,0,0,0,0,0
206150854,0,0,0,0,0,0
206150881,0,0,0,0,0,0
206150968,0,0,0,0,0,0
206150972,0,0,0,0,0,1
206151278,0,0,0,0,0,0
206151353,0,0,0,0,0,0
206151367,0,0,0,0,0,0
206151388,0,0,0,0,0,0
206151661,0,0,0,0,0,0
206151680,0,0,0,0,0,0
206151799,0,0,0,0,0,0
206151867,0,0,0,0,0,0
206152000,0,0,0,0,0,0
206152090,0,0,0,0,0,0
206152220,0,0,0,0,0,0
206152344,0,0,0,0,0,0
206152399,0,0,0,0,0,0
206152412,0,0,0,0,0,1
206152516,0,0,0,0,0,0
206152568,0,0,0,0,0,0
206152573,0,0,0,0,0,0
206152590,0,0,0,0,0,0
206152602,0,0,0,0,0,0
206152627,0,0,0,0,0,0
206152657,0,0,0,0,0,0
206152684,0,0,0,0,0,0
206152731,0,0,0,0,0,0
206152824,0,0,0,0,0,0
206153306,0,0,0,0,0,0
206153489,0,0,0,0,0,1
206153684,0,0,0,0,0,1
206153754,0,0,0,0,0,0
206153993,0,0,0,0,0,0
206154227,0,0,0,0,0,1
206154564,0,0,0,0,0,0
206154848,0,0,0,0,0,0
206154875,0,0,0,0,0,1
206154883,0,0,0,0,0,0
206155016,0,0,0,0,0,0
206155088,0,0,0,0,0,0
206155119,0,0,0,0,0,0
206155131,0,0,0,0,0,0
206155196,0,0,0,0,0,0
206155228,0,0,0,0,0,0
206155723,0,0,0,0,0,0
206155737,0,0,0,0,0,0
206155809,0,0,0,0,0,0
206156025,0,0,0,0,0,0
206156147,0,0,0,0,0,1
206156731,0,0,0,0,0,0
206156992,0,0,0,0,0,0
206157009,0,0,0,0,0,1
206157097,0,0,0,0,0,1
206157207,0,0,0,0,0,1
206157281,0,0,0,0,0,0
206157410,0,0,0,0,0,0
206157503,0,0,0,0,0,0
206157665,0,0,0,0,0,0
206157908,0,0,0,0,0,0
206158099,0,0,0,0,0,0
206158133,0,0,0,0,0,0
206158165,0,0,0,0,0,0
206158504,0,0,0,0,0,0
206158512,0,0,0,0,0,0
206158574,0,0,0,0,0,0
206158582,0,0,0,0,0,1
206158862,0,0,0,0,0,0
206158952,0,0,0,0,0,0
206159025,0,0,0,0,0,0
206159062,0,0,0,0,0,1
206159239,0,0,0,0,0,0
206159502,0,0,0,0,0,0
206159565,0,0,0,0,0,0
206159629,0,0,0,0,0,0
206160049,0,0,0,0,0,0
206160050,0,0,0,0,0,1
206160171,0,0,0,0,0,0
206160500,0,0,0,0,0,0
206160748,0,0,0,0,0,1
206160898,0,0,0,0,0,0
206161164,0,0,0,0,0,0
206161603,0,0,0,0,0,0
206161641,0,0,0,0,0,0
206161655,0,0,0,0,0,1
206161657,0,0,0,0,0,0
206161767,0,0,0,0,0,0
206161850,0,0,0,0,0,0
206161851,0,0,0,0,0,0
206161961,0,0,0,0,0,0
206162305,0,0,0,0,0,0
206162361,0,0,0,0,0,1
206162441,0,0,0,0,0,0
206162602,0,0,0,0,0,0
206162636,0,0,0,0,0,1
206162784,0,0,0,0,0,0
206163030,0,0,0,0,0,1
206163143,0,0,0,0,0,0
206163196,0,0,0,0,0,0
206163291,0,0,0,0,0,1
206163431,0,0,0,0,0,0
206163809,0,0,0,0,0,0
206164339,0,0,0,0,0,0
206164364,0,0,0,0,0,0
206164390,0,0,0,0,0,0
206164458,0,0,0,0,0,0
206164682,0,0,0,0,0,0
206165135,0,0,0,0,0,0
206165269,0,0,0,0,0,0
206165313,0,0,0,0,0,0
206165435,0,0,0,0,0,0
206165773,0,0,0,0,0,0
206165791,0,0,0,0,0,0
206165963,0,0,0,0,0,0
206166092,0,0,0,0,0,0
206166135,0,0,0,0,0,1
206166140,0,0,0,0,0,1
206166172,0,0,0,0,0,1
206166179,0,0,0,0,0,1
206166240,0,0,0,0,0,1
206166396,0,0,0,0,0,1
206166512,0,0,0,0,0,0
206166885,0,0,0,0,0,0
206167197,0,0,0,0,0,0
206167417,0,0,0,0,0,1
206167539,0,0,0,0,0,0
206167611,0,0,0,0,0,0
206167822,0,0,0,0,0,1
206167853,0,0,0,0,0,0
206167986,0,0,0,0,0,0
206168035,0,0,0,0,0,0
206168174,0,0,0,0,0,0
206168247,0,0,0,0,0,0
206168313,0,0,0,0,0,0
206168656,0,0,0,0,0,1
206168973,0,0,0,0,0,0
206169145,0,0,0,0,0,1
206169362,0,0,0,0,0,1
206169421,0,0,0,0,0,0
206169660,0,0,0,0,0,1
206170411,0,0,0,0,0,0
206170509,0,0,0,0,0,1
206170674,0,0,0,0,0,0
206171104,0,0,0,0,0,1
206171213,0,0,0,0,0,0
206171302,0,0,0,0,0,0
206171516,0,0,0,0,0,0
206171548,0,0,0,0,0,0
206171921,0,0,0,0,0,0
206172056,0,0,0,0,0,0
206172067,0,0,0,0,0,1
206172086,0,0,0,0,0,0
206172110,0,0,0,0,0,0
206172154,0,0,0,0,0,0
206172157,0,0,0,0,0,0
206172286,0,0,0,0,0,0
206172561,0,0,0,0,0,0
206172775,0,0,0,0,0,0
206172842,0,0,0,0,0,1
206173180,0,0,0,0,0,0
206173196,0,0,0,0,0,0
206173212,0,0,0,0,0,0
206173426,0,0,0,0,0,0
206173742,0,0,0,0,0,1
206173795,0,0,0,0,0,1
206173841,0,0,0,0,0,0
206174216,0,0,0,0,0,1
206174301,0,0,0,0,0,0
206174325,0,0,0,0,0,1
206174388,0,0,0,0,0,0
206174459,0,0,0,0,0,0
206174460,0,0,0,0,0,1
206174674,0,0,0,0,0,0
206174892,0,0,0,0,0,0
206175267,0,0,0,0,0,0
206175457,0,0,0,0,0,0
206175747,0,0,0,0,0,0
206175873,0,0,0,0,0,0
206176188,0,0,0,0,0,0
206176441,0,0,0,0,0,0
206177144,0,0,0,0,0,0
206177943,0,0,0,0,0,0
206178001,0,0,0,0,0,1
206178099,0,0,0,0,0,0
206178112,0,0,0,0,0,1
206178402,0,0,0,0,0,1
206178474,0,0,0,0,0,0
206178887,0,0,0,0,0,0
206179101,0,0,0,0,0,1
206179276,0,0,0,0,0,0
206179360,0,0,0,0,0,1
206179455,0,0,0,0,0,0
206179462,0,0,0,0,0,1
206179534,0,0,0,0,0,1
206179959,0,0,0,0,0,0
206180021,0,0,0,0,0,0
206180048,0,0,0,0,0,0
206180082,0,0,0,0,0,0
206180180,0,0,0,0,0,0
206180234,0,0,0,0,0,0
206180299,0,0,0,0,0,0
206180333,0,0,0,0,0,1
206180387,0,0,0,0,0,1
206180414,0,0,0,0,0,0
206180740,0,0,0,0,0,0
206181165,0,0,0,0,0,0
206181182,0,0,0,0,0,0
206181550,0,0,0,0,0,0
206181769,0,0,0,0,0,0
206181791,0,0,0,0,0,0
206181831,0,0,0,0,0,1
206182080,0,0,0,0,0,0
206182272,0,0,0,0,0,0
206182393,0,0,0,0,0,1
206182398,0,0,0,0,0,0
206182500,0,0,0,0,0,0
206182640,0,0,0,0,0,1
206182682,0,0,0,0,0,0
206182844,0,0,0,0,0,0
206182846,0,0,0,0,0,1
206183134,0,0,0,0,0,0
206183265,0,0,0,0,0,0
206183425,0,0,0,0,0,0
206183448,0,0,0,0,0,0
206184168,0,0,0,0,0,0
206184270,0,0,0,0,0,0
206184370,0,0,0,0,0,0
206184395,0,0,0,0,0,0
206184409,0,0,0,0,0,1
206184436,0,0,0,0,0,0
206184489,0,0,0,0,0,1
206184577,0,0,0,0,0,0
206184581,0,0,0,0,0,0
206184748,0,0,0,0,0,0
206185326,0,0,0,0,0,1
206185329,0,0,0,0,0,0
206185535,0,0,0,0,0,0
206185854,0,0,0,0,0,1
206185893,0,0,0,0,0,1
206185988,0,0,0,0,0,0
206186141,0,0,0,0,0,0
206186251,0,0,0,0,0,0
206186399,0,0,0,0,0,0
206186474,0,0,0,0,0,0
206186475,0,0,0,0,0,0
206186538,0,0,0,0,0,0
206186604,0,0,0,0,0,1
206186831,0,0,0,0,0,0
206186958,0,0,0,0,0,0
206187003,0,0,0,0,0,0
206187222,0,0,0,0,0,0
206187398,0,0,0,0,0,0
206187611,0,0,0,0,0,0
206187614,0,0,0,0,0,1
206187897,0,0,0,0,0,0
206187923,0,0,0,0,0,1
206187963,0,0,0,0,0,0
206188064,0,0,0,0,0,0
206188149,0,0,0,0,0,0
206188223,0,0,0,0,0,0
206188296,0,0,0,0,0,1
206188343,0,0,0,0,0,0
206188390,0,0,0,0,0,0
206188504,0,0,0,0,0,0
206188891,0,0,0,0,0,0
206188964,0,0,0,0,0,0
206189177,0,0,0,0,0,0
206189530,0,0,0,0,0,1
206189690,0,0,0,0,0,0
206189732,0,0,0,0,0,0
206189853,0,0,0,0,0,0
206190111,0,0,0,0,0,0
206190193,0,0,0,0,0,0
206190220,0,0,0,0,0,0
206190496,0,0,0,0,0,0
206190527,0,0,0,0,0,0
206190551,0,0,0,0,0,0
206190588,0,0,0,0,0,1
206190674,0,0,0,0,0,0
206190709,0,0,0,0,0,0
206190769,0,0,0,0,0,1
206190871,0,0,0,0,0,0
206190879,0,0,0,0,0,0
206191003,0,0,0,0,0,0
206191057,0,0,0,0,0,1
206191224,0,0,0,0,0,0
206191788,0,0,0,0,0,0
206191817,0,0,0,0,0,0
206191836,0,0,0,0,0,0
206192022,0,0,0,0,0,0
206192094,0,0,0,0,0,0
206192124,0,0,0,0,0,1
206192711,0,0,0,0,0,0
206192813,0,0,0,0,0,0
206192826,0,0,0,0,0,0
206192958,0,0,0,0,0,0
206193044,0,0,0,0,0,0
206193167,0,0,0,0,0,0
206193328,0,0,0,0,0,1
206193447,0,0,0,0,0,1
206193765,0,0,0,0,0,1
206194013,0,0,0,0,0,1
206194170,0,0,0,0,0,1
206194236,0,0,0,0,0,1
206194285,0,0,0,0,0,1
206194314,0,0,0,0,0,1
206194598,0,0,0,0,0,1
206194954,1,0,0,0,0,0
206195305,0,0,0,0,0,0
206195500,0,0,0,0,0,0
206195829,0,0,0,0,0,1
206196194,0,0,0,0,0,0
206196295,0,0,0,0,0,0
206196455,0,0,0,0,0,1
206196533,0,0,0,0,0,0
206196672,0,0,0,0,0,0
206196938,1,0,0,0,0,0
206197086,0,0,0,0,0,1
206197260,0,0,0,0,0,0
206197546,0,0,0,0,0,0
206197844,0,0,0,0,0,0
206198028,0,0,0,0,0,1
206198165,0,0,0,0,0,0
206198311,0,0,0,0,0,1
206198444,0,0,0,0,0,0
206198615,0,0,0,0,0,0
206198746,0,0,0,0,0,1
206198840,0,0,0,0,0,1
206198957,0,0,0,0,0,0
206199135,0,0,0,0,0,1
206199203,0,0,0,0,0,1
206199306,0,0,0,0,0,0
206199390,0,0,0,0,0,1
206199568,0,0,0,0,0,0
206199600,0,0,0,0,0,0
206199798,0,0,0,0,0,1
206199912,0,0,0,0,0,0
206199977,0,0,0,0,0,0
206200121,0,0,0,0,0,0
206200517,0,0,0,0,0,0
206200805,0,0,0,0,0,0
206200994,0,0,0,0,0,0
206201021,0,0,0,0,0,0
206201030,0,0,0,0,0,1
206201077,0,0,0,0,0,0
206201272,0,0,0,0,0,0
206201523,0,0,0,0,0,0
206201551,0,0,0,0,0,0
206201610,0,0,0,0,0,0
206201642,0,0,0,0,0,0
206201957,0,0,0,0,0,0
206201961,0,0,0,0,0,0
206202039,0,0,0,0,0,0
206202136,0,0,0,0,0,0
206202171,1,0,0,0,0,0
206202634,0,0,0,0,0,0
206202651,0,0,0,0,0,0
206203624,0,0,0,0,0,0
206203650,0,0,0,0,0,1
206203761,0,0,0,0,0,0
206203908,0,0,0,0,0,0
206204021,0,0,0,0,0,1
206204197,0,0,0,0,0,0
206204421,0,0,0,0,0,0
206204771,0,0,0,0,0,1
206204884,0,0,0,0,0,0
206204985,0,0,0,0,0,0
206205027,0,0,0,0,0,0
206205260,0,0,0,0,0,1
206205349,0,0,0,0,0,0
206205500,0,0,0,0,0,1
206205525,0,0,0,0,0,0
206205710,0,0,0,0,0,0
206205750,0,0,0,0,0,0
206205937,0,0,0,0,0,1
206206111,0,0,0,0,0,0
206206291,0,0,0,0,0,0
206206405,0,0,0,0,0,0
206206407,0,0,0,0,0,0
206206480,0,0,0,0,0,1
206206667,1,0,0,0,0,0
206206750,0,0,0,0,0,0
206206863,0,0,0,0,0,1
206206994,0,0,0,0,0,0
206207342,0,0,0,0,0,0
206207355,0,0,0,0,0,0
206207543,1,0,0,0,0,0
206207547,0,0,0,0,0,0
206207623,0,0,0,0,0,1
206207762,0,0,0,0,0,0
206207838,0,0,0,0,0,0
206207892,0,0,0,0,0,0
206207908,0,0,0,0,0,0
206208055,0,0,0,0,0,0
206208153,1,0,0,0,0,0
206208318,0,0,0,0,0,0
206208361,0,0,0,0,0,1
206208370,0,0,0,0,0,0
206208597,0,0,0,0,0,0
206208654,0,0,0,0,0,0
206208706,0,0,0,0,0,0
206208760,0,0,0,0,0,0
206208968,0,0,0,0,0,0
206209006,0,0,0,0,0,1
206209135,1,0,0,0,0,0
206209519,0,0,0,0,0,0
206209609,0,0,0,0,0,0
206209610,0,0,0,0,0,0
206209858,0,0,0,0,0,0
206209914,0,0,0,0,0,0
206210253,0,0,0,0,0,0
206210256,0,0,0,0,0,0
206210349,0,0,0,0,0,0
206210647,0,0,0,0,0,1
206210800,1,0,0,0,0,1
206210904,0,0,0,0,0,0
206211069,0,0,0,0,0,0
206211295,0,0,0,0,0,0
206211611,0,0,0,0,0,1
206211639,0,0,0,0,0,0
206211718,0,0,0,0,0,0
206211780,0,0,0,0,0,0
206211827,0,0,0,0,0,0
206211955,0,0,0,0,0,1
206212160,0,0,0,0,0,0
206212262,0,0,0,0,0,0
206212324,0,0,0,0,0,0
206212429,0,0,0,0,0,0
206212524,0,0,0,0,0,0
206212803,0,0,0,0,0,0
206212972,0,0,0,0,0,0
206213082,0,0,0,0,0,0
206213712,0,0,0,0,0,0
206214134,0,0,0,0,0,0
206214660,0,0,0,0,0,0
206214816,1,0,0,0,0,0
206214910,0,0,0,0,0,1
206215181,0,0,0,0,0,0
206215195,0,0,0,0,0,1
206215302,0,0,0,0,0,0
206215357,1,0,0,0,0,0
206216053,0,0,0,0,0,0
206216343,0,0,0,0,0,0
206216351,0,0,0,0,0,0
206216532,0,0,0,0,0,0
206216868,0,0,0,0,0,0
206216893,0,0,0,0,0,0
206216934,0,0,0,0,0,0
206216971,0,0,0,0,0,0
206217057,0,0,0,0,0,0
206217184,0,0,0,0,0,0
206217987,0,0,0,0,0,1
206218105,0,0,0,0,0,0
206218229,0,0,0,0,0,0
206218236,0,0,0,0,0,0
206218334,0,0,0,0,0,0
206218399,0,0,0,0,0,0
206218497,0,0,0,0,0,0
206218744,0,0,0,0,0,0
206218749,0,0,0,0,0,0
206218782,1,0,0,0,0,0
206218807,0,0,0,0,0,0
206218976,0,0,0,0,0,0
206219247,0,0,0,0,0,1
206219402,0,0,0,0,0,0
206219558,1,0,0,0,0,0
206219989,0,0,0,0,0,1
206220686,1,0,0,0,0,0
206220739,1,0,0,0,0,0
206220826,0,0,0,0,0,0
206220935,0,0,0,0,0,1
206220989,0,0,0,0,0,0
206221024,0,0,0,0,0,0
206221118,0,0,0,0,0,0
206221543,0,0,0,0,0,1
206221568,1,0,0,0,0,0
206221832,0,0,0,0,0,0
206221923,0,0,0,0,0,0
206221999,0,0,0,0,0,0
206222015,0,0,0,0,0,1
206222045,0,0,0,0,0,0
206222051,0,0,0,0,0,1
206222516,0,0,0,0,0,0
206222550,0,0,0,0,0,0
206222584,0,0,0,0,0,0
206222597,0,0,0,0,0,0
206222628,0,0,0,0,0,0
206223000,0,0,0,0,0,1
206223262,0,0,0,0,0,1
206223294,0,0,0,0,0,0
206223374,0,0,0,0,0,0
206223471,0,0,0,0,0,1
206223511,1,0,0,0,0,0
206223735,0,0,0,0,0,0
206224070,0,0,0,0,0,1
206224320,0,0,0,0,0,0
206224350,0,0,0,0,0,0
206224769,0,0,0,0,0,0
206224828,0,0,0,0,0,0
206225131,0,0,0,0,0,1
206225132,1,0,0,0,0,0
206225478,0,0,0,0,0,1
206225890,0,0,0,0,0,0
206226207,0,0,0,0,0,1
206226228,0,0,0,0,0,0
206226441,0,0,0,0,0,1
206226463,0,0,0,0,0,0
206226658,0,0,0,0,0,0
206226675,0,0,0,0,0,0
206227040,0,0,0,0,0,0
206227232,1,0,0,0,0,0
206227713,0,0,0,0,0,0
206227743,0,0,0,0,0,0
206228430,0,0,0,0,0,0
206228726,0,0,0,0,0,0
206228897,0,0,0,0,0,1
206228970,0,0,0,0,0,0
206228994,0,0,0,0,0,0
206229074,0,0,0,0,0,0
206229087,0,0,0,0,0,0
206229964,0,0,0,0,0,0
206229976,0,0,0,0,0,1
206230314,1,0,0,0,0,0
206230735,0,0,0,0,0,1
206230774,1,0,0,0,0,0
206231270,0,0,0,0,0,0
206231355,0,0,0,0,0,0
206231488,0,0,0,0,0,0
206232486,1,0,0,0,0,0
206232509,0,0,0,0,0,0
206232512,0,0,0,0,0,0
206232558,1,0,0,0,0,0
206232694,0,0,0,0,0,0
206232745,0,0,0,0,0,0
206233331,0,0,0,0,0,1
206233425,0,0,0,0,0,1
206233738,1,0,0,0,0,0
206233778,0,0,0,0,0,0
206233837,0,0,0,0,0,0
206234045,0,0,0,0,0,1
206234070,0,0,0,0,0,0
206234071,0,0,0,0,0,1
206234240,1,0,0,0,0,0
206234446,1,0,0,0,0,0
206234641,1,0,0,0,0,0
206235278,0,0,0,0,0,0
206235882,0,0,0,0,0,0
206235886,0,0,0,0,0,0
206235989,0,0,0,0,0,1
206236189,1,0,0,0,0,0
206236336,1,0,0,0,0,0
206236358,0,0,0,0,0,0
206236372,1,0,0,0,0,0
206236908,0,0,0,0,0,1
206237416,0,0,0,0,0,0
206237948,0,0,0,0,0,1
206237975,0,0,0,0,0,1
206238231,0,0,0,0,0,0
206238358,1,0,0,0,0,0
206238495,0,0,0,0,0,0
206238557,1,0,0,0,0,0
206238956,1,0,0,0,0,0
206238967,0,0,0,0,0,0
206239401,1,0,0,0,0,0
206239453,0,0,0,0,0,0
206239697,0,0,0,0,0,0
206239820,0,0,0,0,0,0
206240335,1,0,0,0,0,0
206240637,0,0,0,0,0,0
206240640,0,0,0,0,0,0
206240752,0,0,0,0,0,0
206240838,0,0,0,0,0,0
206240876,0,0,0,0,0,1
206241154,0,0,0,0,0,0
206241693,0,0,0,0,0,0
206242072,0,0,0,0,0,1
206242111,0,0,0,0,0,0
206242302,0,0,0,0,0,0
206242642,0,0,0,0,0,0
206242788,1,0,0,0,0,0
206243500,1,0,0,0,0,0
206243811,0,0,0,0,0,0
206244044,0,0,0,0,0,0
206244128,0,0,0,0,0,1
206244828,1,0,0,0,0,0
206244998,0,0,0,0,0,0
206245248,1,0,0,0,0,0
206245404,1,0,0,0,0,0
206245474,0,0,0,0,0,0
206245576,0,0,0,0,0,0
206245648,0,0,0,0,0,0
206245905,0,0,0,0,0,0
206246011,0,0,0,0,0,1
206246257,0,0,0,0,0,0
206246651,0,0,0,0,0,1
206246830,0,0,0,0,0,1
206247012,0,0,0,0,0,1
206247322,0,0,0,0,0,1
206247743,0,0,0,0,0,1
206247764,0,0,0,0,0,0
206247968,0,0,0,0,0,0
206248259,0,0,0,0,0,0
206248267,0,0,0,0,0,0
206248301,0,0,0,0,0,0
206248350,0,0,0,0,0,0
206248771,1,0,0,0,0,0
206248993,0,0,0,0,0,0
206248994,0,0,0,0,0,0
206249002,1,0,0,0,0,0
206249125,1,0,0,0,0,0
206249159,0,0,0,0,0,0
206249187,0,0,0,0,0,1
206249270,1,0,0,0,0,0
206249284,0,0,0,0,0,1
206249569,0,0,0,0,0,1
206249652,0,0,0,0,0,0
206249844,1,0,0,0,0,0
206250013,1,0,0,0,0,0
206250020,0,0,0,0,0,0
206250144,1,0,0,0,0,0
206250158,0,0,0,0,0,0
206250506,0,0,0,0,0,0
206250574,1,0,0,0,0,0
206250594,0,0,0,0,0,0
206250783,0,0,0,0,0,1
206251357,1,0,0,0,0,0
206251453,1,0,0,0,0,0
206251485,0,0,0,0,0,0
206251566,0,0,0,0,0,0
206251772,1,0,0,0,0,0
206251852,0,0,0,0,0,1
206251880,0,0,0,0,0,0
206252049,0,0,0,0,0,0
206252133,0,0,0,0,0,0
206252354,1,0,0,0,0,0
206252521,1,0,0,0,0,0
206252612,0,0,0,0,0,1
206252759,1,0,0,0,0,0
206252834,0,0,0,0,0,1
206252896,0,0,0,0,0,0
206253090,0,0,0,0,0,0
206253310,0,0,0,0,0,1
206253459,0,0,0,0,0,0
206253463,0,0,0,0,0,0
206253651,0,0,0,0,0,0
206253919,0,0,0,0,0,1
206253936,1,0,0,0,0,1
206254014,0,0,0,0,0,1
206254220,0,0,0,0,0,0
206254392,0,0,0,0,0,1
206254395,0,0,0,0,0,0
206254466,0,0,0,0,0,0
206254628,0,0,0,0,0,0
206254705,0,0,0,0,0,0
206254867,0,0,0,0,0,1
206255139,0,0,0,0,0,1
206255192,0,0,0,0,0,0
206255363,1,0,0,0,0,0
206255423,0,0,0,0,0,0
206255542,1,0,0,0,0,0
206255837,1,0,0,0,0,0
206255850,1,0,0,0,0,0
206255910,1,0,0,0,0,0
206256836,0,0,0,0,0,0
206256843,1,0,0,0,0,0
206257164,0,0,0,0,0,1
206257199,0,0,0,0,0,0
206257202,1,0,0,0,0,0
206257265,0,0,0,0,0,0
206257572,0,0,0,0,0,0
206257609,0,0,0,0,0,1
206257652,0,0,0,0,0,0
206257715,0,0,0,0,0,0
206257828,0,0,0,0,0,1
206258229,1,0,0,0,0,0
206258290,0,0,0,0,0,0
206258338,0,0,0,0,0,0
206258996,0,0,0,0,0,0
206259009,0,0,0,0,0,0
206259126,0,0,0,0,0,1
206259892,0,0,0,0,0,0
206259956,1,0,0,0,0,0
206260052,0,0,0,0,0,0
206260321,0,0,0,0,0,0
206260486,0,0,0,0,0,0
206260644,0,0,0,0,0,0
206260685,0,0,0,0,0,1
206260857,1,0,0,0,0,0
206260914,0,0,0,0,0,1
206260993,0,0,0,0,0,0
206261151,0,0,0,0,0,1
206261196,0,0,0,0,0,0
206261250,0,0,0,0,0,1
206261263,0,0,0,0,0,1
206261459,0,0,0,0,0,1
206261534,0,0,0,0,0,1
206261692,1,0,0,0,0,0
206261810,0,0,0,0,0,0
206262009,1,0,0,0,0,0
206262223,1,0,0,0,0,0
206262336,0,0,0,0,0,0
206262399,1,0,0,0,0,0
206262538,1,0,0,0,0,0
206262569,1,0,0,0,0,1
206262694,1,0,0,0,0,0
206262726,1,0,0,0,0,0
206262790,0,0,0,0,0,0
206263049,0,0,0,0,0,1
206263068,0,0,0,0,0,0
206263543,1,0,0,0,0,0
206263574,0,0,0,0,0,0
206264231,0,0,0,0,0,0
206264619,0,0,0,0,0,0
206264791,0,0,0,0,0,0
206265026,0,0,0,0,0,0
206265038,1,0,0,0,0,0
206265127,0,0,0,0,0,1
206265396,1,0,0,0,0,0
206265523,0,0,0,0,0,0
206265846,0,0,0,0,0,0
206266613,0,0,0,0,0,1
206266824,1,0,0,0,0,0
206266828,0,0,0,0,0,1
206266961,0,0,0,0,0,0
206267013,0,0,0,0,0,0
206267363,0,0,0,0,0,0
206267402,1,0,0,0,0,0
206268010,0,0,0,0,0,0
206268030,1,0,0,0,0,0
206268089,0,0,0,0,0,0
206268520,0,0,0,0,0,0
206268572,0,0,0,0,0,0
206268626,1,0,0,0,0,1
206268773,0,0,0,0,0,0
206269020,0,0,0,0,0,0
206269235,1,0,0,0,0,0
206269253,0,0,0,0,0,0
206269425,0,0,0,0,0,0
206269742,0,0,0,0,0,0
206270185,0,0,0,0,0,0
206270383,0,0,0,0,0,0
206270443,1,0,0,0,0,1
206270701,1,0,0,0,0,0
206270947,0,0,0,0,0,0
206271186,1,0,0,0,0,0
206271388,1,0,0,0,0,1
206271510,1,0,0,0,0,1
206272120,0,0,0,0,0,0
206272542,1,0,0,0,0,1
206272921,0,0,0,0,0,0
206272962,0,0,0,0,0,0
206272968,1,0,0,0,0,0
206273420,1,0,0,0,0,0
206273572,0,0,0,0,0,0
206273733,1,0,0,0,0,0
206273744,0,0,0,0,0,0
206273776,0,0,0,0,0,0
206273779,1,0,0,0,0,0
206273939,0,0,0,0,0,0
206274186,1,0,0,0,0,0
206274218,1,0,0,0,0,0
206274553,0,0,0,0,0,0
206274660,1,0,0,0,0,0
206275097,0,0,0,0,0,1
206275336,1,0,0,0,0,0
206275583,1,0,0,0,0,0
206275642,0,0,0,0,0,0
206275644,1,0,0,0,0,0
206275652,1,0,0,0,0,0
206275681,1,0,0,0,0,0
206276114,0,0,0,0,0,0
206276163,0,0,0,0,0,0
206276276,1,0,0,0,0,0
206276360,1,0,0,0,0,0
206276557,0,0,0,0,0,0
206276687,0,0,0,0,0,0
206276815,0,0,0,0,0,0
206276816,0,0,0,0,0,1
206277457,0,0,0,0,0,0
206277585,0,0,0,0,0,0
206278128,1,0,0,0,0,0
206278181,0,0,0,0,0,0
206278400,0,0,0,0,0,0
206278872,0,0,0,0,0,0
206278880,1,0,0,0,0,0
206279152,0,0,0,0,0,0
206279569,0,0,0,0,0,0
206280250,0,0,0,0,0,0
206280268,0,0,0,0,0,0
206280416,0,0,0,0,0,0
206280767,1,0,0,0,0,0
206280852,1,0,0,0,0,0
206280889,0,0,0,0,0,0
206280944,1,0,0,0,0,0
206281088,1,0,0,0,0,0
206281827,1,0,0,0,0,0
206282120,1,0,0,0,0,0
206282352,0,0,0,0,0,1
206282628,1,0,0,0,0,0
206282642,0,0,0,0,0,0
206282803,0,0,0,0,0,1
206282918,0,0,0,0,0,0
206282939,0,0,0,0,0,1
206283558,0,0,0,0,0,0
206283732,0,0,0,0,0,1
206284028,0,0,0,0,0,0
206284078,1,0,0,0,0,0
206284191,0,0,0,0,0,1
206284419,0,0,0,0,0,1
206284424,1,0,0,0,0,0
206284795,0,0,0,0,0,0
206285908,1,0,0,0,0,0
206286057,1,0,0,0,0,0
206286422,1,0,0,0,0,0
206286463,0,0,0,0,0,1
206286512,1,0,0,0,0,0
206286704,0,0,0,0,0,0
206286845,0,0,0,0,0,0
206287304,0,0,0,0,0,1
206287528,0,0,0,0,0,0
206287865,0,0,0,0,0,0
206287955,0,0,0,0,0,0
206288336,0,0,0,0,0,0
206288523,1,0,0,0,0,0
206289075,1,0,0,0,0,0
206289083,0,0,0,0,0,0
206289150,0,0,0,0,0,0
206289919,0,0,0,0,0,0
206289941,0,0,0,0,0,1
206290216,0,0,0,0,0,1
206290321,0,0,0,0,0,0
206290433,0,0,0,0,0,0
206291013,1,0,0,0,0,0
206291374,1,0,0,0,0,1
206291430,0,0,0,0,0,0
206291476,1,0,0,0,0,0
206291747,0,0,0,0,0,0
206291756,0,0,0,0,0,0
206292030,1,0,0,0,0,0
206292037,1,0,0,0,0,0
206292233,0,0,0,0,0,1
206292390,1,0,0,0,0,0
206292714,0,0,0,0,0,0
206292752,0,0,0,0,0,1
206292951,0,0,0,0,0,0
206293115,1,0,0,0,0,0
206294041,0,0,0,0,0,0
206294914,0,0,0,0,0,0
206295002,1,0,0,0,0,0
206295632,1,0,0,0,0,0
206295882,0,0,0,0,0,0
206296049,0,0,0,0,0,0
206296176,0,0,0,0,0,0
206296182,0,0,0,0,0,0
206296342,0,0,0,0,0,1
206296665,0,0,0,0,0,1
206296829,1,0,0,0,0,0
206296941,1,0,0,0,0,0
206297313,1,0,0,0,0,0
206297314,0,0,0,0,0,0
206297614,0,0,0,0,0,1
206297821,0,0,0,0,0,0
206298161,1,0,0,0,0,1
206298176,0,0,0,0,0,0
206298289,0,0,0,0,0,0
206298355,1,0,0,0,0,0
206298412,0,0,0,0,0,0
206298607,1,0,0,0,0,0
206298612,1,0,0,0,0,0
206298620,1,0,0,0,0,0
206298766,0,0,0,0,0,0
206299314,0,0,0,0,0,1
206299411,0,0,0,0,0,1
206299569,0,0,0,0,0,0
206299929,1,0,0,0,0,0
206300051,1,0,0,0,0,0
206300160,0,0,0,0,0,0
206300241,1,0,0,0,0,0
206300490,0,0,0,0,0,1
206300688,0,0,0,0,0,0
206300854,0,0,0,0,0,0
206300978,0,0,0,0,0,0
206301204,0,0,0,0,0,0
206301364,1,0,0,0,0,0
206301567,0,0,0,0,0,1
206302051,1,0,0,0,0,0
206302346,1,0,0,0,0,1
206302351,1,0,0,0,0,1
206302412,1,0,0,0,0,0
206303012,1,0,0,0,0,0
206303174,0,0,0,0,0,0
206303429,0,0,0,0,0,0
206303446,1,0,0,0,0,0
206303924,0,0,0,0,0,0
206303947,0,0,0,0,0,0
206304853,0,0,0,0,0,0
206305026,1,0,0,0,0,1
206305286,1,0,0,0,0,0
206305769,0,0,0,0,0,1
206305797,1,0,0,0,0,0
206305916,0,0,0,0,0,0
206306011,1,0,0,0,0,0
206306176,1,0,0,0,0,0
206306389,1,0,0,0,0,0
206306418,1,0,0,0,0,0
206306444,0,0,0,0,0,0
206306681,1,0,0,0,0,1
206307226,0,0,0,0,0,0
206307482,0,0,0,0,0,0
206308051,1,0,0,0,0,0
206308234,1,0,0,0,0,0
206308317,0,0,0,0,0,1
206308582,0,0,0,0,0,1
206308591,1,0,0,0,0,0
206308617,0,0,0,0,0,1
206309001,1,0,0,0,0,0
206309085,0,0,0,0,0,0
206310094,1,0,0,0,0,0
206310879,0,0,0,0,0,0
206311039,1,0,0,0,0,0
206311111,1,0,0,0,0,0
206311391,1,0,0,0,0,0
206311743,1,0,0,0,0,0
206311764,0,0,0,0,0,0
206311864,1,0,0,0,0,0
206311870,0,0,0,0,0,0
206312012,0,0,0,0,0,0
206312309,0,0,0,0,0,1
206312462,0,0,0,0,0,0
206312519,1,0,0,0,0,1
206312536,1,0,0,0,0,0
206312846,0,0,0,0,0,0
206312951,1,0,0,0,0,0
206313170,0,0,0,0,0,0
206313344,0,0,0,0,0,0
206313684,1,0,0,0,0,0
206314014,1,0,0,0,0,0
206314166,1,0,0,0,0,0
206314187,0,0,0,0,0,1
206314606,1,0,0,0,0,0
206314879,0,0,0,0,0,0
206315257,0,0,0,0,0,0
206315277,0,0,0,0,0,1
206315656,1,0,0,0,0,0
206316206,0,0,0,0,0,0
206316292,0,0,0,0,0,0
206316363,0,0,0,0,0,1
206316513,1,0,0,0,0,0
206316725,1,0,0,0,0,0
206317286,0,0,0,0,0,0
206317629,0,0,0,0,0,0
206317845,1,0,0,0,0,0
206318088,1,0,0,0,0,0
206318379,0,0,0,0,0,0
206318421,0,0,0,0,0,1
206319008,0,0,0,0,0,1
206319951,1,0,0,0,0,0
206320221,0,0,0,0,0,1
206320258,1,0,0,0,0,0
206321288,1,0,0,0,0,0
206321619,1,0,0,0,0,0
206322094,1,0,0,0,0,0
206322282,1,0,0,0,0,0
206322548,0,0,0,0,0,1
206322648,1,0,0,0,0,1
206322766,0,0,0,0,0,0
206323014,0,0,0,0,0,0
206323065,0,0,0,0,0,0
206323269,1,0,0,0,0,0
206324086,1,0,0,0,0,0
206324097,1,0,0,0,0,0
206324339,1,0,0,0,0,0
206324702,0,0,0,0,0,0
206325006,0,0,0,0,0,0
206325146,1,0,0,0,0,0
206325550,0,0,0,0,0,0
206325760,1,0,0,0,0,0
206326109,0,0,0,0,0,0
206326142,1,0,0,0,0,0
206326593,0,0,0,0,0,0
206326967,1,0,0,0,0,0
206327314,1,0,0,0,0,0
206328287,1,0,0,0,0,0
206328599,0,0,0,0,0,0
206328877,0,0,0,0,0,0
206328904,1,0,0,0,0,0
206329305,1,0,0,0,0,1
206329456,1,0,0,0,0,0
206329505,0,0,0,0,0,0
206329537,1,0,0,0,0,1
206329937,1,0,0,0,0,0
206330183,0,0,0,0,0,0
206330234,0,0,0,0,0,0
206331127,0,0,0,0,0,0
206331788,0,0,0,0,0,0
206332655,0,0,0,0,0,0
206333201,0,0,0,0,0,0
206333246,0,0,0,0,0,0
206333372,1,0,0,0,0,1
206333472,0,0,0,0,0,0
206333689,1,0,0,0,0,0
206333888,1,0,0,0,0,0
206334480,1,0,0,0,0,0
206334960,0,0,0,0,0,0
206334967,1,0,0,0,0,0
206335051,0,0,0,0,0,0
206335058,0,0,0,0,0,0
206335405,0,0,0,0,0,1
206335422,0,0,0,0,0,0
206335424,1,0,0,0,0,0
206336313,0,0,0,0,0,0
206336565,1,0,0,0,0,1
206337340,1,0,0,0,0,0
206337772,1,0,0,0,0,1
206337829,1,0,0,0,0,0
206338217,0,0,0,0,0,0
206338637,0,0,0,0,0,0
206339184,0,0,0,0,0,1
206339618,1,0,0,0,0,0
206340061,0,0,0,0,0,0
206340229,0,0,0,0,0,1
206340353,1,0,0,0,0,0
206340384,0,0,0,0,0,1
206340569,1,0,0,0,0,0
206340577,1,0,0,0,0,1
206340742,0,0,0,0,0,0
206340815,0,0,0,0,0,1
206341309,0,0,0,0,0,0
206341508,1,0,0,0,0,1
206341843,0,0,0,0,0,0
206342264,1,0,0,0,0,1
206342320,0,0,0,0,0,1
206343161,1,0,0,0,0,0
206343512,1,0,0,0,0,1
206343714,0,0,0,0,0,0
206344420,1,0,0,0,0,0
206344598,1,0,0,0,0,0
206344665,0,0,0,0,0,0
206344788,1,0,0,0,0,0
206344925,1,0,0,0,0,0
206345037,0,0,0,0,0,1
206345494,0,0,0,0,0,0
206345625,1,0,0,0,0,1
206346033,1,0,0,0,0,1
206346600,1,0,0,0,0,0
206346614,0,0,0,0,0,0
206346728,0,0,0,0,0,0
206346926,1,0,0,0,0,1
206347439,0,0,0,0,0,0
206347785,0,0,0,0,0,0
206348056,0,0,0,0,0,0
206348470,0,0,0,0,0,0
206348556,1,0,0,0,0,0
206348879,0,0,0,0,0,0
206348972,1,0,0,0,0,0
206349116,0,0,0,0,0,0
206349235,0,0,0,0,0,0
206349327,0,0,0,0,0,0
206350062,1,0,0,0,0,1
206350204,0,0,0,0,0,0
206350227,0,0,0,0,0,0
206350362,1,0,0,0,0,0
206350764,0,0,0,0,0,1
206350825,1,0,0,0,0,0
206350926,1,0,0,0,0,0
206351132,0,0,0,0,0,1
206352638,1,0,0,0,0,0
206352924,1,0,0,0,0,0
206352967,0,0,0,0,0,0
206353295,0,0,0,0,0,0
206353411,1,0,0,0,0,0
206353564,0,0,0,0,0,0
206354061,1,0,0,0,0,1
206354096,0,0,0,0,0,1
206355280,1,0,0,0,0,0
206355931,0,0,0,0,0,0
206355996,1,0,0,0,0,0
206356121,1,0,0,0,0,0
206356447,1,0,0,0,0,0
206356760,0,0,0,0,0,1
206356850,0,0,0,0,0,1
206356950,0,0,0,0,0,0
206357578,1,0,0,0,0,0
206357626,0,0,0,0,0,0
206357640,1,0,0,0,0,0
206357778,1,0,0,0,0,0
206357787,1,0,0,0,0,1
206357857,1,0,0,0,0,1
206357934,1,0,0,0,0,1
206358304,1,0,0,0,0,0
206358695,1,0,0,0,0,0
206358734,1,0,0,0,0,1
206359130,0,0,0,0,0,0
206359142,0,0,0,0,0,0
206359559,1,0,0,0,0,0
206360060,1,0,0,0,0,1
206360126,1,0,0,0,0,0
206360649,1,0,0,0,0,0
206361329,1,0,0,0,0,0
206361474,0,0,0,0,0,0
206361727,1,0,0,0,0,0
206361919,0,0,0,0,0,1
206362063,0,0,0,0,0,0
206362356,1,0,0,0,0,0
206362793,0,0,0,0,0,0
206362869,0,0,0,0,0,0
206363004,0,0,0,0,0,0
206363432,0,0,0,0,0,1
206363486,0,0,0,0,0,1
206363538,1,0,0,0,0,0
206364118,0,0,0,0,0,1
206364195,1,0,0,0,0,0
206364205,0,0,0,0,0,0
206364385,0,0,0,0,0,0
206364497,0,0,0,0,0,0
206364537,0,0,0,0,0,0
206365020,1,0,0,0,0,0
206365173,1,0,0,0,0,0
206365264,0,0,0,0,0,0
206365529,0,0,0,0,0,0
206365675,1,0,0,0,0,0
206365931,1,0,0,0,0,0
206366029,0,0,0,0,0,1
206366102,1,0,0,0,0,0
206366196,0,0,0,0,0,0
206366231,0,0,0,0,0,0
206366730,1,0,0,0,0,1
206366913,1,0,0,0,0,0
206367061,1,0,0,0,0,0
206367139,0,0,0,0,0,1
206367317,0,0,0,0,0,0
206367574,1,0,0,0,0,0
206367826,1,0,0,0,0,0
206368049,0,0,0,0,0,0
206368136,1,0,0,0,0,0
206368165,0,0,0,0,0,1
206368728,1,0,0,0,0,0
206368965,0,0,0,0,0,1
206369173,1,0,0,0,0,1
206369189,0,0,0,0,0,1
206369470,0,0,0,0,0,0
206369700,1,0,0,0,0,0
206369907,0,0,0,0,0,1
206369951,0,0,0,0,0,1
206370193,0,0,0,0,0,0
206370724,0,0,0,0,0,0
206370898,1,0,0,0,0,0
206371012,0,0,0,0,0,1
206371409,0,0,0,0,0,0
206371423,0,0,0,0,0,0
206371449,0,0,0,0,0,0
206371808,1,0,0,0,0,0
206371868,1,0,0,0,0,0
206373024,0,0,0,0,0,0
206373384,0,0,0,0,0,0
206373473,0,0,0,0,0,0
206373629,0,0,0,0,0,0
206373693,1,0,0,0,0,0
206373777,1,0,0,0,0,0
206373999,1,0,0,0,0,1
206374038,0,0,0,0,0,0
206374153,1,0,0,0,0,0
206374292,0,0,0,0,0,1
206374393,0,0,0,0,0,0
206374404,1,0,0,0,0,0
206374874,1,0,0,0,0,0
206374969,0,0,0,0,0,0
206375159,0,0,0,0,0,1
206375262,1,0,0,0,0,0
206375335,0,0,0,0,0,0
206375555,1,0,0,0,0,0
206375927,0,0,0,0,0,0
206375929,1,0,0,0,0,0
206375971,0,0,0,0,0,0
206375988,1,0,0,0,0,0
206376358,0,0,0,0,0,0
206376558,0,0,0,0,0,0
206376614,0,0,0,0,0,0
206376625,0,0,0,0,0,1
206377419,0,0,0,0,0,0
206377857,1,0,0,0,0,1
206377911,0,0,0,0,0,0
206378214,1,0,0,0,0,0
206378264,0,0,0,0,0,0
206378945,1,0,0,0,0,0
206379391,0,0,0,0,0,0
206379489,1,0,0,0,0,0
206379560,1,0,0,0,0,0
206379658,1,0,0,0,0,0
206379802,0,0,0,0,0,0
206379989,1,0,0,0,0,0
206380072,1,0,0,0,0,0
206380678,0,0,0,0,0,0
206380909,0,0,0,0,0,1
206381260,1,0,0,0,0,0
206381615,0,0,0,0,0,1
206381683,1,0,0,0,0,0
206381814,0,0,0,0,0,1
206381935,0,0,0,0,0,1
206381986,0,0,0,0,0,0
206382584,1,0,0,0,0,1
206382998,0,0,0,0,0,0
206383130,1,0,0,0,0,0
206383593,0,0,0,0,0,0
206383647,1,0,0,0,0,0
206383737,1,0,0,0,0,0
206383967,1,0,0,0,0,0
206384416,0,0,0,0,0,0
206384472,0,0,0,0,0,1
206384577,1,0,0,0,0,0
206384710,0,0,0,0,0,0
206384822,1,0,0,0,0,1
206385274,1,0,0,0,0,0
206385506,0,0,0,0,0,1
206385640,1,0,0,0,0,0
206385965,1,0,0,0,0,1
206386081,0,0,0,0,0,0
206386253,1,0,0,0,0,0
206387270,0,0,0,0,0,0
206387352,0,0,0,0,0,0
206387377,1,0,0,0,0,0
206387516,0,0,0,0,0,0
206388176,0,0,0,0,0,0
206388299,1,0,0,0,0,0
206388714,0,0,0,0,0,0
206388833,1,0,0,0,0,0
206388925,1,0,0,0,0,0
206389004,1,0,0,0,0,0
206389717,1,0,0,0,0,1
206389784,1,0,0,0,0,0
206389808,1,0,0,0,0,0
206389876,0,0,0,0,0,0
206390205,0,0,0,0,0,0
206390323,0,0,0,0,0,1
206390470,0,0,0,0,0,0
206390906,0,0,0,0,0,0
206390937,1,0,0,0,0,0
206391258,1,0,0,0,0,0
206391365,0,0,0,0,0,0
206391501,0,0,0,0,0,0
206391685,1,0,0,0,0,1
206391742,1,0,0,0,0,0
206391830,1,0,0,0,0,0
206392610,0,0,0,0,0,1
206393746,0,0,0,0,0,1
206393782,1,0,0,0,0,0
206394162,1,0,0,0,0,0
206394698,1,0,0,0,0,0
206395277,0,0,0,0,0,0
206395626,0,0,0,0,0,0
206395744,1,0,0,0,0,0
206395908,1,0,0,0,0,1
206395989,1,0,0,0,0,0
206396000,0,0,0,0,0,0
206396178,1,0,0,0,0,0
206396184,1,0,0,0,0,0
206396652,1,0,0,0,0,0
206397045,1,0,0,0,0,0
206397488,1,0,0,0,0,0
206398119,0,0,0,0,0,0
206398192,1,0,0,0,0,1
206398565,1,0,0,0,0,1
206398709,0,0,0,0,0,1
206399092,1,0,0,0,0,0
206399520,1,0,0,0,0,0
206399648,1,0,0,0,0,1
206399979,0,0,0,0,0,0
206400170,0,0,0,0,0,0
206400223,0,0,0,0,0,1
206400586,1,0,0,0,0,0
206401189,1,0,0,0,0,0
206401204,0,0,0,0,0,1
206401345,1,0,0,0,0,1
206401410,1,0,0,0,0,0
206401518,0,0,0,0,0,1
206401904,0,0,0,0,0,0
206402108,1,0,0,0,0,0
206402319,1,0,0,0,0,1
206402482,1,0,0,0,0,0
206402676,0,0,0,0,0,0
206403384,0,0,0,0,0,1
206404290,1,0,0,0,0,0
206404369,1,0,0,0,0,0
206404638,0,0,0,0,0,0
206404788,1,0,0,0,0,1
206404790,1,0,0,0,0,0
206405208,0,0,0,0,0,0
206405359,1,0,0,0,0,1
206405536,1,0,0,0,0,1
206405597,1,0,0,0,0,0
206405648,1,0,0,0,0,1
206406094,0,0,0,0,0,0
206406290,1,0,0,0,0,0
206406659,0,0,0,0,0,1
206407082,0,0,0,0,0,1
206407339,1,0,0,0,0,0
206407794,1,0,0,0,0,0
206408626,1,0,0,0,0,0
206409121,1,0,0,0,0,0
206409744,1,0,0,0,0,0
206409829,0,0,0,0,0,0
206409991,1,0,0,0,0,0
206410215,0,0,0,0,0,0
206410306,1,0,0,0,0,0
206410807,1,0,0,0,0,0
206410831,1,0,0,0,0,0
206410902,1,0,0,0,0,0
206411005,1,0,0,0,0,0
206411038,1,0,0,0,0,1
206411490,1,0,0,0,0,0
206412056,1,0,0,0,0,0
206412084,1,0,0,0,0,0
206412204,0,0,0,0,0,0
206412251,1,0,0,0,0,0
206412289,1,0,0,0,0,0
206412597,0,0,0,0,0,1
206412618,1,0,0,0,0,0
206412661,1,0,0,0,0,0
206413082,1,0,0,0,0,0
206413222,0,0,0,0,0,0
206413241,0,0,0,0,0,1
206413297,1,0,0,0,0,0
206413345,0,0,0,0,0,0
206413503,0,0,0,0,0,1
206414361,1,0,0,0,0,0
206414782,1,0,0,0,0,0
206414841,1,0,0,0,0,0
206415924,1,0,0,0,0,0
206416392,1,0,0,0,0,0
206416424,1,0,0,0,0,0
206416544,0,0,0,0,0,0
206416580,1,0,0,0,0,0
206417197,1,0,0,0,0,0
206417224,0,0,0,0,0,0
206417262,0,0,0,0,0,0
206417269,1,0,0,0,0,0
206417496,1,0,0,0,0,0
206418271,0,0,0,0,0,0
206418357,0,0,0,0,0,0
206418564,1,0,0,0,0,0
206419396,1,0,0,0,0,0
206419532,0,0,0,0,0,0
206419535,0,0,0,0,0,1
206419774,1,0,0,0,0,0
206419844,1,0,0,0,0,0
206420120,1,0,0,0,0,0
206420223,0,0,0,0,0,0
206420430,0,0,0,0,0,0
206420485,1,0,0,0,0,1
206420625,1,0,0,0,0,0
206420688,1,0,0,0,0,0
206420726,1,0,0,0,0,0
206420919,1,0,0,0,0,0
206421168,1,0,0,0,0,0
206421494,1,0,0,0,0,0
206421600,1,0,0,0,0,0
206422161,1,0,0,0,0,1
206422172,1,0,0,0,0,0
206422523,0,0,0,0,0,1
206422539,0,0,0,0,0,0
206422773,0,0,0,0,0,0
206423003,1,0,0,0,0,0
206423021,0,0,0,0,0,1
206423421,1,0,0,0,0,0
206423505,0,0,0,0,0,0
206423760,0,0,0,0,0,0
206424033,1,0,0,0,0,0
206424214,1,0,0,0,0,0
206424481,0,0,0,0,0,0
206424562,1,0,0,0,0,0
206424599,1,0,0,0,0,0
206424684,1,0,0,0,0,1
206424802,0,0,0,0,0,1
206425092,0,0,0,0,0,0
206425574,1,0,0,0,0,0
206425608,1,0,0,0,0,0
206426057,0,0,0,0,0,0
206426515,0,0,0,0,0,1
206426628,0,0,0,0,0,0
206426661,1,0,0,0,0,0
206426827,1,0,0,0,0,0
206426850,0,0,0,0,0,0
206426866,0,0,0,0,0,0
206426914,1,0,0,0,0,1
206427217,0,0,0,0,0,1
206427237,0,0,0,0,0,1
206427649,0,0,0,0,0,0
206427873,0,0,0,0,0,0
206428147,0,0,0,0,0,0
206428167,0,0,0,0,0,0
206428268,0,0,0,0,0,0
206428510,0,0,0,0,0,0
206428560,0,0,0,0,0,0
206428680,0,0,0,0,0,1
206429616,1,0,0,0,0,1
206429750,0,0,0,0,0,1
206429842,0,0,0,0,0,0
206430209,1,0,0,0,0,0
206430917,0,0,0,0,0,1
206430957,0,0,0,0,0,0
206431159,0,0,0,0,0,0
206431378,1,0,0,0,0,0
206431866,0,0,0,0,0,1
206432041,0,0,0,0,0,1
206432150,0,0,0,0,0,0
206432256,0,0,0,0,0,0
206432278,0,0,0,0,0,0
206432820,1,0,0,0,0,0
206433076,0,0,0,0,0,1
206433244,1,0,0,0,0,0
206433276,0,0,0,0,0,0
206433313,1,0,0,0,0,0
206433571,0,0,0,0,0,0
206433671,0,0,0,0,0,0
206433675,0,0,0,0,0,0
206433696,0,0,0,0,0,0
206433828,0,0,0,0,0,1
206433839,1,0,0,0,0,0
206433939,0,0,0,0,0,1
206434081,0,0,0,0,0,1
206434342,1,0,0,0,0,0
206434484,0,0,0,0,0,1
206434608,1,0,0,0,0,0
206434770,0,0,0,0,0,0
206435168,0,0,0,0,0,1
206435478,0,0,0,0,0,0
206435511,0,0,0,0,0,1
206435786,0,0,0,0,0,0
206436777,1,0,0,0,0,0
206436889,0,0,0,0,0,0
206436982,0,0,0,0,0,0
206436985,1,0,0,0,0,0
206437103,0,0,0,0,0,0
206437282,1,0,0,0,0,0
206437296,0,0,0,0,0,0
206437874,0,0,0,0,0,0
206438350,1,0,0,0,0,0
206438527,0,0,0,0,0,0
206438766,0,0,0,0,0,0
206439371,1,0,0,0,0,0
206439424,0,0,0,0,0,0
206440449,0,0,0,0,0,0
206440758,0,0,0,0,0,1
206441337,0,0,0,0,0,0
206441949,0,0,0,0,0,0
206442042,0,0,0,0,0,0
206442191,0,0,0,0,0,0
206442211,0,0,0,0,0,1
206442473,1,0,0,0,0,0
206442484,1,0,0,0,0,0
206442578,0,0,0,0,0,0
206442711,1,0,0,0,0,0
206442756,0,0,1,0,0,0
206443679,0,0,0,0,0,1
206444021,0,0,0,0,0,0
206444932,0,0,0,0,0,0
206444974,0,0,0,0,0,0
206445083,0,0,0,0,0,0
206445487,0,0,0,0,0,0
206446515,1,0,0,0,0,0
206446930,0,0,0,0,0,0
206447496,0,0,0,0,0,1
206447821,0,0,0,0,0,0
206447872,0,0,0,0,0,0
206448045,0,0,0,0,0,0
206448550,0,0,0,0,0,0
206448641,1,0,0,0,0,0
206448937,0,0,0,0,0,1
206449018,0,0,0,0,0,0
206449143,0,0,0,0,0,0
206449330,0,0,0,0,0,1
206449568,1,0,0,0,0,0
206449598,0,0,0,0,0,0
206449638,1,0,0,0,0,1
206450522,0,0,0,0,0,0
206450592,0,0,0,0,0,1
206450681,0,0,0,0,0,0
206451051,0,0,0,0,0,0
206451223,0,0,0,0,0,0
206451834,0,0,0,0,0,0
206452000,0,0,0,0,0,0
206452063,0,0,0,0,0,0
206452199,0,0,0,0,0,0
206452343,0,0,0,0,0,0
206452347,0,0,0,0,0,0
206452655,0,0,0,0,0,0
206452675,0,0,0,0,0,0
206453057,0,0,0,0,0,0
206453232,0,0,0,0,0,0
206453375,0,0,0,0,0,0
206454290,0,0,0,0,0,0
206454330,0,0,0,0,0,0
206454437,0,0,0,0,0,0
206454618,0,0,0,0,0,0
206454848,0,0,0,0,0,1
206455087,1,0,0,0,0,0
206455103,0,0,0,0,0,0
206455215,0,0,0,0,0,0
206455222,1,0,0,0,0,1
206455464,0,0,0,0,0,0
206455984,1,0,0,0,0,0
206456320,0,0,0,0,0,1
206456462,0,0,0,0,0,0
206456769,0,0,0,0,0,0
206457135,0,0,0,0,0,1
206457327,0,0,0,0,0,0
206457505,0,0,0,0,0,0
206457513,0,0,0,0,0,0
206457590,0,0,0,0,0,1
206457928,0,0,0,0,0,0
206457934,0,0,0,0,0,1
206458146,0,0,0,0,0,0
206458278,0,0,0,0,0,0
206458354,0,0,0,0,0,0
206458391,0,0,0,0,0,1
206458594,0,0,0,0,0,0
206458694,0,0,0,0,0,0
206458726,0,0,0,0,0,1
206458928,0,0,0,0,0,0
206459102,0,0,0,0,0,0
206459123,0,0,0,0,0,1
206459868,0,0,0,0,0,0
206460390,0,0,0,0,0,0
206460823,0,0,0,0,0,0
206460887,0,0,0,0,0,0
206461016,0,0,0,0,0,0
206461200,0,0,0,0,0,1
206461269,0,0,0,0,0,0
206461468,0,0,0,0,0,1
206461788,0,0,0,0,0,0
206461841,0,0,0,0,0,1
206462073,0,0,0,0,0,0
206462212,0,0,0,0,0,1
206462383,0,0,0,0,0,0
206462709,0,0,0,0,0,0
206462806,0,0,0,0,0,0
206463184,0,0,0,0,0,1
206463203,0,0,0,0,0,0
206463357,0,0,0,0,0,0
206463460,0,0,0,0,0,0
206463522,0,0,0,0,0,0
206464053,0,0,0,0,0,0
206465141,0,0,0,0,0,0
206465184,0,0,0,0,0,0
206465199,0,0,0,0,0,0
206465397,0,0,0,0,0,1
206465503,0,0,0,0,0,0
206465545,0,0,0,0,0,0
206465708,0,0,0,0,0,0
206465746,0,0,0,0,0,1
206466343,0,0,0,0,0,1
206466580,0,0,0,0,0,0
206466752,0,0,0,0,0,0
206466937,0,0,0,0,0,0
206467287,0,0,0,0,0,0
206467305,0,0,0,0,0,0
206467306,0,0,0,0,0,0
206467499,0,0,0,0,0,1
206467632,0,0,0,0,0,0
206467829,0,0,0,0,0,0
206467867,0,0,0,0,0,0
206467905,0,0,0,0,0,0
206468571,0,0,0,0,0,0
206468811,0,0,0,0,0,0
206468984,0,0,0,0,0,0
206468993,0,0,0,0,0,0
206469498,0,0,0,0,0,1
206469672,0,0,0,0,0,1
206469703,0,0,0,0,0,0
206469710,0,0,0,0,0,1
206469745,0,0,0,0,0,1
206469879,0,0,0,0,0,1
206469897,0,0,0,0,0,1
206470185,0,0,0,0,0,0
206470277,0,0,0,0,0,0
206470488,0,0,0,0,0,0
206470517,0,0,0,0,0,0
206471382,0,0,0,0,0,0
206471551,0,0,0,0,0,0
206471633,0,0,0,0,0,0
206471814,0,0,0,0,0,1
206472066,0,0,0,0,0,1
206472188,0,0,0,0,0,1
206472377,0,0,0,0,0,1
206472458,0,0,0,0,0,0
206472474,0,0,0,0,0,1
206472563,0,0,0,0,0,0
206472650,0,0,0,0,0,0
206472656,0,0,0,0,0,0
206472801,0,0,0,0,0,0
206473544,0,0,0,0,0,0
206473705,0,0,0,0,0,0
206473868,0,0,0,0,0,1
206473876,0,0,0,0,0,0
206474004,0,0,0,0,0,0
206474186,0,0,0,0,0,0
206474257,0,0,0,0,0,1
206474266,0,0,0,0,0,0
206474337,0,0,0,0,0,0
206474606,0,0,0,0,0,0
206475150,0,0,0,0,0,0
206475632,0,0,0,0,0,0
206475981,0,0,0,0,0,0
206476223,0,0,0,0,0,1
206476413,0,0,0,0,0,0
206476530,0,0,0,0,0,0
206476810,0,0,0,0,0,0
206476915,0,0,0,0,0,0
206477154,0,0,0,0,0,0
206477379,0,0,0,0,0,0
206477395,0,0,0,0,0,0
206477588,0,0,0,0,0,0
206477594,0,0,0,0,0,0
206477767,0,0,0,0,0,1
206477888,0,0,0,0,0,0
206477939,0,0,0,0,0,1
206477985,0,0,0,0,0,0
206477993,0,0,0,0,0,1
206478242,0,0,0,0,0,0
206478446,0,0,0,0,0,0
206478682,0,0,0,0,0,0
206478839,0,0,0,0,0,0
206479020,0,0,0,0,0,1
206479199,0,0,0,0,0,0
206479356,0,0,0,0,0,0
206479389,0,0,0,0,0,0
206479633,0,0,0,0,0,0
206479739,0,0,0,0,0,1
206479862,0,0,0,0,0,0
206480011,0,0,0,0,0,0
206480032,0,0,0,0,0,0
206480058,0,0,0,0,0,0
206480142,0,0,0,0,0,0
206480155,0,0,0,0,0,1
206480856,0,0,0,0,0,0
206481270,0,0,0,0,0,0
206481397,0,0,0,0,0,1
206481650,0,0,0,0,0,0
206482284,0,0,0,0,0,1
206482512,0,0,0,0,0,1
206482524,0,0,0,0,0,0
206483102,0,0,0,0,0,0
206483125,0,0,0,0,0,0
206483199,0,0,0,0,0,0
206483215,0,0,0,0,0,0
206483292,0,0,0,0,0,0
206483890,0,0,0,0,0,0
206483944,0,0,0,0,0,1
206484407,0,0,0,0,0,1
206484607,0,0,0,0,0,0
206485369,0,0,0,0,0,0
206485388,0,0,0,0,0,1
206486362,0,0,0,0,0,0
206487252,0,0,0,0,0,0
206487278,0,0,0,0,0,0
206487709,0,0,0,0,0,0
206487728,0,0,0,0,0,1
206487879,0,0,0,0,0,0
206488201,0,0,0,0,0,1
206488636,0,0,0,0,0,0
206488767,0,0,0,0,0,1
206488835,0,0,0,0,0,1
206489095,0,0,0,0,0,0
206489458,0,0,0,0,0,0
206489474,0,0,0,0,0,0
206489568,0,0,0,0,0,0
206489919,0,0,0,0,0,0
206489952,0,0,0,0,0,0
206490042,0,0,0,0,0,0
206490189,0,0,0,0,0,0
206490625,0,0,0,0,0,0
206490771,0,0,0,0,0,0
206491044,0,0,0,0,0,1
206491127,0,0,0,0,0,0
206491350,0,0,0,0,0,0
206491912,0,0,0,0,0,0
206492079,0,0,0,0,0,0
206492242,0,0,0,0,0,0
206492393,0,0,0,0,0,0
206492890,0,0,0,0,0,0
206493130,0,0,0,0,0,0
206493427,0,0,0,0,0,0
206493881,0,0,0,0,0,0
206493973,0,0,0,0,0,1
206494300,0,0,0,0,0,0
206494487,0,0,0,0,0,0
206494506,0,0,0,0,0,0
206495007,0,0,0,0,0,0
206495861,0,0,0,0,0,0
206495971,0,0,0,0,0,0
206496030,0,0,0,0,0,0
206496158,0,0,0,0,0,1
206496260,0,0,0,0,0,0
206496339,0,0,0,0,0,0
206496342,0,0,0,0,0,0
206496349,0,0,0,0,0,1
206496722,0,0,0,0,0,0
206496889,0,0,0,0,0,0
206497511,0,0,0,0,0,0
206497556,0,0,0,0,0,0
206497667,0,0,0,0,0,0
206497744,0,0,0,0,0,0
206497964,0,0,0,0,0,0
206498471,0,0,0,0,0,1
206498717,0,0,0,0,0,0
206498766,0,0,0,0,0,0
206499039,0,0,0,0,0,1
206499359,0,0,0,0,0,0
206499508,0,0,0,0,0,0
206500175,0,0,0,0,0,0
206500261,0,0,0,0,0,1
206500290,0,0,0,0,0,0
206500494,0,0,0,0,0,1
206500672,0,0,0,0,0,1
206500804,0,0,0,0,0,0
206500937,0,0,0,0,0,0
206501605,0,0,0,0,0,0
206501912,0,0,0,0,0,1
206502327,0,0,0,0,0,0
206502849,0,0,0,0,0,0
206503190,0,0,0,0,0,0
206503292,0,0,0,0,0,0
206504958,0,0,0,0,0,0
206505060,0,0,0,0,0,0
206505084,0,0,0,0,0,0
206505548,0,0,0,0,0,1
206505871,0,0,0,0,0,0
206506386,0,0,0,0,0,0
206506468,0,0,0,0,0,1
206506518,0,0,0,0,0,0
206506553,0,0,0,0,0,0
206506618,0,0,0,0,0,0
206507295,0,0,0,0,0,0
206507309,0,0,1,0,0,0
206507329,0,0,0,0,0,0
206508351,0,0,0,0,0,0
206508431,0,0,0,0,0,0
206508486,0,0,0,0,0,0
206508639,0,0,0,0,0,1
206508753,0,0,0,0,0,0
206509088,0,0,0,0,0,1
206509238,0,0,0,0,0,0
206509377,0,0,0,0,0,1
206509477,0,0,0,0,0,0
206509616,0,0,0,0,0,0
206509878,0,0,0,0,0,0
206509960,0,0,0,0,0,0
206510047,0,0,0,0,0,0
206510414,0,0,0,0,0,0
206510704,0,0,0,0,0,0
206510726,0,0,0,0,0,0
206510818,0,0,0,0,0,0
206511176,0,0,0,0,0,0
206512049,0,0,0,0,0,0
206512080,0,0,0,0,0,0
206512721,0,0,0,0,0,0
206512790,0,0,0,0,0,0
206513125,0,0,0,0,0,1
206513433,0,0,0,0,0,0
206513589,0,0,0,0,0,0
206514026,0,0,0,0,0,0
206514337,0,0,1,0,0,0
206514576,0,0,0,0,0,0
206514598,0,0,0,0,0,0
206515124,0,0,0,0,0,1
206515408,0,0,0,0,0,0
206515859,0,0,0,0,0,0
206516297,0,0,0,0,0,0
206516525,0,0,0,0,0,0
206516967,0,0,0,0,0,0
206517079,0,0,0,0,0,0
206517100,0,0,0,0,0,0
206517289,0,0,0,0,0,0
206517341,0,0,0,0,0,1
206517729,0,0,0,0,0,0
206517923,0,0,0,0,0,0
206518170,0,0,0,0,0,0
206518455,0,0,0,0,0,1
206518548,0,0,0,0,0,0
206518888,0,0,0,0,0,1
206518969,0,0,0,0,0,1
206519413,0,0,0,0,0,0
206520071,0,0,0,0,0,0
206520270,0,0,0,0,0,1
206520537,0,0,0,0,0,0
206521062,0,0,0,0,0,0
206521223,0,0,0,0,0,0
206521644,0,0,0,0,0,0
206522099,0,0,0,0,0,1
206522542,0,0,0,0,0,0
206522543,0,0,0,0,0,0
206522907,0,0,0,0,0,0
206523481,0,0,0,0,0,0
206523990,0,0,0,0,0,0
206524435,0,0,0,0,0,0
206524908,0,0,0,0,0,0
206526306,0,0,0,0,0,0
206527898,0,0,0,0,0,0
206527973,0,0,0,0,0,0
206528471,0,0,0,0,0,1
206528539,0,0,0,0,0,0
206529077,0,0,0,0,0,1
206529963,0,0,0,0,0,0
206530640,0,0,0,0,0,0
206530707,0,0,0,0,0,0
206531149,0,0,1,0,0,0
206531534,0,0,0,0,0,0
206532108,0,0,0,0,0,0
206532876,0,0,0,0,0,0
206532888,0,0,0,0,0,0
206533077,0,0,0,0,0,0
206533513,0,0,0,0,0,0
206533747,0,0,0,0,0,0
206533823,0,0,1,0,0,0
206534092,0,0,0,0,0,0
206534218,0,0,0,0,0,0
206534263,0,0,1,0,0,0
206534408,0,0,0,0,0,1
206534929,0,0,0,0,0,0
206535467,0,0,1,0,0,0
206535848,0,0,0,0,0,0
206537083,0,0,0,0,0,0
206537267,0,0,0,0,0,0
206537893,0,0,1,0,0,0
206538506,0,0,0,0,0,0
206539460,0,0,1,0,0,0
206540311,0,0,0,0,0,0
206541614,0,0,1,0,0,0
206542561,0,0,1,0,0,0
206542972,0,0,1,0,0,1
206544297,0,0,1,0,0,0
206546591,0,0,0,0,0,1
206546675,0,0,1,0,0,0
206548335,0,0,1,0,0,0
206548569,0,0,1,0,0,0
206549953,0,0,1,0,0,1
206550119,0,0,0,0,0,0
206551492,0,0,1,0,0,0
206553862,0,0,0,0,0,0
206553865,0,0,0,0,0,0
206555394,0,0,0,0,0,1
