100448189
100483847
100528464
100556001
100557143
100575482
100580176
100586437
100597075
100597609
100598266
100606331
100610961
100613106
100619346
100634602
100639608
100652335
100656893
100658523
100667041
100679950
100682488
100688591
100692726
100692793
100705166
100707942
100722680
100725658
100752538
100773163
100781679
100800259
100813221
100813799
100817208
100819874
100820820
100821572
100824618
100826011
100827490
100828924
100836469
100841360
100841417
100852656
100853452
100856697
100864569
100867373
100868399
100880037
100886873
100888944
100889852
100890347
100892148
100893649
100898422
100901016
100901998
100908305
100910530
100914473
100914526
100921941
100924925
100929688
100938857
100946824
100949965
100950848
100953642
100958423
100958571
100958710
100959348
100961485
100963973
100967582
100974118
100975216
100978903
100992174
100997312
100998571
101001054
101002044
101004960
101007463
101009108
101016388
101016842
101018056
101018702
101019013
101019830
101023918
101024376
101024938
101025964
101027968
101029151
101029567
101030065
101030924
101033184
101034025
101034839
101034881
101037205
101041814
101043587
101044836
101045095
101046557
101046788
101047228
101048887
101057165
101057962
101058180
101058741
101058880
101062545
101063559
101064646
101068837
101071033
101071059
101072104
101073282
101074873
101080756
101081290
101087983
101090198
101092813
101093340
101093482
101093867
101094487
101095507
101099720
101100354
101101456
101102567
101103492
101109502
101110203
101110324
101111963
101112259
101113062
101113416
101114706
101118020
101119005
101121769
101122421
101123395
101125665
101130130
101131207
101132003
101135982
101136306
101137108
101138968
101139361
101140896
101141206
101144866
101147632
101147749
101150783
101151570
101151750
101162057
101162392
101162838
101163504
101169337
101171579
101172021
101172095
101174384
101178248
101178424
101180599
101181202
101181730
101182089
101182232
101185054
101187881
101191587
101193334
101197732
101200652
101202431
101204408
101206989
101207636
101208801
101211466
101212022
101214403
101216534
101216661
101217274
101220624
101222796
101223476
101227666
101229068
101231759
101232297
101238328
101240165
101242209
101243695
101250808
101251252
101253078
101253288
101254020
101259200
101260646
101260651
101262546
101264443
101270438
101271394
101272867
101272874
101273107
101275997
101279871
101279963
101281195
101281824
101282774
101283228
101290292
101290847
101292253
101312308
101312732
101316534
101317658
101317666
101320586
101321936
101323885
101324026
101324332
101325039
101326081
101326560
101326879
101331140
101331652
101333794
101334283
101335441
101335883
101336091
101336195
101339201
101339420
101340626
101342375
101345792
101347642
101353737
101362522
101362708
101364068
101367998
101371760
101372242
101372310
101378749
101378942
101380751
101385320
101386073
101392012
101392868
101394995
101400407
101403580
101406318
101408296
101408422
101409181
101411168
101414732
101415638
101417670
101418465
101419125
101421962
101424698
101427969
101429992
101430573
101436009
101436560
101439062
101440659
101442365
101444217
101446384
101446950
101448417
101458937
101460130
101460775
101460879
101469820
101473616
101474112
101474730
101475489
101476366
101476920
101478540
101480480
101480733
101489750
101490360
101500755
101503482
101504303
101509360
101516387
101524319
101528536
101535127
101536163
101538547
101551062
101561050
101561815
101587725
101594554
101600807
101601779
101610551
101612565
101622447
101665008
101680528
101692807
101696836
101707763
101713471
101737168
101748322
101765190
110568814
110637723
110639075
110649535
